   1              		.syntax unified
   2              		.cpu cortex-m3
   3              		.fpu softvfp
   4              		.eabi_attribute 20, 1
   5              		.eabi_attribute 21, 1
   6              		.eabi_attribute 23, 3
   7              		.eabi_attribute 24, 1
   8              		.eabi_attribute 25, 1
   9              		.eabi_attribute 26, 1
  10              		.eabi_attribute 30, 1
  11              		.eabi_attribute 34, 1
  12              		.eabi_attribute 18, 4
  13              		.thumb
  14              		.file	"AltPollQ.c"
  15              		.text
  16              	.Ltext0:
  17              		.cfi_sections	.debug_frame
  18              		.section	.text.vPolledQueueProducer,"ax",%progbits
  19              		.align	2
  20              		.thumb
  21              		.thumb_func
  23              	vPolledQueueProducer:
  24              	.LFB2:
  25              		.file 1 "../Demo/Common/Minimal/AltPollQ.c"
   1:../Demo/Common/Minimal/AltPollQ.c **** /*
   2:../Demo/Common/Minimal/AltPollQ.c ****     FreeRTOS V8.2.3 - Copyright (C) 2015 Real Time Engineers Ltd.
   3:../Demo/Common/Minimal/AltPollQ.c ****     All rights reserved
   4:../Demo/Common/Minimal/AltPollQ.c **** 
   5:../Demo/Common/Minimal/AltPollQ.c ****     VISIT http://www.FreeRTOS.org TO ENSURE YOU ARE USING THE LATEST VERSION.
   6:../Demo/Common/Minimal/AltPollQ.c **** 
   7:../Demo/Common/Minimal/AltPollQ.c ****     This file is part of the FreeRTOS distribution.
   8:../Demo/Common/Minimal/AltPollQ.c **** 
   9:../Demo/Common/Minimal/AltPollQ.c ****     FreeRTOS is free software; you can redistribute it and/or modify it under
  10:../Demo/Common/Minimal/AltPollQ.c ****     the terms of the GNU General Public License (version 2) as published by the
  11:../Demo/Common/Minimal/AltPollQ.c ****     Free Software Foundation >>>> AND MODIFIED BY <<<< the FreeRTOS exception.
  12:../Demo/Common/Minimal/AltPollQ.c **** 
  13:../Demo/Common/Minimal/AltPollQ.c ****     ***************************************************************************
  14:../Demo/Common/Minimal/AltPollQ.c ****     >>!   NOTE: The modification to the GPL is included to allow you to     !<<
  15:../Demo/Common/Minimal/AltPollQ.c ****     >>!   distribute a combined work that includes FreeRTOS without being   !<<
  16:../Demo/Common/Minimal/AltPollQ.c ****     >>!   obliged to provide the source code for proprietary components     !<<
  17:../Demo/Common/Minimal/AltPollQ.c ****     >>!   outside of the FreeRTOS kernel.                                   !<<
  18:../Demo/Common/Minimal/AltPollQ.c ****     ***************************************************************************
  19:../Demo/Common/Minimal/AltPollQ.c **** 
  20:../Demo/Common/Minimal/AltPollQ.c ****     FreeRTOS is distributed in the hope that it will be useful, but WITHOUT ANY
  21:../Demo/Common/Minimal/AltPollQ.c ****     WARRANTY; without even the implied warranty of MERCHANTABILITY or FITNESS
  22:../Demo/Common/Minimal/AltPollQ.c ****     FOR A PARTICULAR PURPOSE.  Full license text is available on the following
  23:../Demo/Common/Minimal/AltPollQ.c ****     link: http://www.freertos.org/a00114.html
  24:../Demo/Common/Minimal/AltPollQ.c **** 
  25:../Demo/Common/Minimal/AltPollQ.c ****     ***************************************************************************
  26:../Demo/Common/Minimal/AltPollQ.c ****      *                                                                       *
  27:../Demo/Common/Minimal/AltPollQ.c ****      *    FreeRTOS provides completely free yet professionally developed,    *
  28:../Demo/Common/Minimal/AltPollQ.c ****      *    robust, strictly quality controlled, supported, and cross          *
  29:../Demo/Common/Minimal/AltPollQ.c ****      *    platform software that is more than just the market leader, it     *
  30:../Demo/Common/Minimal/AltPollQ.c ****      *    is the industry's de facto standard.                               *
  31:../Demo/Common/Minimal/AltPollQ.c ****      *                                                                       *
  32:../Demo/Common/Minimal/AltPollQ.c ****      *    Help yourself get started quickly while simultaneously helping     *
  33:../Demo/Common/Minimal/AltPollQ.c ****      *    to support the FreeRTOS project by purchasing a FreeRTOS           *
  34:../Demo/Common/Minimal/AltPollQ.c ****      *    tutorial book, reference manual, or both:                          *
  35:../Demo/Common/Minimal/AltPollQ.c ****      *    http://www.FreeRTOS.org/Documentation                              *
  36:../Demo/Common/Minimal/AltPollQ.c ****      *                                                                       *
  37:../Demo/Common/Minimal/AltPollQ.c ****     ***************************************************************************
  38:../Demo/Common/Minimal/AltPollQ.c **** 
  39:../Demo/Common/Minimal/AltPollQ.c ****     http://www.FreeRTOS.org/FAQHelp.html - Having a problem?  Start by reading
  40:../Demo/Common/Minimal/AltPollQ.c ****     the FAQ page "My application does not run, what could be wrong?".  Have you
  41:../Demo/Common/Minimal/AltPollQ.c ****     defined configASSERT()?
  42:../Demo/Common/Minimal/AltPollQ.c **** 
  43:../Demo/Common/Minimal/AltPollQ.c ****     http://www.FreeRTOS.org/support - In return for receiving this top quality
  44:../Demo/Common/Minimal/AltPollQ.c ****     embedded software for free we request you assist our global community by
  45:../Demo/Common/Minimal/AltPollQ.c ****     participating in the support forum.
  46:../Demo/Common/Minimal/AltPollQ.c **** 
  47:../Demo/Common/Minimal/AltPollQ.c ****     http://www.FreeRTOS.org/training - Investing in training allows your team to
  48:../Demo/Common/Minimal/AltPollQ.c ****     be as productive as possible as early as possible.  Now you can receive
  49:../Demo/Common/Minimal/AltPollQ.c ****     FreeRTOS training directly from Richard Barry, CEO of Real Time Engineers
  50:../Demo/Common/Minimal/AltPollQ.c ****     Ltd, and the world's leading authority on the world's leading RTOS.
  51:../Demo/Common/Minimal/AltPollQ.c **** 
  52:../Demo/Common/Minimal/AltPollQ.c ****     http://www.FreeRTOS.org/plus - A selection of FreeRTOS ecosystem products,
  53:../Demo/Common/Minimal/AltPollQ.c ****     including FreeRTOS+Trace - an indispensable productivity tool, a DOS
  54:../Demo/Common/Minimal/AltPollQ.c ****     compatible FAT file system, and our tiny thread aware UDP/IP stack.
  55:../Demo/Common/Minimal/AltPollQ.c **** 
  56:../Demo/Common/Minimal/AltPollQ.c ****     http://www.FreeRTOS.org/labs - Where new FreeRTOS products go to incubate.
  57:../Demo/Common/Minimal/AltPollQ.c ****     Come and try FreeRTOS+TCP, our new open source TCP/IP stack for FreeRTOS.
  58:../Demo/Common/Minimal/AltPollQ.c **** 
  59:../Demo/Common/Minimal/AltPollQ.c ****     http://www.OpenRTOS.com - Real Time Engineers ltd. license FreeRTOS to High
  60:../Demo/Common/Minimal/AltPollQ.c ****     Integrity Systems ltd. to sell under the OpenRTOS brand.  Low cost OpenRTOS
  61:../Demo/Common/Minimal/AltPollQ.c ****     licenses offer ticketed support, indemnification and commercial middleware.
  62:../Demo/Common/Minimal/AltPollQ.c **** 
  63:../Demo/Common/Minimal/AltPollQ.c ****     http://www.SafeRTOS.com - High Integrity Systems also provide a safety
  64:../Demo/Common/Minimal/AltPollQ.c ****     engineered and independently SIL3 certified version for use in safety and
  65:../Demo/Common/Minimal/AltPollQ.c ****     mission critical applications that require provable dependability.
  66:../Demo/Common/Minimal/AltPollQ.c **** 
  67:../Demo/Common/Minimal/AltPollQ.c ****     1 tab == 4 spaces!
  68:../Demo/Common/Minimal/AltPollQ.c **** */
  69:../Demo/Common/Minimal/AltPollQ.c **** 
  70:../Demo/Common/Minimal/AltPollQ.c **** /*
  71:../Demo/Common/Minimal/AltPollQ.c ****  * This is a version of PollQ.c that uses the alternative (Alt) API.
  72:../Demo/Common/Minimal/AltPollQ.c ****  * 
  73:../Demo/Common/Minimal/AltPollQ.c ****  * Creates two tasks that communicate over a single queue.  One task acts as a
  74:../Demo/Common/Minimal/AltPollQ.c ****  * producer, the other a consumer.
  75:../Demo/Common/Minimal/AltPollQ.c ****  *
  76:../Demo/Common/Minimal/AltPollQ.c ****  * The producer loops for three iteration, posting an incrementing number onto the
  77:../Demo/Common/Minimal/AltPollQ.c ****  * queue each cycle.  It then delays for a fixed period before doing exactly the
  78:../Demo/Common/Minimal/AltPollQ.c ****  * same again.
  79:../Demo/Common/Minimal/AltPollQ.c ****  *
  80:../Demo/Common/Minimal/AltPollQ.c ****  * The consumer loops emptying the queue.  Each item removed from the queue is
  81:../Demo/Common/Minimal/AltPollQ.c ****  * checked to ensure it contains the expected value.  When the queue is empty it
  82:../Demo/Common/Minimal/AltPollQ.c ****  * blocks for a fixed period, then does the same again.
  83:../Demo/Common/Minimal/AltPollQ.c ****  *
  84:../Demo/Common/Minimal/AltPollQ.c ****  * All queue access is performed without blocking.  The consumer completely empties
  85:../Demo/Common/Minimal/AltPollQ.c ****  * the queue each time it runs so the producer should never find the queue full.
  86:../Demo/Common/Minimal/AltPollQ.c ****  *
  87:../Demo/Common/Minimal/AltPollQ.c ****  * An error is flagged if the consumer obtains an unexpected value or the producer
  88:../Demo/Common/Minimal/AltPollQ.c ****  * find the queue is full.
  89:../Demo/Common/Minimal/AltPollQ.c ****  */
  90:../Demo/Common/Minimal/AltPollQ.c **** 
  91:../Demo/Common/Minimal/AltPollQ.c **** /*
  92:../Demo/Common/Minimal/AltPollQ.c **** Changes from V2.0.0
  93:../Demo/Common/Minimal/AltPollQ.c **** 
  94:../Demo/Common/Minimal/AltPollQ.c **** 	+ Delay periods are now specified using variables and constants of
  95:../Demo/Common/Minimal/AltPollQ.c **** 	  TickType_t rather than uint32_t.
  96:../Demo/Common/Minimal/AltPollQ.c **** */
  97:../Demo/Common/Minimal/AltPollQ.c **** 
  98:../Demo/Common/Minimal/AltPollQ.c **** #include <stdlib.h>
  99:../Demo/Common/Minimal/AltPollQ.c **** 
 100:../Demo/Common/Minimal/AltPollQ.c **** /* Scheduler include files. */
 101:../Demo/Common/Minimal/AltPollQ.c **** #include "FreeRTOS.h"
 102:../Demo/Common/Minimal/AltPollQ.c **** #include "task.h"
 103:../Demo/Common/Minimal/AltPollQ.c **** #include "queue.h"
 104:../Demo/Common/Minimal/AltPollQ.c **** 
 105:../Demo/Common/Minimal/AltPollQ.c **** /* Demo program include files. */
 106:../Demo/Common/Minimal/AltPollQ.c **** #include "AltPollQ.h"
 107:../Demo/Common/Minimal/AltPollQ.c **** 
 108:../Demo/Common/Minimal/AltPollQ.c **** #define pollqSTACK_SIZE			configMINIMAL_STACK_SIZE
 109:../Demo/Common/Minimal/AltPollQ.c **** #define pollqQUEUE_SIZE			( 10 )
 110:../Demo/Common/Minimal/AltPollQ.c **** #define pollqPRODUCER_DELAY		( ( TickType_t ) 200 / portTICK_PERIOD_MS )
 111:../Demo/Common/Minimal/AltPollQ.c **** #define pollqCONSUMER_DELAY		( pollqPRODUCER_DELAY - ( TickType_t ) ( 20 / portTICK_PERIOD_MS ) )
 112:../Demo/Common/Minimal/AltPollQ.c **** #define pollqNO_DELAY			( ( TickType_t ) 0 )
 113:../Demo/Common/Minimal/AltPollQ.c **** #define pollqVALUES_TO_PRODUCE	( ( BaseType_t ) 3 )
 114:../Demo/Common/Minimal/AltPollQ.c **** #define pollqINITIAL_VALUE		( ( BaseType_t ) 0 )
 115:../Demo/Common/Minimal/AltPollQ.c **** 
 116:../Demo/Common/Minimal/AltPollQ.c **** /* The task that posts the incrementing number onto the queue. */
 117:../Demo/Common/Minimal/AltPollQ.c **** static portTASK_FUNCTION_PROTO( vPolledQueueProducer, pvParameters );
 118:../Demo/Common/Minimal/AltPollQ.c **** 
 119:../Demo/Common/Minimal/AltPollQ.c **** /* The task that empties the queue. */
 120:../Demo/Common/Minimal/AltPollQ.c **** static portTASK_FUNCTION_PROTO( vPolledQueueConsumer, pvParameters );
 121:../Demo/Common/Minimal/AltPollQ.c **** 
 122:../Demo/Common/Minimal/AltPollQ.c **** /* Variables that are used to check that the tasks are still running with no
 123:../Demo/Common/Minimal/AltPollQ.c **** errors. */
 124:../Demo/Common/Minimal/AltPollQ.c **** static volatile BaseType_t xPollingConsumerCount = pollqINITIAL_VALUE, xPollingProducerCount = poll
 125:../Demo/Common/Minimal/AltPollQ.c **** 
 126:../Demo/Common/Minimal/AltPollQ.c **** /*-----------------------------------------------------------*/
 127:../Demo/Common/Minimal/AltPollQ.c **** 
 128:../Demo/Common/Minimal/AltPollQ.c **** void vStartAltPolledQueueTasks( UBaseType_t uxPriority )
 129:../Demo/Common/Minimal/AltPollQ.c **** {
 130:../Demo/Common/Minimal/AltPollQ.c **** static QueueHandle_t xPolledQueue;
 131:../Demo/Common/Minimal/AltPollQ.c **** 
 132:../Demo/Common/Minimal/AltPollQ.c **** 	/* Create the queue used by the producer and consumer. */
 133:../Demo/Common/Minimal/AltPollQ.c **** 	xPolledQueue = xQueueCreate( pollqQUEUE_SIZE, ( UBaseType_t ) sizeof( uint16_t ) );
 134:../Demo/Common/Minimal/AltPollQ.c **** 
 135:../Demo/Common/Minimal/AltPollQ.c **** 	/* vQueueAddToRegistry() adds the queue to the queue registry, if one is
 136:../Demo/Common/Minimal/AltPollQ.c **** 	in use.  The queue registry is provided as a means for kernel aware 
 137:../Demo/Common/Minimal/AltPollQ.c **** 	debuggers to locate queues and has no purpose if a kernel aware debugger
 138:../Demo/Common/Minimal/AltPollQ.c **** 	is not being used.  The call to vQueueAddToRegistry() will be removed
 139:../Demo/Common/Minimal/AltPollQ.c **** 	by the pre-processor if configQUEUE_REGISTRY_SIZE is not defined or is 
 140:../Demo/Common/Minimal/AltPollQ.c **** 	defined to be less than 1. */
 141:../Demo/Common/Minimal/AltPollQ.c **** 	vQueueAddToRegistry( xPolledQueue, "AltPollQueue" );
 142:../Demo/Common/Minimal/AltPollQ.c **** 
 143:../Demo/Common/Minimal/AltPollQ.c **** 
 144:../Demo/Common/Minimal/AltPollQ.c **** 	/* Spawn the producer and consumer. */
 145:../Demo/Common/Minimal/AltPollQ.c **** 	xTaskCreate( vPolledQueueConsumer, "QConsNB", pollqSTACK_SIZE, ( void * ) &xPolledQueue, uxPriorit
 146:../Demo/Common/Minimal/AltPollQ.c **** 	xTaskCreate( vPolledQueueProducer, "QProdNB", pollqSTACK_SIZE, ( void * ) &xPolledQueue, uxPriorit
 147:../Demo/Common/Minimal/AltPollQ.c **** }
 148:../Demo/Common/Minimal/AltPollQ.c **** /*-----------------------------------------------------------*/
 149:../Demo/Common/Minimal/AltPollQ.c **** 
 150:../Demo/Common/Minimal/AltPollQ.c **** static portTASK_FUNCTION( vPolledQueueProducer, pvParameters )
 151:../Demo/Common/Minimal/AltPollQ.c **** {
  26              		.loc 1 151 0
  27              		.cfi_startproc
  28              		@ args = 0, pretend = 0, frame = 8
  29              		@ frame_needed = 0, uses_anonymous_args = 0
  30              	.LVL0:
  31 0000 70B5     		push	{r4, r5, r6, lr}
  32              		.cfi_def_cfa_offset 16
  33              		.cfi_offset 4, -16
  34              		.cfi_offset 5, -12
  35              		.cfi_offset 6, -8
  36              		.cfi_offset 14, -4
  37 0002 82B0     		sub	sp, sp, #8
  38              		.cfi_def_cfa_offset 24
  39 0004 0646     		mov	r6, r0
 152:../Demo/Common/Minimal/AltPollQ.c **** uint16_t usValue = ( uint16_t ) 0;
  40              		.loc 1 152 0
  41 0006 0025     		movs	r5, #0
  42 0008 ADF80650 		strh	r5, [sp, #6]	@ movhi
  43              	.LVL1:
  44              	.L6:
 153:../Demo/Common/Minimal/AltPollQ.c **** BaseType_t xError = pdFALSE, xLoop;
 154:../Demo/Common/Minimal/AltPollQ.c **** 
 155:../Demo/Common/Minimal/AltPollQ.c **** 	#ifdef USE_STDIO
 156:../Demo/Common/Minimal/AltPollQ.c **** 	void vPrintDisplayMessage( const char * const * ppcMessageToSend );
 157:../Demo/Common/Minimal/AltPollQ.c **** 	
 158:../Demo/Common/Minimal/AltPollQ.c **** 		const char * const pcTaskStartMsg = "Alt polling queue producer task started.\r\n";
 159:../Demo/Common/Minimal/AltPollQ.c **** 
 160:../Demo/Common/Minimal/AltPollQ.c **** 		/* Queue a message for printing to say the task has started. */
 161:../Demo/Common/Minimal/AltPollQ.c **** 		vPrintDisplayMessage( &pcTaskStartMsg );
 162:../Demo/Common/Minimal/AltPollQ.c **** 	#endif
 163:../Demo/Common/Minimal/AltPollQ.c **** 
 164:../Demo/Common/Minimal/AltPollQ.c **** 	for( ;; )
 165:../Demo/Common/Minimal/AltPollQ.c **** 	{		
 166:../Demo/Common/Minimal/AltPollQ.c **** 		for( xLoop = 0; xLoop < pollqVALUES_TO_PRODUCE; xLoop++ )
  45              		.loc 1 166 0
  46 000c 0024     		movs	r4, #0
  47 000e 19E0     		b	.L2
  48              	.LVL2:
  49              	.L5:
 167:../Demo/Common/Minimal/AltPollQ.c **** 		{
 168:../Demo/Common/Minimal/AltPollQ.c **** 			/* Send an incrementing number on the queue without blocking. */
 169:../Demo/Common/Minimal/AltPollQ.c **** 			if( xQueueAltSendToBack( *( ( QueueHandle_t * ) pvParameters ), ( void * ) &usValue, pollqNO_DEL
  50              		.loc 1 169 0
  51 0010 3068     		ldr	r0, [r6]
  52 0012 0DF10601 		add	r1, sp, #6
  53 0016 0022     		movs	r2, #0
  54 0018 1346     		mov	r3, r2
  55 001a FFF7FEFF 		bl	xQueueAltGenericSend
  56              	.LVL3:
  57 001e 0128     		cmp	r0, #1
  58 0020 0ED1     		bne	.L7
 170:../Demo/Common/Minimal/AltPollQ.c **** 			{
 171:../Demo/Common/Minimal/AltPollQ.c **** 				/* We should never find the queue full so if we get here there
 172:../Demo/Common/Minimal/AltPollQ.c **** 				has been an error. */
 173:../Demo/Common/Minimal/AltPollQ.c **** 				xError = pdTRUE;
 174:../Demo/Common/Minimal/AltPollQ.c **** 			}
 175:../Demo/Common/Minimal/AltPollQ.c **** 			else
 176:../Demo/Common/Minimal/AltPollQ.c **** 			{
 177:../Demo/Common/Minimal/AltPollQ.c **** 				if( xError == pdFALSE )
  59              		.loc 1 177 0
  60 0022 3DB9     		cbnz	r5, .L4
 178:../Demo/Common/Minimal/AltPollQ.c **** 				{
 179:../Demo/Common/Minimal/AltPollQ.c **** 					/* If an error has ever been recorded we stop incrementing the
 180:../Demo/Common/Minimal/AltPollQ.c **** 					check variable. */
 181:../Demo/Common/Minimal/AltPollQ.c **** 					portENTER_CRITICAL();
  61              		.loc 1 181 0
  62 0024 FFF7FEFF 		bl	vPortEnterCritical
  63              	.LVL4:
 182:../Demo/Common/Minimal/AltPollQ.c **** 						xPollingProducerCount++;
  64              		.loc 1 182 0
  65 0028 094A     		ldr	r2, .L9
  66 002a 1368     		ldr	r3, [r2]
  67 002c 0133     		adds	r3, r3, #1
  68 002e 1360     		str	r3, [r2]
 183:../Demo/Common/Minimal/AltPollQ.c **** 					portEXIT_CRITICAL();
  69              		.loc 1 183 0
  70 0030 FFF7FEFF 		bl	vPortExitCritical
  71              	.LVL5:
  72              	.L4:
 184:../Demo/Common/Minimal/AltPollQ.c **** 				}
 185:../Demo/Common/Minimal/AltPollQ.c **** 
 186:../Demo/Common/Minimal/AltPollQ.c **** 				/* Update the value we are going to post next time around. */
 187:../Demo/Common/Minimal/AltPollQ.c **** 				usValue++;
  73              		.loc 1 187 0
  74 0034 BDF80630 		ldrh	r3, [sp, #6]
  75 0038 0133     		adds	r3, r3, #1
  76 003a ADF80630 		strh	r3, [sp, #6]	@ movhi
  77 003e 00E0     		b	.L3
  78              	.L7:
 173:../Demo/Common/Minimal/AltPollQ.c **** 			}
  79              		.loc 1 173 0
  80 0040 0125     		movs	r5, #1
  81              	.LVL6:
  82              	.L3:
 166:../Demo/Common/Minimal/AltPollQ.c **** 		{
  83              		.loc 1 166 0 discriminator 2
  84 0042 0134     		adds	r4, r4, #1
  85              	.LVL7:
  86              	.L2:
 166:../Demo/Common/Minimal/AltPollQ.c **** 		{
  87              		.loc 1 166 0 is_stmt 0 discriminator 1
  88 0044 022C     		cmp	r4, #2
  89 0046 E3DD     		ble	.L5
 188:../Demo/Common/Minimal/AltPollQ.c **** 			}
 189:../Demo/Common/Minimal/AltPollQ.c **** 		}
 190:../Demo/Common/Minimal/AltPollQ.c **** 
 191:../Demo/Common/Minimal/AltPollQ.c **** 		/* Wait before we start posting again to ensure the consumer runs and
 192:../Demo/Common/Minimal/AltPollQ.c **** 		empties the queue. */
 193:../Demo/Common/Minimal/AltPollQ.c **** 		vTaskDelay( pollqPRODUCER_DELAY );
  90              		.loc 1 193 0 is_stmt 1
  91 0048 C820     		movs	r0, #200
  92 004a FFF7FEFF 		bl	vTaskDelay
  93              	.LVL8:
 194:../Demo/Common/Minimal/AltPollQ.c **** 	}
  94              		.loc 1 194 0
  95 004e DDE7     		b	.L6
  96              	.L10:
  97              		.align	2
  98              	.L9:
  99 0050 00000000 		.word	.LANCHOR0
 100              		.cfi_endproc
 101              	.LFE2:
 103              		.section	.text.vPolledQueueConsumer,"ax",%progbits
 104              		.align	2
 105              		.thumb
 106              		.thumb_func
 108              	vPolledQueueConsumer:
 109              	.LFB3:
 195:../Demo/Common/Minimal/AltPollQ.c **** }  /*lint !e818 Function prototype must conform to API. */
 196:../Demo/Common/Minimal/AltPollQ.c **** /*-----------------------------------------------------------*/
 197:../Demo/Common/Minimal/AltPollQ.c **** 
 198:../Demo/Common/Minimal/AltPollQ.c **** static portTASK_FUNCTION( vPolledQueueConsumer, pvParameters )
 199:../Demo/Common/Minimal/AltPollQ.c **** {
 110              		.loc 1 199 0
 111              		.cfi_startproc
 112              		@ args = 0, pretend = 0, frame = 8
 113              		@ frame_needed = 0, uses_anonymous_args = 0
 114              	.LVL9:
 115 0000 70B5     		push	{r4, r5, r6, lr}
 116              		.cfi_def_cfa_offset 16
 117              		.cfi_offset 4, -16
 118              		.cfi_offset 5, -12
 119              		.cfi_offset 6, -8
 120              		.cfi_offset 14, -4
 121 0002 82B0     		sub	sp, sp, #8
 122              		.cfi_def_cfa_offset 24
 123 0004 0446     		mov	r4, r0
 124              	.LVL10:
 200:../Demo/Common/Minimal/AltPollQ.c **** uint16_t usData, usExpectedValue = ( uint16_t ) 0;
 201:../Demo/Common/Minimal/AltPollQ.c **** BaseType_t xError = pdFALSE;
 125              		.loc 1 201 0
 126 0006 0026     		movs	r6, #0
 200:../Demo/Common/Minimal/AltPollQ.c **** uint16_t usData, usExpectedValue = ( uint16_t ) 0;
 127              		.loc 1 200 0
 128 0008 3546     		mov	r5, r6
 129 000a 1CE0     		b	.L12
 130              	.LVL11:
 131              	.L15:
 202:../Demo/Common/Minimal/AltPollQ.c **** 
 203:../Demo/Common/Minimal/AltPollQ.c **** 	#ifdef USE_STDIO
 204:../Demo/Common/Minimal/AltPollQ.c **** 	void vPrintDisplayMessage( const char * const * ppcMessageToSend );
 205:../Demo/Common/Minimal/AltPollQ.c **** 	
 206:../Demo/Common/Minimal/AltPollQ.c **** 		const char * const pcTaskStartMsg = "Alt blocking queue consumer task started.\r\n";
 207:../Demo/Common/Minimal/AltPollQ.c **** 
 208:../Demo/Common/Minimal/AltPollQ.c **** 		/* Queue a message for printing to say the task has started. */
 209:../Demo/Common/Minimal/AltPollQ.c **** 		vPrintDisplayMessage( &pcTaskStartMsg );
 210:../Demo/Common/Minimal/AltPollQ.c **** 	#endif
 211:../Demo/Common/Minimal/AltPollQ.c **** 
 212:../Demo/Common/Minimal/AltPollQ.c **** 	for( ;; )
 213:../Demo/Common/Minimal/AltPollQ.c **** 	{		
 214:../Demo/Common/Minimal/AltPollQ.c **** 		/* Loop until the queue is empty. */
 215:../Demo/Common/Minimal/AltPollQ.c **** 		while( uxQueueMessagesWaiting( *( ( QueueHandle_t * ) pvParameters ) ) )
 216:../Demo/Common/Minimal/AltPollQ.c **** 		{
 217:../Demo/Common/Minimal/AltPollQ.c **** 			if( xQueueAltReceive( *( ( QueueHandle_t * ) pvParameters ), &usData, pollqNO_DELAY ) == pdPASS 
 132              		.loc 1 217 0
 133 000c 2068     		ldr	r0, [r4]
 134 000e 0DF10601 		add	r1, sp, #6
 135 0012 0022     		movs	r2, #0
 136 0014 1346     		mov	r3, r2
 137 0016 FFF7FEFF 		bl	xQueueAltGenericReceive
 138              	.LVL12:
 139 001a 0128     		cmp	r0, #1
 140 001c 13D1     		bne	.L12
 218:../Demo/Common/Minimal/AltPollQ.c **** 			{
 219:../Demo/Common/Minimal/AltPollQ.c **** 				if( usData != usExpectedValue )
 141              		.loc 1 219 0
 142 001e BDF80630 		ldrh	r3, [sp, #6]
 143 0022 AB42     		cmp	r3, r5
 144 0024 0AD1     		bne	.L16
 220:../Demo/Common/Minimal/AltPollQ.c **** 				{
 221:../Demo/Common/Minimal/AltPollQ.c **** 					/* This is not what we expected to receive so an error has
 222:../Demo/Common/Minimal/AltPollQ.c **** 					occurred. */
 223:../Demo/Common/Minimal/AltPollQ.c **** 					xError = pdTRUE;
 224:../Demo/Common/Minimal/AltPollQ.c **** 
 225:../Demo/Common/Minimal/AltPollQ.c **** 					/* Catch-up to the value we received so our next expected
 226:../Demo/Common/Minimal/AltPollQ.c **** 					value should again be correct. */
 227:../Demo/Common/Minimal/AltPollQ.c **** 					usExpectedValue = usData;
 228:../Demo/Common/Minimal/AltPollQ.c **** 				}
 229:../Demo/Common/Minimal/AltPollQ.c **** 				else
 230:../Demo/Common/Minimal/AltPollQ.c **** 				{
 231:../Demo/Common/Minimal/AltPollQ.c **** 					if( xError == pdFALSE )
 145              		.loc 1 231 0
 146 0026 5EB9     		cbnz	r6, .L17
 232:../Demo/Common/Minimal/AltPollQ.c **** 					{
 233:../Demo/Common/Minimal/AltPollQ.c **** 						/* Only increment the check variable if no errors have
 234:../Demo/Common/Minimal/AltPollQ.c **** 						occurred. */
 235:../Demo/Common/Minimal/AltPollQ.c **** 						portENTER_CRITICAL();
 147              		.loc 1 235 0
 148 0028 FFF7FEFF 		bl	vPortEnterCritical
 149              	.LVL13:
 236:../Demo/Common/Minimal/AltPollQ.c **** 							xPollingConsumerCount++;
 150              		.loc 1 236 0
 151 002c 0A4A     		ldr	r2, .L19
 152 002e 1368     		ldr	r3, [r2]
 153 0030 0133     		adds	r3, r3, #1
 154 0032 1360     		str	r3, [r2]
 237:../Demo/Common/Minimal/AltPollQ.c **** 						portEXIT_CRITICAL();
 155              		.loc 1 237 0
 156 0034 FFF7FEFF 		bl	vPortExitCritical
 157              	.LVL14:
 158 0038 2B46     		mov	r3, r5
 159 003a 02E0     		b	.L14
 160              	.L16:
 223:../Demo/Common/Minimal/AltPollQ.c **** 
 161              		.loc 1 223 0
 162 003c 0126     		movs	r6, #1
 163              	.LVL15:
 164 003e 00E0     		b	.L14
 165              	.LVL16:
 166              	.L17:
 167 0040 2B46     		mov	r3, r5
 168              	.LVL17:
 169              	.L14:
 238:../Demo/Common/Minimal/AltPollQ.c **** 					}
 239:../Demo/Common/Minimal/AltPollQ.c **** 				}
 240:../Demo/Common/Minimal/AltPollQ.c **** 
 241:../Demo/Common/Minimal/AltPollQ.c **** 				/* Next time round we would expect the number to be one higher. */
 242:../Demo/Common/Minimal/AltPollQ.c **** 				usExpectedValue++;
 170              		.loc 1 242 0
 171 0042 0133     		adds	r3, r3, #1
 172              	.LVL18:
 173 0044 9DB2     		uxth	r5, r3
 174              	.LVL19:
 175              	.L12:
 215:../Demo/Common/Minimal/AltPollQ.c **** 		{
 176              		.loc 1 215 0
 177 0046 2068     		ldr	r0, [r4]
 178 0048 FFF7FEFF 		bl	uxQueueMessagesWaiting
 179              	.LVL20:
 180 004c 0028     		cmp	r0, #0
 181 004e DDD1     		bne	.L15
 243:../Demo/Common/Minimal/AltPollQ.c **** 			}
 244:../Demo/Common/Minimal/AltPollQ.c **** 		}
 245:../Demo/Common/Minimal/AltPollQ.c **** 
 246:../Demo/Common/Minimal/AltPollQ.c **** 		/* Now the queue is empty we block, allowing the producer to place more
 247:../Demo/Common/Minimal/AltPollQ.c **** 		items in the queue. */
 248:../Demo/Common/Minimal/AltPollQ.c **** 		vTaskDelay( pollqCONSUMER_DELAY );
 182              		.loc 1 248 0
 183 0050 B420     		movs	r0, #180
 184 0052 FFF7FEFF 		bl	vTaskDelay
 185              	.LVL21:
 249:../Demo/Common/Minimal/AltPollQ.c **** 	}
 186              		.loc 1 249 0
 187 0056 F6E7     		b	.L12
 188              	.L20:
 189              		.align	2
 190              	.L19:
 191 0058 00000000 		.word	.LANCHOR1
 192              		.cfi_endproc
 193              	.LFE3:
 195              		.section	.text.vStartAltPolledQueueTasks,"ax",%progbits
 196              		.align	2
 197              		.global	vStartAltPolledQueueTasks
 198              		.thumb
 199              		.thumb_func
 201              	vStartAltPolledQueueTasks:
 202              	.LFB1:
 129:../Demo/Common/Minimal/AltPollQ.c **** static QueueHandle_t xPolledQueue;
 203              		.loc 1 129 0
 204              		.cfi_startproc
 205              		@ args = 0, pretend = 0, frame = 0
 206              		@ frame_needed = 0, uses_anonymous_args = 0
 207              	.LVL22:
 208 0000 70B5     		push	{r4, r5, r6, lr}
 209              		.cfi_def_cfa_offset 16
 210              		.cfi_offset 4, -16
 211              		.cfi_offset 5, -12
 212              		.cfi_offset 6, -8
 213              		.cfi_offset 14, -4
 214 0002 84B0     		sub	sp, sp, #16
 215              		.cfi_def_cfa_offset 32
 216 0004 0646     		mov	r6, r0
 133:../Demo/Common/Minimal/AltPollQ.c **** 
 217              		.loc 1 133 0
 218 0006 0A20     		movs	r0, #10
 219              	.LVL23:
 220 0008 0221     		movs	r1, #2
 221 000a 0022     		movs	r2, #0
 222 000c FFF7FEFF 		bl	xQueueGenericCreate
 223              	.LVL24:
 224 0010 0C4D     		ldr	r5, .L23
 225 0012 2860     		str	r0, [r5]
 145:../Demo/Common/Minimal/AltPollQ.c **** 	xTaskCreate( vPolledQueueProducer, "QProdNB", pollqSTACK_SIZE, ( void * ) &xPolledQueue, uxPriorit
 226              		.loc 1 145 0
 227 0014 0096     		str	r6, [sp]
 228 0016 0024     		movs	r4, #0
 229 0018 0194     		str	r4, [sp, #4]
 230 001a 0294     		str	r4, [sp, #8]
 231 001c 0394     		str	r4, [sp, #12]
 232 001e 0A48     		ldr	r0, .L23+4
 233 0020 0A49     		ldr	r1, .L23+8
 234 0022 8022     		movs	r2, #128
 235 0024 2B46     		mov	r3, r5
 236 0026 FFF7FEFF 		bl	xTaskGenericCreate
 237              	.LVL25:
 146:../Demo/Common/Minimal/AltPollQ.c **** }
 238              		.loc 1 146 0
 239 002a 0096     		str	r6, [sp]
 240 002c 0194     		str	r4, [sp, #4]
 241 002e 0294     		str	r4, [sp, #8]
 242 0030 0394     		str	r4, [sp, #12]
 243 0032 0748     		ldr	r0, .L23+12
 244 0034 0749     		ldr	r1, .L23+16
 245 0036 8022     		movs	r2, #128
 246 0038 2B46     		mov	r3, r5
 247 003a FFF7FEFF 		bl	xTaskGenericCreate
 248              	.LVL26:
 147:../Demo/Common/Minimal/AltPollQ.c **** /*-----------------------------------------------------------*/
 249              		.loc 1 147 0
 250 003e 04B0     		add	sp, sp, #16
 251              		.cfi_def_cfa_offset 16
 252              		@ sp needed
 253 0040 70BD     		pop	{r4, r5, r6, pc}
 254              	.LVL27:
 255              	.L24:
 256 0042 00BF     		.align	2
 257              	.L23:
 258 0044 00000000 		.word	.LANCHOR2
 259 0048 00000000 		.word	vPolledQueueConsumer
 260 004c 00000000 		.word	.LC0
 261 0050 00000000 		.word	vPolledQueueProducer
 262 0054 08000000 		.word	.LC1
 263              		.cfi_endproc
 264              	.LFE1:
 266              		.section	.text.xAreAltPollingQueuesStillRunning,"ax",%progbits
 267              		.align	2
 268              		.global	xAreAltPollingQueuesStillRunning
 269              		.thumb
 270              		.thumb_func
 272              	xAreAltPollingQueuesStillRunning:
 273              	.LFB4:
 250:../Demo/Common/Minimal/AltPollQ.c **** } /*lint !e818 Function prototype must conform to API. */
 251:../Demo/Common/Minimal/AltPollQ.c **** /*-----------------------------------------------------------*/
 252:../Demo/Common/Minimal/AltPollQ.c **** 
 253:../Demo/Common/Minimal/AltPollQ.c **** /* This is called to check that all the created tasks are still running with no errors. */
 254:../Demo/Common/Minimal/AltPollQ.c **** BaseType_t xAreAltPollingQueuesStillRunning( void )
 255:../Demo/Common/Minimal/AltPollQ.c **** {
 274              		.loc 1 255 0
 275              		.cfi_startproc
 276              		@ args = 0, pretend = 0, frame = 0
 277              		@ frame_needed = 0, uses_anonymous_args = 0
 278              		@ link register save eliminated.
 256:../Demo/Common/Minimal/AltPollQ.c **** BaseType_t xReturn;
 257:../Demo/Common/Minimal/AltPollQ.c **** 
 258:../Demo/Common/Minimal/AltPollQ.c **** 	/* Check both the consumer and producer poll count to check they have both
 259:../Demo/Common/Minimal/AltPollQ.c **** 	been changed since out last trip round.  We do not need a critical section
 260:../Demo/Common/Minimal/AltPollQ.c **** 	around the check variables as this is called from a higher priority than
 261:../Demo/Common/Minimal/AltPollQ.c **** 	the other tasks that access the same variables. */
 262:../Demo/Common/Minimal/AltPollQ.c **** 	if( ( xPollingConsumerCount == pollqINITIAL_VALUE ) ||
 279              		.loc 1 262 0
 280 0000 084B     		ldr	r3, .L29
 281 0002 1B68     		ldr	r3, [r3]
 282 0004 23B1     		cbz	r3, .L27
 263:../Demo/Common/Minimal/AltPollQ.c **** 		( xPollingProducerCount == pollqINITIAL_VALUE )
 283              		.loc 1 263 0 discriminator 1
 284 0006 084B     		ldr	r3, .L29+4
 285 0008 1B68     		ldr	r3, [r3]
 262:../Demo/Common/Minimal/AltPollQ.c **** 		( xPollingProducerCount == pollqINITIAL_VALUE )
 286              		.loc 1 262 0 discriminator 1
 287 000a 1BB9     		cbnz	r3, .L28
 264:../Demo/Common/Minimal/AltPollQ.c **** 	  )
 265:../Demo/Common/Minimal/AltPollQ.c **** 	{
 266:../Demo/Common/Minimal/AltPollQ.c **** 		xReturn = pdFALSE;
 288              		.loc 1 266 0
 289 000c 0020     		movs	r0, #0
 290 000e 02E0     		b	.L26
 291              	.L27:
 292 0010 0020     		movs	r0, #0
 293 0012 00E0     		b	.L26
 294              	.L28:
 267:../Demo/Common/Minimal/AltPollQ.c **** 	}
 268:../Demo/Common/Minimal/AltPollQ.c **** 	else
 269:../Demo/Common/Minimal/AltPollQ.c **** 	{
 270:../Demo/Common/Minimal/AltPollQ.c **** 		xReturn = pdTRUE;
 295              		.loc 1 270 0
 296 0014 0120     		movs	r0, #1
 297              	.L26:
 298              	.LVL28:
 271:../Demo/Common/Minimal/AltPollQ.c **** 	}
 272:../Demo/Common/Minimal/AltPollQ.c **** 
 273:../Demo/Common/Minimal/AltPollQ.c **** 	/* Set the check variables back down so we know if they have been
 274:../Demo/Common/Minimal/AltPollQ.c **** 	incremented the next time around. */
 275:../Demo/Common/Minimal/AltPollQ.c **** 	xPollingConsumerCount = pollqINITIAL_VALUE;
 299              		.loc 1 275 0
 300 0016 0023     		movs	r3, #0
 301 0018 024A     		ldr	r2, .L29
 302 001a 1360     		str	r3, [r2]
 276:../Demo/Common/Minimal/AltPollQ.c **** 	xPollingProducerCount = pollqINITIAL_VALUE;
 303              		.loc 1 276 0
 304 001c 024A     		ldr	r2, .L29+4
 305 001e 1360     		str	r3, [r2]
 277:../Demo/Common/Minimal/AltPollQ.c **** 
 278:../Demo/Common/Minimal/AltPollQ.c **** 	return xReturn;
 279:../Demo/Common/Minimal/AltPollQ.c **** }
 306              		.loc 1 279 0
 307 0020 7047     		bx	lr
 308              	.L30:
 309 0022 00BF     		.align	2
 310              	.L29:
 311 0024 00000000 		.word	.LANCHOR1
 312 0028 00000000 		.word	.LANCHOR0
 313              		.cfi_endproc
 314              	.LFE4:
 316              		.section	.bss.xPolledQueue.5087,"aw",%nobits
 317              		.align	2
 318              		.set	.LANCHOR2,. + 0
 321              	xPolledQueue.5087:
 322 0000 00000000 		.space	4
 323              		.section	.bss.xPollingProducerCount,"aw",%nobits
 324              		.align	2
 325              		.set	.LANCHOR0,. + 0
 328              	xPollingProducerCount:
 329 0000 00000000 		.space	4
 330              		.section	.rodata.str1.4,"aMS",%progbits,1
 331              		.align	2
 332              	.LC0:
 333 0000 51436F6E 		.ascii	"QConsNB\000"
 333      734E4200 
 334              	.LC1:
 335 0008 5150726F 		.ascii	"QProdNB\000"
 335      644E4200 
 336              		.section	.bss.xPollingConsumerCount,"aw",%nobits
 337              		.align	2
 338              		.set	.LANCHOR1,. + 0
 341              	xPollingConsumerCount:
 342 0000 00000000 		.space	4
 343              		.text
 344              	.Letext0:
 345              		.file 2 "/usr/local/gcc-arm-none-eabi-4_9-2015q3/arm-none-eabi/include/machine/_default_types.h"
 346              		.file 3 "/usr/local/gcc-arm-none-eabi-4_9-2015q3/arm-none-eabi/include/sys/_stdint.h"
 347              		.file 4 "/home/robb-gosset/workspace/FYP/FreeRTOS/Source/include/projdefs.h"
 348              		.file 5 "/home/robb-gosset/workspace/FYP/FreeRTOS/Source/portable/GCC/ARM_CM3/portmacro.h"
 349              		.file 6 "/home/robb-gosset/workspace/FYP/FreeRTOS/Source/include/task.h"
 350              		.file 7 "/home/robb-gosset/workspace/FYP/FreeRTOS/Source/include/queue.h"
DEFINED SYMBOLS
                            *ABS*:00000000 AltPollQ.c
     /tmp/cc2b7z8D.s:19     .text.vPolledQueueProducer:00000000 $t
     /tmp/cc2b7z8D.s:23     .text.vPolledQueueProducer:00000000 vPolledQueueProducer
     /tmp/cc2b7z8D.s:99     .text.vPolledQueueProducer:00000050 $d
     /tmp/cc2b7z8D.s:104    .text.vPolledQueueConsumer:00000000 $t
     /tmp/cc2b7z8D.s:108    .text.vPolledQueueConsumer:00000000 vPolledQueueConsumer
     /tmp/cc2b7z8D.s:191    .text.vPolledQueueConsumer:00000058 $d
     /tmp/cc2b7z8D.s:196    .text.vStartAltPolledQueueTasks:00000000 $t
     /tmp/cc2b7z8D.s:201    .text.vStartAltPolledQueueTasks:00000000 vStartAltPolledQueueTasks
     /tmp/cc2b7z8D.s:258    .text.vStartAltPolledQueueTasks:00000044 $d
     /tmp/cc2b7z8D.s:267    .text.xAreAltPollingQueuesStillRunning:00000000 $t
     /tmp/cc2b7z8D.s:272    .text.xAreAltPollingQueuesStillRunning:00000000 xAreAltPollingQueuesStillRunning
     /tmp/cc2b7z8D.s:311    .text.xAreAltPollingQueuesStillRunning:00000024 $d
     /tmp/cc2b7z8D.s:317    .bss.xPolledQueue.5087:00000000 $d
     /tmp/cc2b7z8D.s:321    .bss.xPolledQueue.5087:00000000 xPolledQueue.5087
     /tmp/cc2b7z8D.s:324    .bss.xPollingProducerCount:00000000 $d
     /tmp/cc2b7z8D.s:328    .bss.xPollingProducerCount:00000000 xPollingProducerCount
     /tmp/cc2b7z8D.s:331    .rodata.str1.4:00000000 $d
     /tmp/cc2b7z8D.s:337    .bss.xPollingConsumerCount:00000000 $d
     /tmp/cc2b7z8D.s:341    .bss.xPollingConsumerCount:00000000 xPollingConsumerCount
                     .debug_frame:00000010 $d
                           .group:00000000 wm4.0.15bbada38f0fbd9e33c92bb3b56cb535
                           .group:00000000 wm4.newlib.h.8.2702bca278809460f0af6fba1d84eb68
                           .group:00000000 wm4.features.h.22.2e382148a0560adabf236cddd4e880f4
                           .group:00000000 wm4.config.h.220.a09b0b0de3c25be3f39d71990e617bff
                           .group:00000000 wm4._ansi.h.23.9f8fcfa20193763fcf364fb91705c94b
                           .group:00000000 wm4.stdlib.h.13.4ed386f5c1a80d71e72172885d946ef2
                           .group:00000000 wm4.stddef.h.184.aa65fb7281d578229bbad41b91862635
                           .group:00000000 wm4.stddef.h.39.dc09cac7e3f758f23d559f6b28ebbb0d
                           .group:00000000 wm4._default_types.h.6.35ee9e747940367bf2a634907d1c2382
                           .group:00000000 wm4.lock.h.2.9bc98482741e5e2a9450b12934a684ea
                           .group:00000000 wm4._types.h.54.d3d34a3b7f3cc230cd159baf022b4b08
                           .group:00000000 wm4.stddef.h.158.61317cdbfb4026324507d123a50b0fd6
                           .group:00000000 wm4.reent.h.17.8bd9e4098e0428508c282cad794fae43
                           .group:00000000 wm4.cdefs.h.47.a14b68a47d722a767cc4688ffe478d81
                           .group:00000000 wm4.alloca.h.8.dfc0c703c47ec3e69746825b17d9e66d
                           .group:00000000 wm4.stdlib.h.54.cd3744e0b066087ec8fbb1bdc22d1043
                           .group:00000000 wm4._intsup.h.10.35a45952db64d30146faa63a55c20c1c
                           .group:00000000 wm4._stdint.h.10.f76354baea1c7088202064e6f3d4f5e3
                           .group:00000000 wm4.stdint.h.23.373a9d32a9e4c2e88fd347156532d281
                           .group:00000000 wm4.FreeRTOSConfig.h.71.cd6da78ae7d8769d658c28aafe88cca9
                           .group:00000000 wm4.projdefs.h.71.b3c50e668908413922aad758934ec914
                           .group:00000000 wm4.portmacro.h.72.e06018902f9ae50358ce9a175ecd983b
                           .group:00000000 wm4.portable.h.106.61ffdda1afafb5a5e1f7197ade95b43a
                           .group:00000000 wm4.mpu_wrappers.h.71.0cead7785e4b5fa8c4e0eba0dc579f11
                           .group:00000000 wm4.FreeRTOS.h.175.ac7a4fe760c4456f63e9dc2e5bf14760
                           .group:00000000 wm4.list.h.103.6a12b7b9a7a136c3cca0ee53675c5498
                           .group:00000000 wm4.task.h.88.87a3ea4713e30599c4c24f39fba43c3a
                           .group:00000000 wm4.queue.h.72.b79111e1f2901fd0fc4ec217c5b93342

UNDEFINED SYMBOLS
xQueueAltGenericSend
vPortEnterCritical
vPortExitCritical
vTaskDelay
xQueueAltGenericReceive
uxQueueMessagesWaiting
xQueueGenericCreate
xTaskGenericCreate
