   1              		.syntax unified
   2              		.cpu cortex-m3
   3              		.fpu softvfp
   4              		.eabi_attribute 20, 1
   5              		.eabi_attribute 21, 1
   6              		.eabi_attribute 23, 3
   7              		.eabi_attribute 24, 1
   8              		.eabi_attribute 25, 1
   9              		.eabi_attribute 26, 1
  10              		.eabi_attribute 30, 1
  11              		.eabi_attribute 34, 1
  12              		.eabi_attribute 18, 4
  13              		.thumb
  14              		.file	"BlockQ.c"
  15              		.text
  16              	.Ltext0:
  17              		.cfi_sections	.debug_frame
  18              		.section	.text.vBlockingQueueProducer,"ax",%progbits
  19              		.align	2
  20              		.thumb
  21              		.thumb_func
  23              	vBlockingQueueProducer:
  24              	.LFB2:
  25              		.file 1 "../Demo/Common/Minimal/BlockQ.c"
   1:../Demo/Common/Minimal/BlockQ.c **** /*
   2:../Demo/Common/Minimal/BlockQ.c ****     FreeRTOS V8.2.3 - Copyright (C) 2015 Real Time Engineers Ltd.
   3:../Demo/Common/Minimal/BlockQ.c ****     All rights reserved
   4:../Demo/Common/Minimal/BlockQ.c **** 
   5:../Demo/Common/Minimal/BlockQ.c ****     VISIT http://www.FreeRTOS.org TO ENSURE YOU ARE USING THE LATEST VERSION.
   6:../Demo/Common/Minimal/BlockQ.c **** 
   7:../Demo/Common/Minimal/BlockQ.c ****     This file is part of the FreeRTOS distribution.
   8:../Demo/Common/Minimal/BlockQ.c **** 
   9:../Demo/Common/Minimal/BlockQ.c ****     FreeRTOS is free software; you can redistribute it and/or modify it under
  10:../Demo/Common/Minimal/BlockQ.c ****     the terms of the GNU General Public License (version 2) as published by the
  11:../Demo/Common/Minimal/BlockQ.c ****     Free Software Foundation >>>> AND MODIFIED BY <<<< the FreeRTOS exception.
  12:../Demo/Common/Minimal/BlockQ.c **** 
  13:../Demo/Common/Minimal/BlockQ.c ****     ***************************************************************************
  14:../Demo/Common/Minimal/BlockQ.c ****     >>!   NOTE: The modification to the GPL is included to allow you to     !<<
  15:../Demo/Common/Minimal/BlockQ.c ****     >>!   distribute a combined work that includes FreeRTOS without being   !<<
  16:../Demo/Common/Minimal/BlockQ.c ****     >>!   obliged to provide the source code for proprietary components     !<<
  17:../Demo/Common/Minimal/BlockQ.c ****     >>!   outside of the FreeRTOS kernel.                                   !<<
  18:../Demo/Common/Minimal/BlockQ.c ****     ***************************************************************************
  19:../Demo/Common/Minimal/BlockQ.c **** 
  20:../Demo/Common/Minimal/BlockQ.c ****     FreeRTOS is distributed in the hope that it will be useful, but WITHOUT ANY
  21:../Demo/Common/Minimal/BlockQ.c ****     WARRANTY; without even the implied warranty of MERCHANTABILITY or FITNESS
  22:../Demo/Common/Minimal/BlockQ.c ****     FOR A PARTICULAR PURPOSE.  Full license text is available on the following
  23:../Demo/Common/Minimal/BlockQ.c ****     link: http://www.freertos.org/a00114.html
  24:../Demo/Common/Minimal/BlockQ.c **** 
  25:../Demo/Common/Minimal/BlockQ.c ****     ***************************************************************************
  26:../Demo/Common/Minimal/BlockQ.c ****      *                                                                       *
  27:../Demo/Common/Minimal/BlockQ.c ****      *    FreeRTOS provides completely free yet professionally developed,    *
  28:../Demo/Common/Minimal/BlockQ.c ****      *    robust, strictly quality controlled, supported, and cross          *
  29:../Demo/Common/Minimal/BlockQ.c ****      *    platform software that is more than just the market leader, it     *
  30:../Demo/Common/Minimal/BlockQ.c ****      *    is the industry's de facto standard.                               *
  31:../Demo/Common/Minimal/BlockQ.c ****      *                                                                       *
  32:../Demo/Common/Minimal/BlockQ.c ****      *    Help yourself get started quickly while simultaneously helping     *
  33:../Demo/Common/Minimal/BlockQ.c ****      *    to support the FreeRTOS project by purchasing a FreeRTOS           *
  34:../Demo/Common/Minimal/BlockQ.c ****      *    tutorial book, reference manual, or both:                          *
  35:../Demo/Common/Minimal/BlockQ.c ****      *    http://www.FreeRTOS.org/Documentation                              *
  36:../Demo/Common/Minimal/BlockQ.c ****      *                                                                       *
  37:../Demo/Common/Minimal/BlockQ.c ****     ***************************************************************************
  38:../Demo/Common/Minimal/BlockQ.c **** 
  39:../Demo/Common/Minimal/BlockQ.c ****     http://www.FreeRTOS.org/FAQHelp.html - Having a problem?  Start by reading
  40:../Demo/Common/Minimal/BlockQ.c ****     the FAQ page "My application does not run, what could be wrong?".  Have you
  41:../Demo/Common/Minimal/BlockQ.c ****     defined configASSERT()?
  42:../Demo/Common/Minimal/BlockQ.c **** 
  43:../Demo/Common/Minimal/BlockQ.c ****     http://www.FreeRTOS.org/support - In return for receiving this top quality
  44:../Demo/Common/Minimal/BlockQ.c ****     embedded software for free we request you assist our global community by
  45:../Demo/Common/Minimal/BlockQ.c ****     participating in the support forum.
  46:../Demo/Common/Minimal/BlockQ.c **** 
  47:../Demo/Common/Minimal/BlockQ.c ****     http://www.FreeRTOS.org/training - Investing in training allows your team to
  48:../Demo/Common/Minimal/BlockQ.c ****     be as productive as possible as early as possible.  Now you can receive
  49:../Demo/Common/Minimal/BlockQ.c ****     FreeRTOS training directly from Richard Barry, CEO of Real Time Engineers
  50:../Demo/Common/Minimal/BlockQ.c ****     Ltd, and the world's leading authority on the world's leading RTOS.
  51:../Demo/Common/Minimal/BlockQ.c **** 
  52:../Demo/Common/Minimal/BlockQ.c ****     http://www.FreeRTOS.org/plus - A selection of FreeRTOS ecosystem products,
  53:../Demo/Common/Minimal/BlockQ.c ****     including FreeRTOS+Trace - an indispensable productivity tool, a DOS
  54:../Demo/Common/Minimal/BlockQ.c ****     compatible FAT file system, and our tiny thread aware UDP/IP stack.
  55:../Demo/Common/Minimal/BlockQ.c **** 
  56:../Demo/Common/Minimal/BlockQ.c ****     http://www.FreeRTOS.org/labs - Where new FreeRTOS products go to incubate.
  57:../Demo/Common/Minimal/BlockQ.c ****     Come and try FreeRTOS+TCP, our new open source TCP/IP stack for FreeRTOS.
  58:../Demo/Common/Minimal/BlockQ.c **** 
  59:../Demo/Common/Minimal/BlockQ.c ****     http://www.OpenRTOS.com - Real Time Engineers ltd. license FreeRTOS to High
  60:../Demo/Common/Minimal/BlockQ.c ****     Integrity Systems ltd. to sell under the OpenRTOS brand.  Low cost OpenRTOS
  61:../Demo/Common/Minimal/BlockQ.c ****     licenses offer ticketed support, indemnification and commercial middleware.
  62:../Demo/Common/Minimal/BlockQ.c **** 
  63:../Demo/Common/Minimal/BlockQ.c ****     http://www.SafeRTOS.com - High Integrity Systems also provide a safety
  64:../Demo/Common/Minimal/BlockQ.c ****     engineered and independently SIL3 certified version for use in safety and
  65:../Demo/Common/Minimal/BlockQ.c ****     mission critical applications that require provable dependability.
  66:../Demo/Common/Minimal/BlockQ.c **** 
  67:../Demo/Common/Minimal/BlockQ.c ****     1 tab == 4 spaces!
  68:../Demo/Common/Minimal/BlockQ.c **** */
  69:../Demo/Common/Minimal/BlockQ.c **** 
  70:../Demo/Common/Minimal/BlockQ.c **** /*
  71:../Demo/Common/Minimal/BlockQ.c ****  * Creates six tasks that operate on three queues as follows:
  72:../Demo/Common/Minimal/BlockQ.c ****  *
  73:../Demo/Common/Minimal/BlockQ.c ****  * The first two tasks send and receive an incrementing number to/from a queue.
  74:../Demo/Common/Minimal/BlockQ.c ****  * One task acts as a producer and the other as the consumer.  The consumer is a
  75:../Demo/Common/Minimal/BlockQ.c ****  * higher priority than the producer and is set to block on queue reads.  The queue
  76:../Demo/Common/Minimal/BlockQ.c ****  * only has space for one item - as soon as the producer posts a message on the
  77:../Demo/Common/Minimal/BlockQ.c ****  * queue the consumer will unblock, pre-empt the producer, and remove the item.
  78:../Demo/Common/Minimal/BlockQ.c ****  *
  79:../Demo/Common/Minimal/BlockQ.c ****  * The second two tasks work the other way around.  Again the queue used only has
  80:../Demo/Common/Minimal/BlockQ.c ****  * enough space for one item.  This time the consumer has a lower priority than the
  81:../Demo/Common/Minimal/BlockQ.c ****  * producer.  The producer will try to post on the queue blocking when the queue is
  82:../Demo/Common/Minimal/BlockQ.c ****  * full.  When the consumer wakes it will remove the item from the queue, causing
  83:../Demo/Common/Minimal/BlockQ.c ****  * the producer to unblock, pre-empt the consumer, and immediately re-fill the
  84:../Demo/Common/Minimal/BlockQ.c ****  * queue.
  85:../Demo/Common/Minimal/BlockQ.c ****  *
  86:../Demo/Common/Minimal/BlockQ.c ****  * The last two tasks use the same queue producer and consumer functions.  This time the queue has
  87:../Demo/Common/Minimal/BlockQ.c ****  * enough space for lots of items and the tasks operate at the same priority.  The
  88:../Demo/Common/Minimal/BlockQ.c ****  * producer will execute, placing items into the queue.  The consumer will start
  89:../Demo/Common/Minimal/BlockQ.c ****  * executing when either the queue becomes full (causing the producer to block) or
  90:../Demo/Common/Minimal/BlockQ.c ****  * a context switch occurs (tasks of the same priority will time slice).
  91:../Demo/Common/Minimal/BlockQ.c ****  *
  92:../Demo/Common/Minimal/BlockQ.c ****  */
  93:../Demo/Common/Minimal/BlockQ.c **** 
  94:../Demo/Common/Minimal/BlockQ.c **** #include <stdlib.h>
  95:../Demo/Common/Minimal/BlockQ.c **** 
  96:../Demo/Common/Minimal/BlockQ.c **** /* Scheduler include files. */
  97:../Demo/Common/Minimal/BlockQ.c **** #include "FreeRTOS.h"
  98:../Demo/Common/Minimal/BlockQ.c **** #include "task.h"
  99:../Demo/Common/Minimal/BlockQ.c **** #include "queue.h"
 100:../Demo/Common/Minimal/BlockQ.c **** 
 101:../Demo/Common/Minimal/BlockQ.c **** /* Demo program include files. */
 102:../Demo/Common/Minimal/BlockQ.c **** #include "BlockQ.h"
 103:../Demo/Common/Minimal/BlockQ.c **** 
 104:../Demo/Common/Minimal/BlockQ.c **** #define blckqSTACK_SIZE		configMINIMAL_STACK_SIZE
 105:../Demo/Common/Minimal/BlockQ.c **** #define blckqNUM_TASK_SETS	( 3 )
 106:../Demo/Common/Minimal/BlockQ.c **** 
 107:../Demo/Common/Minimal/BlockQ.c **** /* Structure used to pass parameters to the blocking queue tasks. */
 108:../Demo/Common/Minimal/BlockQ.c **** typedef struct BLOCKING_QUEUE_PARAMETERS
 109:../Demo/Common/Minimal/BlockQ.c **** {
 110:../Demo/Common/Minimal/BlockQ.c **** 	QueueHandle_t xQueue;					/*< The queue to be used by the task. */
 111:../Demo/Common/Minimal/BlockQ.c **** 	TickType_t xBlockTime;				/*< The block time to use on queue reads/writes. */
 112:../Demo/Common/Minimal/BlockQ.c **** 	volatile short *psCheckVariable;	/*< Incremented on each successful cycle to check the task is sti
 113:../Demo/Common/Minimal/BlockQ.c **** } xBlockingQueueParameters;
 114:../Demo/Common/Minimal/BlockQ.c **** 
 115:../Demo/Common/Minimal/BlockQ.c **** /* Task function that creates an incrementing number and posts it on a queue. */
 116:../Demo/Common/Minimal/BlockQ.c **** static portTASK_FUNCTION_PROTO( vBlockingQueueProducer, pvParameters );
 117:../Demo/Common/Minimal/BlockQ.c **** 
 118:../Demo/Common/Minimal/BlockQ.c **** /* Task function that removes the incrementing number from a queue and checks that
 119:../Demo/Common/Minimal/BlockQ.c **** it is the expected number. */
 120:../Demo/Common/Minimal/BlockQ.c **** static portTASK_FUNCTION_PROTO( vBlockingQueueConsumer, pvParameters );
 121:../Demo/Common/Minimal/BlockQ.c **** 
 122:../Demo/Common/Minimal/BlockQ.c **** /* Variables which are incremented each time an item is removed from a queue, and
 123:../Demo/Common/Minimal/BlockQ.c **** found to be the expected value.
 124:../Demo/Common/Minimal/BlockQ.c **** These are used to check that the tasks are still running. */
 125:../Demo/Common/Minimal/BlockQ.c **** static volatile short sBlockingConsumerCount[ blckqNUM_TASK_SETS ] = { ( uint16_t ) 0, ( uint16_t )
 126:../Demo/Common/Minimal/BlockQ.c **** 
 127:../Demo/Common/Minimal/BlockQ.c **** /* Variable which are incremented each time an item is posted on a queue.   These
 128:../Demo/Common/Minimal/BlockQ.c **** are used to check that the tasks are still running. */
 129:../Demo/Common/Minimal/BlockQ.c **** static volatile short sBlockingProducerCount[ blckqNUM_TASK_SETS ] = { ( uint16_t ) 0, ( uint16_t )
 130:../Demo/Common/Minimal/BlockQ.c **** 
 131:../Demo/Common/Minimal/BlockQ.c **** /*-----------------------------------------------------------*/
 132:../Demo/Common/Minimal/BlockQ.c **** 
 133:../Demo/Common/Minimal/BlockQ.c **** void vStartBlockingQueueTasks( UBaseType_t uxPriority )
 134:../Demo/Common/Minimal/BlockQ.c **** {
 135:../Demo/Common/Minimal/BlockQ.c **** xBlockingQueueParameters *pxQueueParameters1, *pxQueueParameters2;
 136:../Demo/Common/Minimal/BlockQ.c **** xBlockingQueueParameters *pxQueueParameters3, *pxQueueParameters4;
 137:../Demo/Common/Minimal/BlockQ.c **** xBlockingQueueParameters *pxQueueParameters5, *pxQueueParameters6;
 138:../Demo/Common/Minimal/BlockQ.c **** const UBaseType_t uxQueueSize1 = 1, uxQueueSize5 = 5;
 139:../Demo/Common/Minimal/BlockQ.c **** const TickType_t xBlockTime = ( TickType_t ) 1000 / portTICK_PERIOD_MS;
 140:../Demo/Common/Minimal/BlockQ.c **** const TickType_t xDontBlock = ( TickType_t ) 0;
 141:../Demo/Common/Minimal/BlockQ.c **** 
 142:../Demo/Common/Minimal/BlockQ.c **** 	/* Create the first two tasks as described at the top of the file. */
 143:../Demo/Common/Minimal/BlockQ.c **** 
 144:../Demo/Common/Minimal/BlockQ.c **** 	/* First create the structure used to pass parameters to the consumer tasks. */
 145:../Demo/Common/Minimal/BlockQ.c **** 	pxQueueParameters1 = ( xBlockingQueueParameters * ) pvPortMalloc( sizeof( xBlockingQueueParameters
 146:../Demo/Common/Minimal/BlockQ.c **** 
 147:../Demo/Common/Minimal/BlockQ.c **** 	/* Create the queue used by the first two tasks to pass the incrementing number.
 148:../Demo/Common/Minimal/BlockQ.c **** 	Pass a pointer to the queue in the parameter structure. */
 149:../Demo/Common/Minimal/BlockQ.c **** 	pxQueueParameters1->xQueue = xQueueCreate( uxQueueSize1, ( UBaseType_t ) sizeof( uint16_t ) );
 150:../Demo/Common/Minimal/BlockQ.c **** 
 151:../Demo/Common/Minimal/BlockQ.c **** 	/* The consumer is created first so gets a block time as described above. */
 152:../Demo/Common/Minimal/BlockQ.c **** 	pxQueueParameters1->xBlockTime = xBlockTime;
 153:../Demo/Common/Minimal/BlockQ.c **** 
 154:../Demo/Common/Minimal/BlockQ.c **** 	/* Pass in the variable that this task is going to increment so we can check it
 155:../Demo/Common/Minimal/BlockQ.c **** 	is still running. */
 156:../Demo/Common/Minimal/BlockQ.c **** 	pxQueueParameters1->psCheckVariable = &( sBlockingConsumerCount[ 0 ] );
 157:../Demo/Common/Minimal/BlockQ.c **** 
 158:../Demo/Common/Minimal/BlockQ.c **** 	/* Create the structure used to pass parameters to the producer task. */
 159:../Demo/Common/Minimal/BlockQ.c **** 	pxQueueParameters2 = ( xBlockingQueueParameters * ) pvPortMalloc( sizeof( xBlockingQueueParameters
 160:../Demo/Common/Minimal/BlockQ.c **** 
 161:../Demo/Common/Minimal/BlockQ.c **** 	/* Pass the queue to this task also, using the parameter structure. */
 162:../Demo/Common/Minimal/BlockQ.c **** 	pxQueueParameters2->xQueue = pxQueueParameters1->xQueue;
 163:../Demo/Common/Minimal/BlockQ.c **** 
 164:../Demo/Common/Minimal/BlockQ.c **** 	/* The producer is not going to block - as soon as it posts the consumer will
 165:../Demo/Common/Minimal/BlockQ.c **** 	wake and remove the item so the producer should always have room to post. */
 166:../Demo/Common/Minimal/BlockQ.c **** 	pxQueueParameters2->xBlockTime = xDontBlock;
 167:../Demo/Common/Minimal/BlockQ.c **** 
 168:../Demo/Common/Minimal/BlockQ.c **** 	/* Pass in the variable that this task is going to increment so we can check
 169:../Demo/Common/Minimal/BlockQ.c **** 	it is still running. */
 170:../Demo/Common/Minimal/BlockQ.c **** 	pxQueueParameters2->psCheckVariable = &( sBlockingProducerCount[ 0 ] );
 171:../Demo/Common/Minimal/BlockQ.c **** 
 172:../Demo/Common/Minimal/BlockQ.c **** 
 173:../Demo/Common/Minimal/BlockQ.c **** 	/* Note the producer has a lower priority than the consumer when the tasks are
 174:../Demo/Common/Minimal/BlockQ.c **** 	spawned. */
 175:../Demo/Common/Minimal/BlockQ.c **** 	xTaskCreate( vBlockingQueueConsumer, "QConsB1", blckqSTACK_SIZE, ( void * ) pxQueueParameters1, ux
 176:../Demo/Common/Minimal/BlockQ.c **** 	xTaskCreate( vBlockingQueueProducer, "QProdB2", blckqSTACK_SIZE, ( void * ) pxQueueParameters2, ts
 177:../Demo/Common/Minimal/BlockQ.c **** 
 178:../Demo/Common/Minimal/BlockQ.c **** 
 179:../Demo/Common/Minimal/BlockQ.c **** 
 180:../Demo/Common/Minimal/BlockQ.c **** 	/* Create the second two tasks as described at the top of the file.   This uses
 181:../Demo/Common/Minimal/BlockQ.c **** 	the same mechanism but reverses the task priorities. */
 182:../Demo/Common/Minimal/BlockQ.c **** 
 183:../Demo/Common/Minimal/BlockQ.c **** 	pxQueueParameters3 = ( xBlockingQueueParameters * ) pvPortMalloc( sizeof( xBlockingQueueParameters
 184:../Demo/Common/Minimal/BlockQ.c **** 	pxQueueParameters3->xQueue = xQueueCreate( uxQueueSize1, ( UBaseType_t ) sizeof( uint16_t ) );
 185:../Demo/Common/Minimal/BlockQ.c **** 	pxQueueParameters3->xBlockTime = xDontBlock;
 186:../Demo/Common/Minimal/BlockQ.c **** 	pxQueueParameters3->psCheckVariable = &( sBlockingProducerCount[ 1 ] );
 187:../Demo/Common/Minimal/BlockQ.c **** 
 188:../Demo/Common/Minimal/BlockQ.c **** 	pxQueueParameters4 = ( xBlockingQueueParameters * ) pvPortMalloc( sizeof( xBlockingQueueParameters
 189:../Demo/Common/Minimal/BlockQ.c **** 	pxQueueParameters4->xQueue = pxQueueParameters3->xQueue;
 190:../Demo/Common/Minimal/BlockQ.c **** 	pxQueueParameters4->xBlockTime = xBlockTime;
 191:../Demo/Common/Minimal/BlockQ.c **** 	pxQueueParameters4->psCheckVariable = &( sBlockingConsumerCount[ 1 ] );
 192:../Demo/Common/Minimal/BlockQ.c **** 
 193:../Demo/Common/Minimal/BlockQ.c **** 	xTaskCreate( vBlockingQueueConsumer, "QConsB3", blckqSTACK_SIZE, ( void * ) pxQueueParameters3, ts
 194:../Demo/Common/Minimal/BlockQ.c **** 	xTaskCreate( vBlockingQueueProducer, "QProdB4", blckqSTACK_SIZE, ( void * ) pxQueueParameters4, ux
 195:../Demo/Common/Minimal/BlockQ.c **** 
 196:../Demo/Common/Minimal/BlockQ.c **** 
 197:../Demo/Common/Minimal/BlockQ.c **** 
 198:../Demo/Common/Minimal/BlockQ.c **** 	/* Create the last two tasks as described above.  The mechanism is again just
 199:../Demo/Common/Minimal/BlockQ.c **** 	the same.  This time both parameter structures are given a block time. */
 200:../Demo/Common/Minimal/BlockQ.c **** 	pxQueueParameters5 = ( xBlockingQueueParameters * ) pvPortMalloc( sizeof( xBlockingQueueParameters
 201:../Demo/Common/Minimal/BlockQ.c **** 	pxQueueParameters5->xQueue = xQueueCreate( uxQueueSize5, ( UBaseType_t ) sizeof( uint16_t ) );
 202:../Demo/Common/Minimal/BlockQ.c **** 	pxQueueParameters5->xBlockTime = xBlockTime;
 203:../Demo/Common/Minimal/BlockQ.c **** 	pxQueueParameters5->psCheckVariable = &( sBlockingProducerCount[ 2 ] );
 204:../Demo/Common/Minimal/BlockQ.c **** 
 205:../Demo/Common/Minimal/BlockQ.c **** 	pxQueueParameters6 = ( xBlockingQueueParameters * ) pvPortMalloc( sizeof( xBlockingQueueParameters
 206:../Demo/Common/Minimal/BlockQ.c **** 	pxQueueParameters6->xQueue = pxQueueParameters5->xQueue;
 207:../Demo/Common/Minimal/BlockQ.c **** 	pxQueueParameters6->xBlockTime = xBlockTime;
 208:../Demo/Common/Minimal/BlockQ.c **** 	pxQueueParameters6->psCheckVariable = &( sBlockingConsumerCount[ 2 ] );
 209:../Demo/Common/Minimal/BlockQ.c **** 
 210:../Demo/Common/Minimal/BlockQ.c **** 	xTaskCreate( vBlockingQueueProducer, "QProdB5", blckqSTACK_SIZE, ( void * ) pxQueueParameters5, ts
 211:../Demo/Common/Minimal/BlockQ.c **** 	xTaskCreate( vBlockingQueueConsumer, "QConsB6", blckqSTACK_SIZE, ( void * ) pxQueueParameters6, ts
 212:../Demo/Common/Minimal/BlockQ.c **** }
 213:../Demo/Common/Minimal/BlockQ.c **** /*-----------------------------------------------------------*/
 214:../Demo/Common/Minimal/BlockQ.c **** 
 215:../Demo/Common/Minimal/BlockQ.c **** static portTASK_FUNCTION( vBlockingQueueProducer, pvParameters )
 216:../Demo/Common/Minimal/BlockQ.c **** {
  26              		.loc 1 216 0
  27              		.cfi_startproc
  28              		@ args = 0, pretend = 0, frame = 8
  29              		@ frame_needed = 0, uses_anonymous_args = 0
  30              	.LVL0:
  31 0000 30B5     		push	{r4, r5, lr}
  32              		.cfi_def_cfa_offset 12
  33              		.cfi_offset 4, -12
  34              		.cfi_offset 5, -8
  35              		.cfi_offset 14, -4
  36 0002 83B0     		sub	sp, sp, #12
  37              		.cfi_def_cfa_offset 24
  38 0004 0446     		mov	r4, r0
 217:../Demo/Common/Minimal/BlockQ.c **** uint16_t usValue = 0;
  39              		.loc 1 217 0
  40 0006 0025     		movs	r5, #0
  41 0008 ADF80650 		strh	r5, [sp, #6]	@ movhi
  42              	.LVL1:
  43 000c 00E0     		b	.L2
  44              	.LVL2:
  45              	.L5:
 218:../Demo/Common/Minimal/BlockQ.c **** xBlockingQueueParameters *pxQueueParameters;
 219:../Demo/Common/Minimal/BlockQ.c **** short sErrorEverOccurred = pdFALSE;
 220:../Demo/Common/Minimal/BlockQ.c **** 
 221:../Demo/Common/Minimal/BlockQ.c **** 	pxQueueParameters = ( xBlockingQueueParameters * ) pvParameters;
 222:../Demo/Common/Minimal/BlockQ.c **** 
 223:../Demo/Common/Minimal/BlockQ.c **** 	for( ;; )
 224:../Demo/Common/Minimal/BlockQ.c **** 	{
 225:../Demo/Common/Minimal/BlockQ.c **** 		if( xQueueSend( pxQueueParameters->xQueue, ( void * ) &usValue, pxQueueParameters->xBlockTime ) !
 226:../Demo/Common/Minimal/BlockQ.c **** 		{
 227:../Demo/Common/Minimal/BlockQ.c **** 			sErrorEverOccurred = pdTRUE;
  46              		.loc 1 227 0
  47 000e 0125     		movs	r5, #1
  48              	.LVL3:
  49              	.L2:
 225:../Demo/Common/Minimal/BlockQ.c **** 		{
  50              		.loc 1 225 0
  51 0010 2068     		ldr	r0, [r4]
  52 0012 0DF10601 		add	r1, sp, #6
  53 0016 6268     		ldr	r2, [r4, #4]
  54 0018 0023     		movs	r3, #0
  55 001a FFF7FEFF 		bl	xQueueGenericSend
  56              	.LVL4:
  57 001e 0128     		cmp	r0, #1
  58 0020 F5D1     		bne	.L5
 228:../Demo/Common/Minimal/BlockQ.c **** 		}
 229:../Demo/Common/Minimal/BlockQ.c **** 		else
 230:../Demo/Common/Minimal/BlockQ.c **** 		{
 231:../Demo/Common/Minimal/BlockQ.c **** 			/* We have successfully posted a message, so increment the variable
 232:../Demo/Common/Minimal/BlockQ.c **** 			used to check we are still running. */
 233:../Demo/Common/Minimal/BlockQ.c **** 			if( sErrorEverOccurred == pdFALSE )
  59              		.loc 1 233 0
  60 0022 25B9     		cbnz	r5, .L3
 234:../Demo/Common/Minimal/BlockQ.c **** 			{
 235:../Demo/Common/Minimal/BlockQ.c **** 				( *pxQueueParameters->psCheckVariable )++;
  61              		.loc 1 235 0
  62 0024 A268     		ldr	r2, [r4, #8]
  63 0026 1388     		ldrh	r3, [r2]
  64 0028 0133     		adds	r3, r3, #1
  65 002a 9BB2     		uxth	r3, r3
  66 002c 1380     		strh	r3, [r2]	@ movhi
  67              	.L3:
 236:../Demo/Common/Minimal/BlockQ.c **** 			}
 237:../Demo/Common/Minimal/BlockQ.c **** 
 238:../Demo/Common/Minimal/BlockQ.c **** 			/* Increment the variable we are going to post next time round.  The
 239:../Demo/Common/Minimal/BlockQ.c **** 			consumer will expect the numbers to	follow in numerical order. */
 240:../Demo/Common/Minimal/BlockQ.c **** 			++usValue;
  68              		.loc 1 240 0
  69 002e BDF80630 		ldrh	r3, [sp, #6]
  70 0032 0133     		adds	r3, r3, #1
  71 0034 ADF80630 		strh	r3, [sp, #6]	@ movhi
  72 0038 EAE7     		b	.L2
  73              		.cfi_endproc
  74              	.LFE2:
  76 003a 00BF     		.section	.text.vBlockingQueueConsumer,"ax",%progbits
  77              		.align	2
  78              		.thumb
  79              		.thumb_func
  81              	vBlockingQueueConsumer:
  82              	.LFB3:
 241:../Demo/Common/Minimal/BlockQ.c **** 
 242:../Demo/Common/Minimal/BlockQ.c **** 			#if configUSE_PREEMPTION == 0
 243:../Demo/Common/Minimal/BlockQ.c **** 				taskYIELD();
 244:../Demo/Common/Minimal/BlockQ.c **** 			#endif
 245:../Demo/Common/Minimal/BlockQ.c **** 		}
 246:../Demo/Common/Minimal/BlockQ.c **** 	}
 247:../Demo/Common/Minimal/BlockQ.c **** }
 248:../Demo/Common/Minimal/BlockQ.c **** /*-----------------------------------------------------------*/
 249:../Demo/Common/Minimal/BlockQ.c **** 
 250:../Demo/Common/Minimal/BlockQ.c **** static portTASK_FUNCTION( vBlockingQueueConsumer, pvParameters )
 251:../Demo/Common/Minimal/BlockQ.c **** {
  83              		.loc 1 251 0
  84              		.cfi_startproc
  85              		@ args = 0, pretend = 0, frame = 8
  86              		@ frame_needed = 0, uses_anonymous_args = 0
  87              	.LVL5:
  88 0000 70B5     		push	{r4, r5, r6, lr}
  89              		.cfi_def_cfa_offset 16
  90              		.cfi_offset 4, -16
  91              		.cfi_offset 5, -12
  92              		.cfi_offset 6, -8
  93              		.cfi_offset 14, -4
  94 0002 82B0     		sub	sp, sp, #8
  95              		.cfi_def_cfa_offset 24
  96 0004 0446     		mov	r4, r0
  97              	.LVL6:
 252:../Demo/Common/Minimal/BlockQ.c **** uint16_t usData, usExpectedValue = 0;
 253:../Demo/Common/Minimal/BlockQ.c **** xBlockingQueueParameters *pxQueueParameters;
 254:../Demo/Common/Minimal/BlockQ.c **** short sErrorEverOccurred = pdFALSE;
  98              		.loc 1 254 0
  99 0006 0026     		movs	r6, #0
 252:../Demo/Common/Minimal/BlockQ.c **** uint16_t usData, usExpectedValue = 0;
 100              		.loc 1 252 0
 101 0008 3546     		mov	r5, r6
 102 000a 01E0     		b	.L8
 103              	.LVL7:
 104              	.L11:
 255:../Demo/Common/Minimal/BlockQ.c **** 
 256:../Demo/Common/Minimal/BlockQ.c **** 	pxQueueParameters = ( xBlockingQueueParameters * ) pvParameters;
 257:../Demo/Common/Minimal/BlockQ.c **** 
 258:../Demo/Common/Minimal/BlockQ.c **** 	for( ;; )
 259:../Demo/Common/Minimal/BlockQ.c **** 	{
 260:../Demo/Common/Minimal/BlockQ.c **** 		if( xQueueReceive( pxQueueParameters->xQueue, &usData, pxQueueParameters->xBlockTime ) == pdPASS 
 261:../Demo/Common/Minimal/BlockQ.c **** 		{
 262:../Demo/Common/Minimal/BlockQ.c **** 			if( usData != usExpectedValue )
 263:../Demo/Common/Minimal/BlockQ.c **** 			{
 264:../Demo/Common/Minimal/BlockQ.c **** 				/* Catch-up. */
 265:../Demo/Common/Minimal/BlockQ.c **** 				usExpectedValue = usData;
 105              		.loc 1 265 0
 106 000c 1D46     		mov	r5, r3
 107              	.LVL8:
 266:../Demo/Common/Minimal/BlockQ.c **** 
 267:../Demo/Common/Minimal/BlockQ.c **** 				sErrorEverOccurred = pdTRUE;
 108              		.loc 1 267 0
 109 000e 0126     		movs	r6, #1
 110              	.LVL9:
 111              	.L8:
 260:../Demo/Common/Minimal/BlockQ.c **** 		{
 112              		.loc 1 260 0
 113 0010 2068     		ldr	r0, [r4]
 114 0012 0DF10601 		add	r1, sp, #6
 115 0016 6268     		ldr	r2, [r4, #4]
 116 0018 0023     		movs	r3, #0
 117 001a FFF7FEFF 		bl	xQueueGenericReceive
 118              	.LVL10:
 119 001e 0128     		cmp	r0, #1
 120 0020 F6D1     		bne	.L8
 262:../Demo/Common/Minimal/BlockQ.c **** 			{
 121              		.loc 1 262 0
 122 0022 BDF80630 		ldrh	r3, [sp, #6]
 123 0026 AB42     		cmp	r3, r5
 124 0028 F0D1     		bne	.L11
 268:../Demo/Common/Minimal/BlockQ.c **** 			}
 269:../Demo/Common/Minimal/BlockQ.c **** 			else
 270:../Demo/Common/Minimal/BlockQ.c **** 			{
 271:../Demo/Common/Minimal/BlockQ.c **** 				/* We have successfully received a message, so increment the
 272:../Demo/Common/Minimal/BlockQ.c **** 				variable used to check we are still running. */
 273:../Demo/Common/Minimal/BlockQ.c **** 				if( sErrorEverOccurred == pdFALSE )
 125              		.loc 1 273 0
 126 002a 26B9     		cbnz	r6, .L10
 274:../Demo/Common/Minimal/BlockQ.c **** 				{
 275:../Demo/Common/Minimal/BlockQ.c **** 					( *pxQueueParameters->psCheckVariable )++;
 127              		.loc 1 275 0
 128 002c A268     		ldr	r2, [r4, #8]
 129 002e 1388     		ldrh	r3, [r2]
 130 0030 0133     		adds	r3, r3, #1
 131 0032 9BB2     		uxth	r3, r3
 132 0034 1380     		strh	r3, [r2]	@ movhi
 133              	.L10:
 276:../Demo/Common/Minimal/BlockQ.c **** 				}
 277:../Demo/Common/Minimal/BlockQ.c **** 
 278:../Demo/Common/Minimal/BlockQ.c **** 				/* Increment the value we expect to remove from the queue next time
 279:../Demo/Common/Minimal/BlockQ.c **** 				round. */
 280:../Demo/Common/Minimal/BlockQ.c **** 				++usExpectedValue;
 134              		.loc 1 280 0
 135 0036 0135     		adds	r5, r5, #1
 136              	.LVL11:
 137 0038 ADB2     		uxth	r5, r5
 138              	.LVL12:
 139 003a E9E7     		b	.L8
 140              		.cfi_endproc
 141              	.LFE3:
 143              		.section	.text.vStartBlockingQueueTasks,"ax",%progbits
 144              		.align	2
 145              		.global	vStartBlockingQueueTasks
 146              		.thumb
 147              		.thumb_func
 149              	vStartBlockingQueueTasks:
 150              	.LFB1:
 134:../Demo/Common/Minimal/BlockQ.c **** xBlockingQueueParameters *pxQueueParameters1, *pxQueueParameters2;
 151              		.loc 1 134 0
 152              		.cfi_startproc
 153              		@ args = 0, pretend = 0, frame = 0
 154              		@ frame_needed = 0, uses_anonymous_args = 0
 155              	.LVL13:
 156 0000 2DE9F04F 		push	{r4, r5, r6, r7, r8, r9, r10, fp, lr}
 157              		.cfi_def_cfa_offset 36
 158              		.cfi_offset 4, -36
 159              		.cfi_offset 5, -32
 160              		.cfi_offset 6, -28
 161              		.cfi_offset 7, -24
 162              		.cfi_offset 8, -20
 163              		.cfi_offset 9, -16
 164              		.cfi_offset 10, -12
 165              		.cfi_offset 11, -8
 166              		.cfi_offset 14, -4
 167 0004 85B0     		sub	sp, sp, #20
 168              		.cfi_def_cfa_offset 56
 169 0006 8346     		mov	fp, r0
 170              	.LVL14:
 145:../Demo/Common/Minimal/BlockQ.c **** 
 171              		.loc 1 145 0
 172 0008 0C20     		movs	r0, #12
 173              	.LVL15:
 174 000a FFF7FEFF 		bl	pvPortMalloc
 175              	.LVL16:
 176 000e 8146     		mov	r9, r0
 177              	.LVL17:
 149:../Demo/Common/Minimal/BlockQ.c **** 
 178              		.loc 1 149 0
 179 0010 0120     		movs	r0, #1
 180              	.LVL18:
 181 0012 0221     		movs	r1, #2
 182 0014 0022     		movs	r2, #0
 183 0016 FFF7FEFF 		bl	xQueueGenericCreate
 184              	.LVL19:
 185 001a C9F80000 		str	r0, [r9]
 152:../Demo/Common/Minimal/BlockQ.c **** 
 186              		.loc 1 152 0
 187 001e 4FF47A78 		mov	r8, #1000
 188 0022 C9F80480 		str	r8, [r9, #4]
 156:../Demo/Common/Minimal/BlockQ.c **** 
 189              		.loc 1 156 0
 190 0026 404D     		ldr	r5, .L15
 191 0028 C9F80850 		str	r5, [r9, #8]
 159:../Demo/Common/Minimal/BlockQ.c **** 
 192              		.loc 1 159 0
 193 002c 0C20     		movs	r0, #12
 194 002e FFF7FEFF 		bl	pvPortMalloc
 195              	.LVL20:
 196 0032 0746     		mov	r7, r0
 197              	.LVL21:
 162:../Demo/Common/Minimal/BlockQ.c **** 
 198              		.loc 1 162 0
 199 0034 D9F80030 		ldr	r3, [r9]
 200 0038 0360     		str	r3, [r0]
 166:../Demo/Common/Minimal/BlockQ.c **** 
 201              		.loc 1 166 0
 202 003a 0024     		movs	r4, #0
 203 003c 4460     		str	r4, [r0, #4]
 170:../Demo/Common/Minimal/BlockQ.c **** 
 204              		.loc 1 170 0
 205 003e 3B4E     		ldr	r6, .L15+4
 206 0040 8660     		str	r6, [r0, #8]
 175:../Demo/Common/Minimal/BlockQ.c **** 	xTaskCreate( vBlockingQueueProducer, "QProdB2", blckqSTACK_SIZE, ( void * ) pxQueueParameters2, ts
 207              		.loc 1 175 0
 208 0042 CDF800B0 		str	fp, [sp]
 209 0046 0194     		str	r4, [sp, #4]
 210 0048 0294     		str	r4, [sp, #8]
 211 004a 0394     		str	r4, [sp, #12]
 212 004c 3848     		ldr	r0, .L15+8
 213              	.LVL22:
 214 004e 3949     		ldr	r1, .L15+12
 215 0050 8022     		movs	r2, #128
 216 0052 4B46     		mov	r3, r9
 217 0054 FFF7FEFF 		bl	xTaskGenericCreate
 218              	.LVL23:
 176:../Demo/Common/Minimal/BlockQ.c **** 
 219              		.loc 1 176 0
 220 0058 DFF8F0A0 		ldr	r10, .L15+36
 221 005c 0094     		str	r4, [sp]
 222 005e 0194     		str	r4, [sp, #4]
 223 0060 0294     		str	r4, [sp, #8]
 224 0062 0394     		str	r4, [sp, #12]
 225 0064 5046     		mov	r0, r10
 226 0066 3449     		ldr	r1, .L15+16
 227 0068 8022     		movs	r2, #128
 228 006a 3B46     		mov	r3, r7
 229 006c FFF7FEFF 		bl	xTaskGenericCreate
 230              	.LVL24:
 183:../Demo/Common/Minimal/BlockQ.c **** 	pxQueueParameters3->xQueue = xQueueCreate( uxQueueSize1, ( UBaseType_t ) sizeof( uint16_t ) );
 231              		.loc 1 183 0
 232 0070 0C20     		movs	r0, #12
 233 0072 FFF7FEFF 		bl	pvPortMalloc
 234              	.LVL25:
 235 0076 0746     		mov	r7, r0
 236              	.LVL26:
 184:../Demo/Common/Minimal/BlockQ.c **** 	pxQueueParameters3->xBlockTime = xDontBlock;
 237              		.loc 1 184 0
 238 0078 0120     		movs	r0, #1
 239              	.LVL27:
 240 007a 0221     		movs	r1, #2
 241 007c 2246     		mov	r2, r4
 242 007e FFF7FEFF 		bl	xQueueGenericCreate
 243              	.LVL28:
 244 0082 3860     		str	r0, [r7]
 185:../Demo/Common/Minimal/BlockQ.c **** 	pxQueueParameters3->psCheckVariable = &( sBlockingProducerCount[ 1 ] );
 245              		.loc 1 185 0
 246 0084 7C60     		str	r4, [r7, #4]
 186:../Demo/Common/Minimal/BlockQ.c **** 
 247              		.loc 1 186 0
 248 0086 B31C     		adds	r3, r6, #2
 249 0088 BB60     		str	r3, [r7, #8]
 188:../Demo/Common/Minimal/BlockQ.c **** 	pxQueueParameters4->xQueue = pxQueueParameters3->xQueue;
 250              		.loc 1 188 0
 251 008a 0C20     		movs	r0, #12
 252 008c FFF7FEFF 		bl	pvPortMalloc
 253              	.LVL29:
 254 0090 8146     		mov	r9, r0
 255              	.LVL30:
 189:../Demo/Common/Minimal/BlockQ.c **** 	pxQueueParameters4->xBlockTime = xBlockTime;
 256              		.loc 1 189 0
 257 0092 3B68     		ldr	r3, [r7]
 258 0094 0360     		str	r3, [r0]
 190:../Demo/Common/Minimal/BlockQ.c **** 	pxQueueParameters4->psCheckVariable = &( sBlockingConsumerCount[ 1 ] );
 259              		.loc 1 190 0
 260 0096 C0F80480 		str	r8, [r0, #4]
 191:../Demo/Common/Minimal/BlockQ.c **** 
 261              		.loc 1 191 0
 262 009a AB1C     		adds	r3, r5, #2
 263 009c 8360     		str	r3, [r0, #8]
 193:../Demo/Common/Minimal/BlockQ.c **** 	xTaskCreate( vBlockingQueueProducer, "QProdB4", blckqSTACK_SIZE, ( void * ) pxQueueParameters4, ux
 264              		.loc 1 193 0
 265 009e 0094     		str	r4, [sp]
 266 00a0 0194     		str	r4, [sp, #4]
 267 00a2 0294     		str	r4, [sp, #8]
 268 00a4 0394     		str	r4, [sp, #12]
 269 00a6 2248     		ldr	r0, .L15+8
 270              	.LVL31:
 271 00a8 2449     		ldr	r1, .L15+20
 272 00aa 8022     		movs	r2, #128
 273 00ac 3B46     		mov	r3, r7
 274 00ae FFF7FEFF 		bl	xTaskGenericCreate
 275              	.LVL32:
 194:../Demo/Common/Minimal/BlockQ.c **** 
 276              		.loc 1 194 0
 277 00b2 CDF800B0 		str	fp, [sp]
 278 00b6 0194     		str	r4, [sp, #4]
 279 00b8 0294     		str	r4, [sp, #8]
 280 00ba 0394     		str	r4, [sp, #12]
 281 00bc 5046     		mov	r0, r10
 282 00be 2049     		ldr	r1, .L15+24
 283 00c0 8022     		movs	r2, #128
 284 00c2 4B46     		mov	r3, r9
 285 00c4 FFF7FEFF 		bl	xTaskGenericCreate
 286              	.LVL33:
 200:../Demo/Common/Minimal/BlockQ.c **** 	pxQueueParameters5->xQueue = xQueueCreate( uxQueueSize5, ( UBaseType_t ) sizeof( uint16_t ) );
 287              		.loc 1 200 0
 288 00c8 0C20     		movs	r0, #12
 289 00ca FFF7FEFF 		bl	pvPortMalloc
 290              	.LVL34:
 291 00ce 0746     		mov	r7, r0
 292              	.LVL35:
 201:../Demo/Common/Minimal/BlockQ.c **** 	pxQueueParameters5->xBlockTime = xBlockTime;
 293              		.loc 1 201 0
 294 00d0 0520     		movs	r0, #5
 295              	.LVL36:
 296 00d2 0221     		movs	r1, #2
 297 00d4 2246     		mov	r2, r4
 298 00d6 FFF7FEFF 		bl	xQueueGenericCreate
 299              	.LVL37:
 300 00da 3860     		str	r0, [r7]
 202:../Demo/Common/Minimal/BlockQ.c **** 	pxQueueParameters5->psCheckVariable = &( sBlockingProducerCount[ 2 ] );
 301              		.loc 1 202 0
 302 00dc C7F80480 		str	r8, [r7, #4]
 203:../Demo/Common/Minimal/BlockQ.c **** 
 303              		.loc 1 203 0
 304 00e0 0436     		adds	r6, r6, #4
 305 00e2 BE60     		str	r6, [r7, #8]
 205:../Demo/Common/Minimal/BlockQ.c **** 	pxQueueParameters6->xQueue = pxQueueParameters5->xQueue;
 306              		.loc 1 205 0
 307 00e4 0C20     		movs	r0, #12
 308 00e6 FFF7FEFF 		bl	pvPortMalloc
 309              	.LVL38:
 310 00ea 0646     		mov	r6, r0
 311              	.LVL39:
 206:../Demo/Common/Minimal/BlockQ.c **** 	pxQueueParameters6->xBlockTime = xBlockTime;
 312              		.loc 1 206 0
 313 00ec 3B68     		ldr	r3, [r7]
 314 00ee 0360     		str	r3, [r0]
 207:../Demo/Common/Minimal/BlockQ.c **** 	pxQueueParameters6->psCheckVariable = &( sBlockingConsumerCount[ 2 ] );
 315              		.loc 1 207 0
 316 00f0 C0F80480 		str	r8, [r0, #4]
 208:../Demo/Common/Minimal/BlockQ.c **** 
 317              		.loc 1 208 0
 318 00f4 0435     		adds	r5, r5, #4
 319 00f6 8560     		str	r5, [r0, #8]
 210:../Demo/Common/Minimal/BlockQ.c **** 	xTaskCreate( vBlockingQueueConsumer, "QConsB6", blckqSTACK_SIZE, ( void * ) pxQueueParameters6, ts
 320              		.loc 1 210 0
 321 00f8 0094     		str	r4, [sp]
 322 00fa 0194     		str	r4, [sp, #4]
 323 00fc 0294     		str	r4, [sp, #8]
 324 00fe 0394     		str	r4, [sp, #12]
 325 0100 5046     		mov	r0, r10
 326              	.LVL40:
 327 0102 1049     		ldr	r1, .L15+28
 328 0104 8022     		movs	r2, #128
 329 0106 3B46     		mov	r3, r7
 330 0108 FFF7FEFF 		bl	xTaskGenericCreate
 331              	.LVL41:
 211:../Demo/Common/Minimal/BlockQ.c **** }
 332              		.loc 1 211 0
 333 010c 0094     		str	r4, [sp]
 334 010e 0194     		str	r4, [sp, #4]
 335 0110 0294     		str	r4, [sp, #8]
 336 0112 0394     		str	r4, [sp, #12]
 337 0114 0648     		ldr	r0, .L15+8
 338 0116 0C49     		ldr	r1, .L15+32
 339 0118 8022     		movs	r2, #128
 340 011a 3346     		mov	r3, r6
 341 011c FFF7FEFF 		bl	xTaskGenericCreate
 342              	.LVL42:
 212:../Demo/Common/Minimal/BlockQ.c **** /*-----------------------------------------------------------*/
 343              		.loc 1 212 0
 344 0120 05B0     		add	sp, sp, #20
 345              		.cfi_def_cfa_offset 36
 346              		@ sp needed
 347 0122 BDE8F08F 		pop	{r4, r5, r6, r7, r8, r9, r10, fp, pc}
 348              	.LVL43:
 349              	.L16:
 350 0126 00BF     		.align	2
 351              	.L15:
 352 0128 00000000 		.word	.LANCHOR0
 353 012c 00000000 		.word	.LANCHOR1
 354 0130 00000000 		.word	vBlockingQueueConsumer
 355 0134 00000000 		.word	.LC0
 356 0138 08000000 		.word	.LC1
 357 013c 10000000 		.word	.LC2
 358 0140 18000000 		.word	.LC3
 359 0144 20000000 		.word	.LC4
 360 0148 28000000 		.word	.LC5
 361 014c 00000000 		.word	vBlockingQueueProducer
 362              		.cfi_endproc
 363              	.LFE1:
 365              		.section	.text.xAreBlockingQueuesStillRunning,"ax",%progbits
 366              		.align	2
 367              		.global	xAreBlockingQueuesStillRunning
 368              		.thumb
 369              		.thumb_func
 371              	xAreBlockingQueuesStillRunning:
 372              	.LFB4:
 281:../Demo/Common/Minimal/BlockQ.c **** 			}
 282:../Demo/Common/Minimal/BlockQ.c **** 
 283:../Demo/Common/Minimal/BlockQ.c **** 			#if configUSE_PREEMPTION == 0
 284:../Demo/Common/Minimal/BlockQ.c **** 			{
 285:../Demo/Common/Minimal/BlockQ.c **** 				if( pxQueueParameters->xBlockTime == 0 )
 286:../Demo/Common/Minimal/BlockQ.c **** 				{
 287:../Demo/Common/Minimal/BlockQ.c **** 					taskYIELD();
 288:../Demo/Common/Minimal/BlockQ.c **** 				}
 289:../Demo/Common/Minimal/BlockQ.c **** 			}
 290:../Demo/Common/Minimal/BlockQ.c **** 			#endif
 291:../Demo/Common/Minimal/BlockQ.c **** 		}
 292:../Demo/Common/Minimal/BlockQ.c **** 	}
 293:../Demo/Common/Minimal/BlockQ.c **** }
 294:../Demo/Common/Minimal/BlockQ.c **** /*-----------------------------------------------------------*/
 295:../Demo/Common/Minimal/BlockQ.c **** 
 296:../Demo/Common/Minimal/BlockQ.c **** /* This is called to check that all the created tasks are still running. */
 297:../Demo/Common/Minimal/BlockQ.c **** BaseType_t xAreBlockingQueuesStillRunning( void )
 298:../Demo/Common/Minimal/BlockQ.c **** {
 373              		.loc 1 298 0
 374              		.cfi_startproc
 375              		@ args = 0, pretend = 0, frame = 0
 376              		@ frame_needed = 0, uses_anonymous_args = 0
 377              		@ link register save eliminated.
 378              	.LVL44:
 299:../Demo/Common/Minimal/BlockQ.c **** static short sLastBlockingConsumerCount[ blckqNUM_TASK_SETS ] = { ( uint16_t ) 0, ( uint16_t ) 0, (
 300:../Demo/Common/Minimal/BlockQ.c **** static short sLastBlockingProducerCount[ blckqNUM_TASK_SETS ] = { ( uint16_t ) 0, ( uint16_t ) 0, (
 301:../Demo/Common/Minimal/BlockQ.c **** BaseType_t xReturn = pdPASS, xTasks;
 302:../Demo/Common/Minimal/BlockQ.c **** 
 303:../Demo/Common/Minimal/BlockQ.c **** 	/* Not too worried about mutual exclusion on these variables as they are 16
 304:../Demo/Common/Minimal/BlockQ.c **** 	bits and we are only reading them. We also only care to see if they have
 305:../Demo/Common/Minimal/BlockQ.c **** 	changed or not.
 306:../Demo/Common/Minimal/BlockQ.c **** 
 307:../Demo/Common/Minimal/BlockQ.c **** 	Loop through each check variable to and return pdFALSE if any are found not
 308:../Demo/Common/Minimal/BlockQ.c **** 	to have changed since the last call. */
 309:../Demo/Common/Minimal/BlockQ.c **** 
 310:../Demo/Common/Minimal/BlockQ.c **** 	for( xTasks = 0; xTasks < blckqNUM_TASK_SETS; xTasks++ )
 379              		.loc 1 310 0
 380 0000 0023     		movs	r3, #0
 301:../Demo/Common/Minimal/BlockQ.c **** 
 381              		.loc 1 301 0
 382 0002 0120     		movs	r0, #1
 383              		.loc 1 310 0
 384 0004 20E0     		b	.L18
 385              	.LVL45:
 386              	.L21:
 311:../Demo/Common/Minimal/BlockQ.c **** 	{
 312:../Demo/Common/Minimal/BlockQ.c **** 		if( sBlockingConsumerCount[ xTasks ] == sLastBlockingConsumerCount[ xTasks ]  )
 387              		.loc 1 312 0
 388 0006 124A     		ldr	r2, .L24
 389 0008 32F81320 		ldrh	r2, [r2, r3, lsl #1]
 390 000c 12B2     		sxth	r2, r2
 391 000e 1149     		ldr	r1, .L24+4
 392 0010 31F91310 		ldrsh	r1, [r1, r3, lsl #1]
 393 0014 8A42     		cmp	r2, r1
 394 0016 00D1     		bne	.L19
 313:../Demo/Common/Minimal/BlockQ.c **** 		{
 314:../Demo/Common/Minimal/BlockQ.c **** 			xReturn = pdFALSE;
 395              		.loc 1 314 0
 396 0018 0020     		movs	r0, #0
 397              	.LVL46:
 398              	.L19:
 315:../Demo/Common/Minimal/BlockQ.c **** 		}
 316:../Demo/Common/Minimal/BlockQ.c **** 		sLastBlockingConsumerCount[ xTasks ] = sBlockingConsumerCount[ xTasks ];
 399              		.loc 1 316 0
 400 001a 0D4A     		ldr	r2, .L24
 401 001c 32F81310 		ldrh	r1, [r2, r3, lsl #1]
 402 0020 0C4A     		ldr	r2, .L24+4
 403 0022 22F81310 		strh	r1, [r2, r3, lsl #1]	@ movhi
 317:../Demo/Common/Minimal/BlockQ.c **** 
 318:../Demo/Common/Minimal/BlockQ.c **** 
 319:../Demo/Common/Minimal/BlockQ.c **** 		if( sBlockingProducerCount[ xTasks ] == sLastBlockingProducerCount[ xTasks ]  )
 404              		.loc 1 319 0
 405 0026 0C4A     		ldr	r2, .L24+8
 406 0028 32F81320 		ldrh	r2, [r2, r3, lsl #1]
 407 002c 12B2     		sxth	r2, r2
 408 002e 0B49     		ldr	r1, .L24+12
 409 0030 31F91310 		ldrsh	r1, [r1, r3, lsl #1]
 410 0034 8A42     		cmp	r2, r1
 411 0036 00D1     		bne	.L20
 320:../Demo/Common/Minimal/BlockQ.c **** 		{
 321:../Demo/Common/Minimal/BlockQ.c **** 			xReturn = pdFALSE;
 412              		.loc 1 321 0
 413 0038 0020     		movs	r0, #0
 414              	.LVL47:
 415              	.L20:
 322:../Demo/Common/Minimal/BlockQ.c **** 		}
 323:../Demo/Common/Minimal/BlockQ.c **** 		sLastBlockingProducerCount[ xTasks ] = sBlockingProducerCount[ xTasks ];
 416              		.loc 1 323 0 discriminator 2
 417 003a 074A     		ldr	r2, .L24+8
 418 003c 32F81310 		ldrh	r1, [r2, r3, lsl #1]
 419 0040 064A     		ldr	r2, .L24+12
 420 0042 22F81310 		strh	r1, [r2, r3, lsl #1]	@ movhi
 310:../Demo/Common/Minimal/BlockQ.c **** 	{
 421              		.loc 1 310 0 discriminator 2
 422 0046 0133     		adds	r3, r3, #1
 423              	.LVL48:
 424              	.L18:
 310:../Demo/Common/Minimal/BlockQ.c **** 	{
 425              		.loc 1 310 0 is_stmt 0 discriminator 1
 426 0048 022B     		cmp	r3, #2
 427 004a DCDD     		ble	.L21
 324:../Demo/Common/Minimal/BlockQ.c **** 	}
 325:../Demo/Common/Minimal/BlockQ.c **** 
 326:../Demo/Common/Minimal/BlockQ.c **** 	return xReturn;
 327:../Demo/Common/Minimal/BlockQ.c **** }
 428              		.loc 1 327 0 is_stmt 1
 429 004c 7047     		bx	lr
 430              	.L25:
 431 004e 00BF     		.align	2
 432              	.L24:
 433 0050 00000000 		.word	.LANCHOR0
 434 0054 00000000 		.word	.LANCHOR2
 435 0058 00000000 		.word	.LANCHOR1
 436 005c 00000000 		.word	.LANCHOR3
 437              		.cfi_endproc
 438              	.LFE4:
 440              		.section	.bss.sBlockingProducerCount,"aw",%nobits
 441              		.align	2
 442              		.set	.LANCHOR1,. + 0
 445              	sBlockingProducerCount:
 446 0000 00000000 		.space	6
 446      0000
 447              		.section	.bss.sLastBlockingProducerCount.5121,"aw",%nobits
 448              		.align	2
 449              		.set	.LANCHOR3,. + 0
 452              	sLastBlockingProducerCount.5121:
 453 0000 00000000 		.space	6
 453      0000
 454              		.section	.bss.sLastBlockingConsumerCount.5120,"aw",%nobits
 455              		.align	2
 456              		.set	.LANCHOR2,. + 0
 459              	sLastBlockingConsumerCount.5120:
 460 0000 00000000 		.space	6
 460      0000
 461              		.section	.bss.sBlockingConsumerCount,"aw",%nobits
 462              		.align	2
 463              		.set	.LANCHOR0,. + 0
 466              	sBlockingConsumerCount:
 467 0000 00000000 		.space	6
 467      0000
 468              		.section	.rodata.str1.4,"aMS",%progbits,1
 469              		.align	2
 470              	.LC0:
 471 0000 51436F6E 		.ascii	"QConsB1\000"
 471      73423100 
 472              	.LC1:
 473 0008 5150726F 		.ascii	"QProdB2\000"
 473      64423200 
 474              	.LC2:
 475 0010 51436F6E 		.ascii	"QConsB3\000"
 475      73423300 
 476              	.LC3:
 477 0018 5150726F 		.ascii	"QProdB4\000"
 477      64423400 
 478              	.LC4:
 479 0020 5150726F 		.ascii	"QProdB5\000"
 479      64423500 
 480              	.LC5:
 481 0028 51436F6E 		.ascii	"QConsB6\000"
 481      73423600 
 482              		.text
 483              	.Letext0:
 484              		.file 2 "/usr/local/gcc-arm-none-eabi-4_9-2015q3/lib/gcc/arm-none-eabi/4.9.3/include/stddef.h"
 485              		.file 3 "/usr/local/gcc-arm-none-eabi-4_9-2015q3/arm-none-eabi/include/machine/_default_types.h"
 486              		.file 4 "/usr/local/gcc-arm-none-eabi-4_9-2015q3/arm-none-eabi/include/sys/_stdint.h"
 487              		.file 5 "/home/robb-gosset/workspace/FYP/FreeRTOS/Source/include/projdefs.h"
 488              		.file 6 "/home/robb-gosset/workspace/FYP/FreeRTOS/Source/portable/GCC/ARM_CM3/portmacro.h"
 489              		.file 7 "/home/robb-gosset/workspace/FYP/FreeRTOS/Source/include/task.h"
 490              		.file 8 "/home/robb-gosset/workspace/FYP/FreeRTOS/Source/include/queue.h"
 491              		.file 9 "/home/robb-gosset/workspace/FYP/FreeRTOS/Source/include/portable.h"
DEFINED SYMBOLS
                            *ABS*:00000000 BlockQ.c
     /tmp/cc9pAqS3.s:19     .text.vBlockingQueueProducer:00000000 $t
     /tmp/cc9pAqS3.s:23     .text.vBlockingQueueProducer:00000000 vBlockingQueueProducer
     /tmp/cc9pAqS3.s:77     .text.vBlockingQueueConsumer:00000000 $t
     /tmp/cc9pAqS3.s:81     .text.vBlockingQueueConsumer:00000000 vBlockingQueueConsumer
     /tmp/cc9pAqS3.s:144    .text.vStartBlockingQueueTasks:00000000 $t
     /tmp/cc9pAqS3.s:149    .text.vStartBlockingQueueTasks:00000000 vStartBlockingQueueTasks
     /tmp/cc9pAqS3.s:352    .text.vStartBlockingQueueTasks:00000128 $d
     /tmp/cc9pAqS3.s:366    .text.xAreBlockingQueuesStillRunning:00000000 $t
     /tmp/cc9pAqS3.s:371    .text.xAreBlockingQueuesStillRunning:00000000 xAreBlockingQueuesStillRunning
     /tmp/cc9pAqS3.s:433    .text.xAreBlockingQueuesStillRunning:00000050 $d
     /tmp/cc9pAqS3.s:441    .bss.sBlockingProducerCount:00000000 $d
     /tmp/cc9pAqS3.s:445    .bss.sBlockingProducerCount:00000000 sBlockingProducerCount
     /tmp/cc9pAqS3.s:448    .bss.sLastBlockingProducerCount.5121:00000000 $d
     /tmp/cc9pAqS3.s:452    .bss.sLastBlockingProducerCount.5121:00000000 sLastBlockingProducerCount.5121
     /tmp/cc9pAqS3.s:455    .bss.sLastBlockingConsumerCount.5120:00000000 $d
     /tmp/cc9pAqS3.s:459    .bss.sLastBlockingConsumerCount.5120:00000000 sLastBlockingConsumerCount.5120
     /tmp/cc9pAqS3.s:462    .bss.sBlockingConsumerCount:00000000 $d
     /tmp/cc9pAqS3.s:466    .bss.sBlockingConsumerCount:00000000 sBlockingConsumerCount
     /tmp/cc9pAqS3.s:469    .rodata.str1.4:00000000 $d
                     .debug_frame:00000010 $d
                           .group:00000000 wm4.0.15bbada38f0fbd9e33c92bb3b56cb535
                           .group:00000000 wm4.newlib.h.8.2702bca278809460f0af6fba1d84eb68
                           .group:00000000 wm4.features.h.22.2e382148a0560adabf236cddd4e880f4
                           .group:00000000 wm4.config.h.220.a09b0b0de3c25be3f39d71990e617bff
                           .group:00000000 wm4._ansi.h.23.9f8fcfa20193763fcf364fb91705c94b
                           .group:00000000 wm4.stdlib.h.13.4ed386f5c1a80d71e72172885d946ef2
                           .group:00000000 wm4.stddef.h.184.aa65fb7281d578229bbad41b91862635
                           .group:00000000 wm4.stddef.h.39.dc09cac7e3f758f23d559f6b28ebbb0d
                           .group:00000000 wm4._default_types.h.6.35ee9e747940367bf2a634907d1c2382
                           .group:00000000 wm4.lock.h.2.9bc98482741e5e2a9450b12934a684ea
                           .group:00000000 wm4._types.h.54.d3d34a3b7f3cc230cd159baf022b4b08
                           .group:00000000 wm4.stddef.h.158.61317cdbfb4026324507d123a50b0fd6
                           .group:00000000 wm4.reent.h.17.8bd9e4098e0428508c282cad794fae43
                           .group:00000000 wm4.cdefs.h.47.a14b68a47d722a767cc4688ffe478d81
                           .group:00000000 wm4.alloca.h.8.dfc0c703c47ec3e69746825b17d9e66d
                           .group:00000000 wm4.stdlib.h.54.cd3744e0b066087ec8fbb1bdc22d1043
                           .group:00000000 wm4._intsup.h.10.35a45952db64d30146faa63a55c20c1c
                           .group:00000000 wm4._stdint.h.10.f76354baea1c7088202064e6f3d4f5e3
                           .group:00000000 wm4.stdint.h.23.373a9d32a9e4c2e88fd347156532d281
                           .group:00000000 wm4.FreeRTOSConfig.h.71.cd6da78ae7d8769d658c28aafe88cca9
                           .group:00000000 wm4.projdefs.h.71.b3c50e668908413922aad758934ec914
                           .group:00000000 wm4.portmacro.h.72.e06018902f9ae50358ce9a175ecd983b
                           .group:00000000 wm4.portable.h.106.61ffdda1afafb5a5e1f7197ade95b43a
                           .group:00000000 wm4.mpu_wrappers.h.71.0cead7785e4b5fa8c4e0eba0dc579f11
                           .group:00000000 wm4.FreeRTOS.h.175.ac7a4fe760c4456f63e9dc2e5bf14760
                           .group:00000000 wm4.list.h.103.6a12b7b9a7a136c3cca0ee53675c5498
                           .group:00000000 wm4.task.h.88.87a3ea4713e30599c4c24f39fba43c3a
                           .group:00000000 wm4.queue.h.72.b79111e1f2901fd0fc4ec217c5b93342

UNDEFINED SYMBOLS
xQueueGenericSend
xQueueGenericReceive
pvPortMalloc
xQueueGenericCreate
xTaskGenericCreate
