   1              		.syntax unified
   2              		.cpu cortex-m3
   3              		.fpu softvfp
   4              		.eabi_attribute 20, 1
   5              		.eabi_attribute 21, 1
   6              		.eabi_attribute 23, 3
   7              		.eabi_attribute 24, 1
   8              		.eabi_attribute 25, 1
   9              		.eabi_attribute 26, 1
  10              		.eabi_attribute 30, 1
  11              		.eabi_attribute 34, 1
  12              		.eabi_attribute 18, 4
  13              		.thumb
  14              		.file	"crflash.c"
  15              		.text
  16              	.Ltext0:
  17              		.cfi_sections	.debug_frame
  18              		.section	.text.prvFlashCoRoutine,"ax",%progbits
  19              		.align	2
  20              		.thumb
  21              		.thumb_func
  23              	prvFlashCoRoutine:
  24              	.LFB3:
  25              		.file 1 "../Demo/Common/Minimal/crflash.c"
   1:../Demo/Common/Minimal/crflash.c **** /*
   2:../Demo/Common/Minimal/crflash.c ****     FreeRTOS V8.2.3 - Copyright (C) 2015 Real Time Engineers Ltd.
   3:../Demo/Common/Minimal/crflash.c ****     All rights reserved
   4:../Demo/Common/Minimal/crflash.c **** 
   5:../Demo/Common/Minimal/crflash.c ****     VISIT http://www.FreeRTOS.org TO ENSURE YOU ARE USING THE LATEST VERSION.
   6:../Demo/Common/Minimal/crflash.c **** 
   7:../Demo/Common/Minimal/crflash.c ****     This file is part of the FreeRTOS distribution.
   8:../Demo/Common/Minimal/crflash.c **** 
   9:../Demo/Common/Minimal/crflash.c ****     FreeRTOS is free software; you can redistribute it and/or modify it under
  10:../Demo/Common/Minimal/crflash.c ****     the terms of the GNU General Public License (version 2) as published by the
  11:../Demo/Common/Minimal/crflash.c ****     Free Software Foundation >>>> AND MODIFIED BY <<<< the FreeRTOS exception.
  12:../Demo/Common/Minimal/crflash.c **** 
  13:../Demo/Common/Minimal/crflash.c ****     ***************************************************************************
  14:../Demo/Common/Minimal/crflash.c ****     >>!   NOTE: The modification to the GPL is included to allow you to     !<<
  15:../Demo/Common/Minimal/crflash.c ****     >>!   distribute a combined work that includes FreeRTOS without being   !<<
  16:../Demo/Common/Minimal/crflash.c ****     >>!   obliged to provide the source code for proprietary components     !<<
  17:../Demo/Common/Minimal/crflash.c ****     >>!   outside of the FreeRTOS kernel.                                   !<<
  18:../Demo/Common/Minimal/crflash.c ****     ***************************************************************************
  19:../Demo/Common/Minimal/crflash.c **** 
  20:../Demo/Common/Minimal/crflash.c ****     FreeRTOS is distributed in the hope that it will be useful, but WITHOUT ANY
  21:../Demo/Common/Minimal/crflash.c ****     WARRANTY; without even the implied warranty of MERCHANTABILITY or FITNESS
  22:../Demo/Common/Minimal/crflash.c ****     FOR A PARTICULAR PURPOSE.  Full license text is available on the following
  23:../Demo/Common/Minimal/crflash.c ****     link: http://www.freertos.org/a00114.html
  24:../Demo/Common/Minimal/crflash.c **** 
  25:../Demo/Common/Minimal/crflash.c ****     ***************************************************************************
  26:../Demo/Common/Minimal/crflash.c ****      *                                                                       *
  27:../Demo/Common/Minimal/crflash.c ****      *    FreeRTOS provides completely free yet professionally developed,    *
  28:../Demo/Common/Minimal/crflash.c ****      *    robust, strictly quality controlled, supported, and cross          *
  29:../Demo/Common/Minimal/crflash.c ****      *    platform software that is more than just the market leader, it     *
  30:../Demo/Common/Minimal/crflash.c ****      *    is the industry's de facto standard.                               *
  31:../Demo/Common/Minimal/crflash.c ****      *                                                                       *
  32:../Demo/Common/Minimal/crflash.c ****      *    Help yourself get started quickly while simultaneously helping     *
  33:../Demo/Common/Minimal/crflash.c ****      *    to support the FreeRTOS project by purchasing a FreeRTOS           *
  34:../Demo/Common/Minimal/crflash.c ****      *    tutorial book, reference manual, or both:                          *
  35:../Demo/Common/Minimal/crflash.c ****      *    http://www.FreeRTOS.org/Documentation                              *
  36:../Demo/Common/Minimal/crflash.c ****      *                                                                       *
  37:../Demo/Common/Minimal/crflash.c ****     ***************************************************************************
  38:../Demo/Common/Minimal/crflash.c **** 
  39:../Demo/Common/Minimal/crflash.c ****     http://www.FreeRTOS.org/FAQHelp.html - Having a problem?  Start by reading
  40:../Demo/Common/Minimal/crflash.c ****     the FAQ page "My application does not run, what could be wrong?".  Have you
  41:../Demo/Common/Minimal/crflash.c ****     defined configASSERT()?
  42:../Demo/Common/Minimal/crflash.c **** 
  43:../Demo/Common/Minimal/crflash.c ****     http://www.FreeRTOS.org/support - In return for receiving this top quality
  44:../Demo/Common/Minimal/crflash.c ****     embedded software for free we request you assist our global community by
  45:../Demo/Common/Minimal/crflash.c ****     participating in the support forum.
  46:../Demo/Common/Minimal/crflash.c **** 
  47:../Demo/Common/Minimal/crflash.c ****     http://www.FreeRTOS.org/training - Investing in training allows your team to
  48:../Demo/Common/Minimal/crflash.c ****     be as productive as possible as early as possible.  Now you can receive
  49:../Demo/Common/Minimal/crflash.c ****     FreeRTOS training directly from Richard Barry, CEO of Real Time Engineers
  50:../Demo/Common/Minimal/crflash.c ****     Ltd, and the world's leading authority on the world's leading RTOS.
  51:../Demo/Common/Minimal/crflash.c **** 
  52:../Demo/Common/Minimal/crflash.c ****     http://www.FreeRTOS.org/plus - A selection of FreeRTOS ecosystem products,
  53:../Demo/Common/Minimal/crflash.c ****     including FreeRTOS+Trace - an indispensable productivity tool, a DOS
  54:../Demo/Common/Minimal/crflash.c ****     compatible FAT file system, and our tiny thread aware UDP/IP stack.
  55:../Demo/Common/Minimal/crflash.c **** 
  56:../Demo/Common/Minimal/crflash.c ****     http://www.FreeRTOS.org/labs - Where new FreeRTOS products go to incubate.
  57:../Demo/Common/Minimal/crflash.c ****     Come and try FreeRTOS+TCP, our new open source TCP/IP stack for FreeRTOS.
  58:../Demo/Common/Minimal/crflash.c **** 
  59:../Demo/Common/Minimal/crflash.c ****     http://www.OpenRTOS.com - Real Time Engineers ltd. license FreeRTOS to High
  60:../Demo/Common/Minimal/crflash.c ****     Integrity Systems ltd. to sell under the OpenRTOS brand.  Low cost OpenRTOS
  61:../Demo/Common/Minimal/crflash.c ****     licenses offer ticketed support, indemnification and commercial middleware.
  62:../Demo/Common/Minimal/crflash.c **** 
  63:../Demo/Common/Minimal/crflash.c ****     http://www.SafeRTOS.com - High Integrity Systems also provide a safety
  64:../Demo/Common/Minimal/crflash.c ****     engineered and independently SIL3 certified version for use in safety and
  65:../Demo/Common/Minimal/crflash.c ****     mission critical applications that require provable dependability.
  66:../Demo/Common/Minimal/crflash.c **** 
  67:../Demo/Common/Minimal/crflash.c ****     1 tab == 4 spaces!
  68:../Demo/Common/Minimal/crflash.c **** */
  69:../Demo/Common/Minimal/crflash.c **** 
  70:../Demo/Common/Minimal/crflash.c **** /*
  71:../Demo/Common/Minimal/crflash.c ****  * This demo application file demonstrates the use of queues to pass data
  72:../Demo/Common/Minimal/crflash.c ****  * between co-routines.
  73:../Demo/Common/Minimal/crflash.c ****  *
  74:../Demo/Common/Minimal/crflash.c ****  * N represents the number of 'fixed delay' co-routines that are created and
  75:../Demo/Common/Minimal/crflash.c ****  * is set during initialisation.
  76:../Demo/Common/Minimal/crflash.c ****  *
  77:../Demo/Common/Minimal/crflash.c ****  * N 'fixed delay' co-routines are created that just block for a fixed
  78:../Demo/Common/Minimal/crflash.c ****  * period then post the number of an LED onto a queue.  Each such co-routine
  79:../Demo/Common/Minimal/crflash.c ****  * uses a different block period.  A single 'flash' co-routine is also created
  80:../Demo/Common/Minimal/crflash.c ****  * that blocks on the same queue, waiting for the number of the next LED it
  81:../Demo/Common/Minimal/crflash.c ****  * should flash.  Upon receiving a number it simply toggle the instructed LED
  82:../Demo/Common/Minimal/crflash.c ****  * then blocks on the queue once more.  In this manner each LED from LED 0 to
  83:../Demo/Common/Minimal/crflash.c ****  * LED N-1 is caused to flash at a different rate.
  84:../Demo/Common/Minimal/crflash.c ****  *
  85:../Demo/Common/Minimal/crflash.c ****  * The 'fixed delay' co-routines are created with co-routine priority 0.  The
  86:../Demo/Common/Minimal/crflash.c ****  * flash co-routine is created with co-routine priority 1.  This means that
  87:../Demo/Common/Minimal/crflash.c ****  * the queue should never contain more than a single item.  This is because
  88:../Demo/Common/Minimal/crflash.c ****  * posting to the queue will unblock the 'flash' co-routine, and as this has
  89:../Demo/Common/Minimal/crflash.c ****  * a priority greater than the tasks posting to the queue it is guaranteed to
  90:../Demo/Common/Minimal/crflash.c ****  * have emptied the queue and blocked once again before the queue can contain
  91:../Demo/Common/Minimal/crflash.c ****  * any more date.  An error is indicated if an attempt to post data to the
  92:../Demo/Common/Minimal/crflash.c ****  * queue fails - indicating that the queue is already full.
  93:../Demo/Common/Minimal/crflash.c ****  *
  94:../Demo/Common/Minimal/crflash.c ****  */
  95:../Demo/Common/Minimal/crflash.c **** 
  96:../Demo/Common/Minimal/crflash.c **** /* Scheduler includes. */
  97:../Demo/Common/Minimal/crflash.c **** #include "FreeRTOS.h"
  98:../Demo/Common/Minimal/crflash.c **** #include "croutine.h"
  99:../Demo/Common/Minimal/crflash.c **** #include "queue.h"
 100:../Demo/Common/Minimal/crflash.c **** 
 101:../Demo/Common/Minimal/crflash.c **** /* Demo application includes. */
 102:../Demo/Common/Minimal/crflash.c **** #include "partest.h"
 103:../Demo/Common/Minimal/crflash.c **** #include "crflash.h"
 104:../Demo/Common/Minimal/crflash.c **** 
 105:../Demo/Common/Minimal/crflash.c **** /* The queue should only need to be of length 1.  See the description at the
 106:../Demo/Common/Minimal/crflash.c **** top of the file. */
 107:../Demo/Common/Minimal/crflash.c **** #define crfQUEUE_LENGTH		1
 108:../Demo/Common/Minimal/crflash.c **** 
 109:../Demo/Common/Minimal/crflash.c **** #define crfFIXED_DELAY_PRIORITY		0
 110:../Demo/Common/Minimal/crflash.c **** #define crfFLASH_PRIORITY			1
 111:../Demo/Common/Minimal/crflash.c **** 
 112:../Demo/Common/Minimal/crflash.c **** /* Only one flash co-routine is created so the index is not significant. */
 113:../Demo/Common/Minimal/crflash.c **** #define crfFLASH_INDEX				0
 114:../Demo/Common/Minimal/crflash.c **** 
 115:../Demo/Common/Minimal/crflash.c **** /* Don't allow more than crfMAX_FLASH_TASKS 'fixed delay' co-routines to be
 116:../Demo/Common/Minimal/crflash.c **** created. */
 117:../Demo/Common/Minimal/crflash.c **** #define crfMAX_FLASH_TASKS			8
 118:../Demo/Common/Minimal/crflash.c **** 
 119:../Demo/Common/Minimal/crflash.c **** /* We don't want to block when posting to the queue. */
 120:../Demo/Common/Minimal/crflash.c **** #define crfPOSTING_BLOCK_TIME		0
 121:../Demo/Common/Minimal/crflash.c **** 
 122:../Demo/Common/Minimal/crflash.c **** /*
 123:../Demo/Common/Minimal/crflash.c ****  * The 'fixed delay' co-routine as described at the top of the file.
 124:../Demo/Common/Minimal/crflash.c ****  */
 125:../Demo/Common/Minimal/crflash.c **** static void prvFixedDelayCoRoutine( CoRoutineHandle_t xHandle, UBaseType_t uxIndex );
 126:../Demo/Common/Minimal/crflash.c **** 
 127:../Demo/Common/Minimal/crflash.c **** /*
 128:../Demo/Common/Minimal/crflash.c ****  * The 'flash' co-routine as described at the top of the file.
 129:../Demo/Common/Minimal/crflash.c ****  */
 130:../Demo/Common/Minimal/crflash.c **** static void prvFlashCoRoutine( CoRoutineHandle_t xHandle, UBaseType_t uxIndex );
 131:../Demo/Common/Minimal/crflash.c **** 
 132:../Demo/Common/Minimal/crflash.c **** /* The queue used to pass data between the 'fixed delay' co-routines and the
 133:../Demo/Common/Minimal/crflash.c **** 'flash' co-routine. */
 134:../Demo/Common/Minimal/crflash.c **** static QueueHandle_t xFlashQueue;
 135:../Demo/Common/Minimal/crflash.c **** 
 136:../Demo/Common/Minimal/crflash.c **** /* This will be set to pdFALSE if we detect an error. */
 137:../Demo/Common/Minimal/crflash.c **** static BaseType_t xCoRoutineFlashStatus = pdPASS;
 138:../Demo/Common/Minimal/crflash.c **** 
 139:../Demo/Common/Minimal/crflash.c **** /*-----------------------------------------------------------*/
 140:../Demo/Common/Minimal/crflash.c **** 
 141:../Demo/Common/Minimal/crflash.c **** /*
 142:../Demo/Common/Minimal/crflash.c ****  * See the header file for details.
 143:../Demo/Common/Minimal/crflash.c ****  */
 144:../Demo/Common/Minimal/crflash.c **** void vStartFlashCoRoutines( UBaseType_t uxNumberToCreate )
 145:../Demo/Common/Minimal/crflash.c **** {
 146:../Demo/Common/Minimal/crflash.c **** UBaseType_t uxIndex;
 147:../Demo/Common/Minimal/crflash.c **** 
 148:../Demo/Common/Minimal/crflash.c **** 	if( uxNumberToCreate > crfMAX_FLASH_TASKS )
 149:../Demo/Common/Minimal/crflash.c **** 	{
 150:../Demo/Common/Minimal/crflash.c **** 		uxNumberToCreate = crfMAX_FLASH_TASKS;
 151:../Demo/Common/Minimal/crflash.c **** 	}
 152:../Demo/Common/Minimal/crflash.c **** 
 153:../Demo/Common/Minimal/crflash.c **** 	/* Create the queue used to pass data between the co-routines. */
 154:../Demo/Common/Minimal/crflash.c **** 	xFlashQueue = xQueueCreate( crfQUEUE_LENGTH, sizeof( UBaseType_t ) );
 155:../Demo/Common/Minimal/crflash.c **** 
 156:../Demo/Common/Minimal/crflash.c **** 	if( xFlashQueue )
 157:../Demo/Common/Minimal/crflash.c **** 	{
 158:../Demo/Common/Minimal/crflash.c **** 		/* Create uxNumberToCreate 'fixed delay' co-routines. */
 159:../Demo/Common/Minimal/crflash.c **** 		for( uxIndex = 0; uxIndex < uxNumberToCreate; uxIndex++ )
 160:../Demo/Common/Minimal/crflash.c **** 		{
 161:../Demo/Common/Minimal/crflash.c **** 			xCoRoutineCreate( prvFixedDelayCoRoutine, crfFIXED_DELAY_PRIORITY, uxIndex );
 162:../Demo/Common/Minimal/crflash.c **** 		}
 163:../Demo/Common/Minimal/crflash.c **** 
 164:../Demo/Common/Minimal/crflash.c **** 		/* Create the 'flash' co-routine. */
 165:../Demo/Common/Minimal/crflash.c **** 		xCoRoutineCreate( prvFlashCoRoutine, crfFLASH_PRIORITY, crfFLASH_INDEX );
 166:../Demo/Common/Minimal/crflash.c **** 	}
 167:../Demo/Common/Minimal/crflash.c **** }
 168:../Demo/Common/Minimal/crflash.c **** /*-----------------------------------------------------------*/
 169:../Demo/Common/Minimal/crflash.c **** 
 170:../Demo/Common/Minimal/crflash.c **** static void prvFixedDelayCoRoutine( CoRoutineHandle_t xHandle, UBaseType_t uxIndex )
 171:../Demo/Common/Minimal/crflash.c **** {
 172:../Demo/Common/Minimal/crflash.c **** /* Even though this is a co-routine the xResult variable does not need to be
 173:../Demo/Common/Minimal/crflash.c **** static as we do not need it to maintain its state between blocks. */
 174:../Demo/Common/Minimal/crflash.c **** BaseType_t xResult;
 175:../Demo/Common/Minimal/crflash.c **** /* The uxIndex parameter of the co-routine function is used as an index into
 176:../Demo/Common/Minimal/crflash.c **** the xFlashRates array to obtain the delay period to use. */
 177:../Demo/Common/Minimal/crflash.c **** static const TickType_t xFlashRates[ crfMAX_FLASH_TASKS ] = { 150 / portTICK_PERIOD_MS,
 178:../Demo/Common/Minimal/crflash.c **** 																200 / portTICK_PERIOD_MS,
 179:../Demo/Common/Minimal/crflash.c **** 																250 / portTICK_PERIOD_MS,
 180:../Demo/Common/Minimal/crflash.c **** 																300 / portTICK_PERIOD_MS,
 181:../Demo/Common/Minimal/crflash.c **** 																350 / portTICK_PERIOD_MS,
 182:../Demo/Common/Minimal/crflash.c **** 																400 / portTICK_PERIOD_MS,
 183:../Demo/Common/Minimal/crflash.c **** 																450 / portTICK_PERIOD_MS,
 184:../Demo/Common/Minimal/crflash.c **** 																500  / portTICK_PERIOD_MS };
 185:../Demo/Common/Minimal/crflash.c **** 
 186:../Demo/Common/Minimal/crflash.c **** 	/* Co-routines MUST start with a call to crSTART. */
 187:../Demo/Common/Minimal/crflash.c **** 	crSTART( xHandle );
 188:../Demo/Common/Minimal/crflash.c **** 
 189:../Demo/Common/Minimal/crflash.c **** 	for( ;; )
 190:../Demo/Common/Minimal/crflash.c **** 	{
 191:../Demo/Common/Minimal/crflash.c **** 		/* Post our uxIndex value onto the queue.  This is used as the LED to
 192:../Demo/Common/Minimal/crflash.c **** 		flash. */
 193:../Demo/Common/Minimal/crflash.c **** 		crQUEUE_SEND( xHandle, xFlashQueue, ( void * ) &uxIndex, crfPOSTING_BLOCK_TIME, &xResult );
 194:../Demo/Common/Minimal/crflash.c **** 
 195:../Demo/Common/Minimal/crflash.c **** 		if( xResult != pdPASS )
 196:../Demo/Common/Minimal/crflash.c **** 		{
 197:../Demo/Common/Minimal/crflash.c **** 			/* For the reasons stated at the top of the file we should always
 198:../Demo/Common/Minimal/crflash.c **** 			find that we can post to the queue.  If we could not then an error
 199:../Demo/Common/Minimal/crflash.c **** 			has occurred. */
 200:../Demo/Common/Minimal/crflash.c **** 			xCoRoutineFlashStatus = pdFAIL;
 201:../Demo/Common/Minimal/crflash.c **** 		}
 202:../Demo/Common/Minimal/crflash.c **** 
 203:../Demo/Common/Minimal/crflash.c **** 		crDELAY( xHandle, xFlashRates[ uxIndex ] );
 204:../Demo/Common/Minimal/crflash.c **** 	}
 205:../Demo/Common/Minimal/crflash.c **** 
 206:../Demo/Common/Minimal/crflash.c **** 	/* Co-routines MUST end with a call to crEND. */
 207:../Demo/Common/Minimal/crflash.c **** 	crEND();
 208:../Demo/Common/Minimal/crflash.c **** }
 209:../Demo/Common/Minimal/crflash.c **** /*-----------------------------------------------------------*/
 210:../Demo/Common/Minimal/crflash.c **** 
 211:../Demo/Common/Minimal/crflash.c **** static void prvFlashCoRoutine( CoRoutineHandle_t xHandle, UBaseType_t uxIndex )
 212:../Demo/Common/Minimal/crflash.c **** {
  26              		.loc 1 212 0
  27              		.cfi_startproc
  28              		@ args = 0, pretend = 0, frame = 8
  29              		@ frame_needed = 0, uses_anonymous_args = 0
  30              	.LVL0:
  31 0000 10B5     		push	{r4, lr}
  32              		.cfi_def_cfa_offset 8
  33              		.cfi_offset 4, -8
  34              		.cfi_offset 14, -4
  35 0002 82B0     		sub	sp, sp, #8
  36              		.cfi_def_cfa_offset 16
  37 0004 0446     		mov	r4, r0
 213:../Demo/Common/Minimal/crflash.c **** /* Even though this is a co-routine the variable do not need to be
 214:../Demo/Common/Minimal/crflash.c **** static as we do not need it to maintain their state between blocks. */
 215:../Demo/Common/Minimal/crflash.c **** BaseType_t xResult;
 216:../Demo/Common/Minimal/crflash.c **** UBaseType_t uxLEDToFlash;
 217:../Demo/Common/Minimal/crflash.c **** 
 218:../Demo/Common/Minimal/crflash.c **** 	/* Co-routines MUST start with a call to crSTART. */
 219:../Demo/Common/Minimal/crflash.c **** 	crSTART( xHandle );
  38              		.loc 1 219 0
  39 0006 838E     		ldrh	r3, [r0, #52]
  40 0008 B3F5E17F 		cmp	r3, #450
  41 000c 12D0     		beq	.L3
  42 000e 40F2C312 		movw	r2, #451
  43 0012 9342     		cmp	r3, r2
  44 0014 1BD0     		beq	.L10
  45 0016 2BBB     		cbnz	r3, .L1
  46              	.LVL1:
  47              	.L5:
 220:../Demo/Common/Minimal/crflash.c **** 	( void ) uxIndex;
 221:../Demo/Common/Minimal/crflash.c **** 	
 222:../Demo/Common/Minimal/crflash.c **** 	for( ;; )
 223:../Demo/Common/Minimal/crflash.c **** 	{
 224:../Demo/Common/Minimal/crflash.c **** 		/* Block to wait for the number of the LED to flash. */
 225:../Demo/Common/Minimal/crflash.c **** 		crQUEUE_RECEIVE( xHandle, xFlashQueue, &uxLEDToFlash, portMAX_DELAY, &xResult );		
  48              		.loc 1 225 0
  49 0018 134B     		ldr	r3, .L12
  50 001a 1868     		ldr	r0, [r3]
  51 001c 01A9     		add	r1, sp, #4
  52 001e 4FF0FF32 		mov	r2, #-1
  53 0022 FFF7FEFF 		bl	xQueueCRReceive
  54              	.LVL2:
  55 0026 10F1040F 		cmn	r0, #4
  56 002a 09D1     		bne	.L6
  57              		.loc 1 225 0 is_stmt 0 discriminator 1
  58 002c 4FF4E173 		mov	r3, #450
  59 0030 A386     		strh	r3, [r4, #52]	@ movhi
  60 0032 17E0     		b	.L1
  61              	.LVL3:
  62              	.L3:
  63              		.loc 1 225 0 discriminator 4
  64 0034 0C4B     		ldr	r3, .L12
  65 0036 1868     		ldr	r0, [r3]
  66              	.LVL4:
  67 0038 01A9     		add	r1, sp, #4
  68              	.LVL5:
  69 003a 0022     		movs	r2, #0
  70 003c FFF7FEFF 		bl	xQueueCRReceive
  71              	.LVL6:
  72              	.L6:
  73              		.loc 1 225 0 discriminator 2
  74 0040 10F1050F 		cmn	r0, #5
  75 0044 04D1     		bne	.L4
  76              		.loc 1 225 0 discriminator 5
  77 0046 40F2C313 		movw	r3, #451
  78 004a A386     		strh	r3, [r4, #52]	@ movhi
  79 004c 0AE0     		b	.L1
  80              	.LVL7:
  81              	.L10:
  82              		.loc 1 225 0
  83 004e 0120     		movs	r0, #1
  84              	.LVL8:
  85              	.L4:
 226:../Demo/Common/Minimal/crflash.c **** 
 227:../Demo/Common/Minimal/crflash.c **** 		if( xResult != pdPASS )
  86              		.loc 1 227 0 is_stmt 1
  87 0050 0128     		cmp	r0, #1
  88 0052 03D0     		beq	.L8
 228:../Demo/Common/Minimal/crflash.c **** 		{
 229:../Demo/Common/Minimal/crflash.c **** 			/* We would not expect to wake unless we received something. */
 230:../Demo/Common/Minimal/crflash.c **** 			xCoRoutineFlashStatus = pdFAIL;
  89              		.loc 1 230 0
  90 0054 0022     		movs	r2, #0
  91 0056 054B     		ldr	r3, .L12+4
  92 0058 1A60     		str	r2, [r3]
  93 005a DDE7     		b	.L5
  94              	.L8:
 231:../Demo/Common/Minimal/crflash.c **** 		}
 232:../Demo/Common/Minimal/crflash.c **** 		else
 233:../Demo/Common/Minimal/crflash.c **** 		{
 234:../Demo/Common/Minimal/crflash.c **** 			/* We received the number of an LED to flash - flash it! */
 235:../Demo/Common/Minimal/crflash.c **** 			vParTestToggleLED( uxLEDToFlash );
  95              		.loc 1 235 0
  96 005c 0198     		ldr	r0, [sp, #4]
  97              	.LVL9:
  98 005e FFF7FEFF 		bl	vParTestToggleLED
  99              	.LVL10:
 100 0062 D9E7     		b	.L5
 101              	.L1:
 236:../Demo/Common/Minimal/crflash.c **** 		}
 237:../Demo/Common/Minimal/crflash.c **** 	}
 238:../Demo/Common/Minimal/crflash.c **** 
 239:../Demo/Common/Minimal/crflash.c **** 	/* Co-routines MUST end with a call to crEND. */
 240:../Demo/Common/Minimal/crflash.c **** 	crEND();
 241:../Demo/Common/Minimal/crflash.c **** }
 102              		.loc 1 241 0
 103 0064 02B0     		add	sp, sp, #8
 104              		.cfi_def_cfa_offset 8
 105              		@ sp needed
 106 0066 10BD     		pop	{r4, pc}
 107              	.LVL11:
 108              	.L13:
 109              		.align	2
 110              	.L12:
 111 0068 00000000 		.word	.LANCHOR0
 112 006c 00000000 		.word	.LANCHOR1
 113              		.cfi_endproc
 114              	.LFE3:
 116              		.section	.text.prvFixedDelayCoRoutine,"ax",%progbits
 117              		.align	2
 118              		.thumb
 119              		.thumb_func
 121              	prvFixedDelayCoRoutine:
 122              	.LFB2:
 171:../Demo/Common/Minimal/crflash.c **** /* Even though this is a co-routine the xResult variable does not need to be
 123              		.loc 1 171 0
 124              		.cfi_startproc
 125              		@ args = 0, pretend = 0, frame = 8
 126              		@ frame_needed = 0, uses_anonymous_args = 0
 127              	.LVL12:
 128 0000 10B5     		push	{r4, lr}
 129              		.cfi_def_cfa_offset 8
 130              		.cfi_offset 4, -8
 131              		.cfi_offset 14, -4
 132 0002 82B0     		sub	sp, sp, #8
 133              		.cfi_def_cfa_offset 16
 134 0004 0446     		mov	r4, r0
 135 0006 0191     		str	r1, [sp, #4]
 187:../Demo/Common/Minimal/crflash.c **** 
 136              		.loc 1 187 0
 137 0008 838E     		ldrh	r3, [r0, #52]
 138 000a B3F5C17F 		cmp	r3, #386
 139 000e 16D0     		beq	.L16
 140 0010 01D8     		bhi	.L17
 141 0012 3BB1     		cbz	r3, .L18
 142 0014 31E0     		b	.L14
 143              	.L17:
 144 0016 40F28312 		movw	r2, #387
 145 001a 9342     		cmp	r3, r2
 146 001c 1CD0     		beq	.L23
 147 001e B3F5CB7F 		cmp	r3, #406
 148 0022 2AD1     		bne	.L14
 149              	.L18:
 193:../Demo/Common/Minimal/crflash.c **** 
 150              		.loc 1 193 0
 151 0024 164B     		ldr	r3, .L25
 152 0026 1868     		ldr	r0, [r3]
 153              	.LVL13:
 154 0028 01A9     		add	r1, sp, #4
 155              	.LVL14:
 156 002a 0022     		movs	r2, #0
 157 002c FFF7FEFF 		bl	xQueueCRSend
 158              	.LVL15:
 159 0030 10F1040F 		cmn	r0, #4
 160 0034 09D1     		bne	.L20
 193:../Demo/Common/Minimal/crflash.c **** 
 161              		.loc 1 193 0 is_stmt 0 discriminator 1
 162 0036 4FF4C173 		mov	r3, #386
 163 003a A386     		strh	r3, [r4, #52]	@ movhi
 164 003c 1DE0     		b	.L14
 165              	.LVL16:
 166              	.L16:
 193:../Demo/Common/Minimal/crflash.c **** 
 167              		.loc 1 193 0 discriminator 4
 168 003e 104B     		ldr	r3, .L25
 169 0040 1868     		ldr	r0, [r3]
 170              	.LVL17:
 171 0042 01A9     		add	r1, sp, #4
 172              	.LVL18:
 173 0044 0022     		movs	r2, #0
 174 0046 FFF7FEFF 		bl	xQueueCRSend
 175              	.LVL19:
 176              	.L20:
 193:../Demo/Common/Minimal/crflash.c **** 
 177              		.loc 1 193 0 discriminator 2
 178 004a 10F1050F 		cmn	r0, #5
 179 004e 04D1     		bne	.L19
 193:../Demo/Common/Minimal/crflash.c **** 
 180              		.loc 1 193 0 discriminator 5
 181 0050 40F28313 		movw	r3, #387
 182 0054 A386     		strh	r3, [r4, #52]	@ movhi
 183 0056 10E0     		b	.L14
 184              	.LVL20:
 185              	.L23:
 193:../Demo/Common/Minimal/crflash.c **** 
 186              		.loc 1 193 0
 187 0058 0120     		movs	r0, #1
 188              	.LVL21:
 189              	.L19:
 195:../Demo/Common/Minimal/crflash.c **** 		{
 190              		.loc 1 195 0 is_stmt 1
 191 005a 0128     		cmp	r0, #1
 192 005c 02D0     		beq	.L21
 200:../Demo/Common/Minimal/crflash.c **** 		}
 193              		.loc 1 200 0
 194 005e 0022     		movs	r2, #0
 195 0060 084B     		ldr	r3, .L25+4
 196 0062 1A60     		str	r2, [r3]
 197              	.L21:
 203:../Demo/Common/Minimal/crflash.c **** 	}
 198              		.loc 1 203 0
 199 0064 019A     		ldr	r2, [sp, #4]
 200 0066 084B     		ldr	r3, .L25+8
 201 0068 53F82200 		ldr	r0, [r3, r2, lsl #2]
 202              	.LVL22:
 203 006c 10B1     		cbz	r0, .L22
 203:../Demo/Common/Minimal/crflash.c **** 	}
 204              		.loc 1 203 0 is_stmt 0 discriminator 1
 205 006e 0021     		movs	r1, #0
 206 0070 FFF7FEFF 		bl	vCoRoutineAddToDelayedList
 207              	.LVL23:
 208              	.L22:
 203:../Demo/Common/Minimal/crflash.c **** 	}
 209              		.loc 1 203 0 discriminator 3
 210 0074 4FF4CB73 		mov	r3, #406
 211 0078 A386     		strh	r3, [r4, #52]	@ movhi
 212              	.L14:
 208:../Demo/Common/Minimal/crflash.c **** /*-----------------------------------------------------------*/
 213              		.loc 1 208 0 is_stmt 1
 214 007a 02B0     		add	sp, sp, #8
 215              		.cfi_def_cfa_offset 8
 216              		@ sp needed
 217 007c 10BD     		pop	{r4, pc}
 218              	.LVL24:
 219              	.L26:
 220 007e 00BF     		.align	2
 221              	.L25:
 222 0080 00000000 		.word	.LANCHOR0
 223 0084 00000000 		.word	.LANCHOR1
 224 0088 00000000 		.word	.LANCHOR2
 225              		.cfi_endproc
 226              	.LFE2:
 228              		.section	.text.vStartFlashCoRoutines,"ax",%progbits
 229              		.align	2
 230              		.global	vStartFlashCoRoutines
 231              		.thumb
 232              		.thumb_func
 234              	vStartFlashCoRoutines:
 235              	.LFB1:
 145:../Demo/Common/Minimal/crflash.c **** UBaseType_t uxIndex;
 236              		.loc 1 145 0
 237              		.cfi_startproc
 238              		@ args = 0, pretend = 0, frame = 0
 239              		@ frame_needed = 0, uses_anonymous_args = 0
 240              	.LVL25:
 241 0000 38B5     		push	{r3, r4, r5, lr}
 242              		.cfi_def_cfa_offset 16
 243              		.cfi_offset 3, -16
 244              		.cfi_offset 4, -12
 245              		.cfi_offset 5, -8
 246              		.cfi_offset 14, -4
 247 0002 0546     		mov	r5, r0
 148:../Demo/Common/Minimal/crflash.c **** 	{
 248              		.loc 1 148 0
 249 0004 0828     		cmp	r0, #8
 250 0006 00D9     		bls	.L28
 150:../Demo/Common/Minimal/crflash.c **** 	}
 251              		.loc 1 150 0
 252 0008 0825     		movs	r5, #8
 253              	.L28:
 254              	.LVL26:
 154:../Demo/Common/Minimal/crflash.c **** 
 255              		.loc 1 154 0
 256 000a 0120     		movs	r0, #1
 257 000c 0421     		movs	r1, #4
 258 000e 0022     		movs	r2, #0
 259 0010 FFF7FEFF 		bl	xQueueGenericCreate
 260              	.LVL27:
 261 0014 094B     		ldr	r3, .L35
 262 0016 1860     		str	r0, [r3]
 156:../Demo/Common/Minimal/crflash.c **** 	{
 263              		.loc 1 156 0
 264 0018 38B9     		cbnz	r0, .L33
 265 001a 38BD     		pop	{r3, r4, r5, pc}
 266              	.LVL28:
 267              	.L31:
 161:../Demo/Common/Minimal/crflash.c **** 		}
 268              		.loc 1 161 0 discriminator 3
 269 001c 0848     		ldr	r0, .L35+4
 270 001e 0021     		movs	r1, #0
 271 0020 2246     		mov	r2, r4
 272 0022 FFF7FEFF 		bl	xCoRoutineCreate
 273              	.LVL29:
 159:../Demo/Common/Minimal/crflash.c **** 		{
 274              		.loc 1 159 0 discriminator 3
 275 0026 0134     		adds	r4, r4, #1
 276              	.LVL30:
 277 0028 00E0     		b	.L29
 278              	.LVL31:
 279              	.L33:
 280 002a 0024     		movs	r4, #0
 281              	.L29:
 282              	.LVL32:
 159:../Demo/Common/Minimal/crflash.c **** 		{
 283              		.loc 1 159 0 is_stmt 0 discriminator 1
 284 002c AC42     		cmp	r4, r5
 285 002e F5D3     		bcc	.L31
 165:../Demo/Common/Minimal/crflash.c **** 	}
 286              		.loc 1 165 0 is_stmt 1
 287 0030 0448     		ldr	r0, .L35+8
 288 0032 0121     		movs	r1, #1
 289 0034 0022     		movs	r2, #0
 290 0036 FFF7FEFF 		bl	xCoRoutineCreate
 291              	.LVL33:
 292 003a 38BD     		pop	{r3, r4, r5, pc}
 293              	.LVL34:
 294              	.L36:
 295              		.align	2
 296              	.L35:
 297 003c 00000000 		.word	.LANCHOR0
 298 0040 00000000 		.word	prvFixedDelayCoRoutine
 299 0044 00000000 		.word	prvFlashCoRoutine
 300              		.cfi_endproc
 301              	.LFE1:
 303              		.section	.text.xAreFlashCoRoutinesStillRunning,"ax",%progbits
 304              		.align	2
 305              		.global	xAreFlashCoRoutinesStillRunning
 306              		.thumb
 307              		.thumb_func
 309              	xAreFlashCoRoutinesStillRunning:
 310              	.LFB4:
 242:../Demo/Common/Minimal/crflash.c **** /*-----------------------------------------------------------*/
 243:../Demo/Common/Minimal/crflash.c **** 
 244:../Demo/Common/Minimal/crflash.c **** BaseType_t xAreFlashCoRoutinesStillRunning( void )
 245:../Demo/Common/Minimal/crflash.c **** {
 311              		.loc 1 245 0
 312              		.cfi_startproc
 313              		@ args = 0, pretend = 0, frame = 0
 314              		@ frame_needed = 0, uses_anonymous_args = 0
 315              		@ link register save eliminated.
 246:../Demo/Common/Minimal/crflash.c **** 	/* Return pdPASS or pdFAIL depending on whether an error has been detected
 247:../Demo/Common/Minimal/crflash.c **** 	or not. */
 248:../Demo/Common/Minimal/crflash.c **** 	return xCoRoutineFlashStatus;
 249:../Demo/Common/Minimal/crflash.c **** }
 316              		.loc 1 249 0
 317 0000 014B     		ldr	r3, .L38
 318 0002 1868     		ldr	r0, [r3]
 319 0004 7047     		bx	lr
 320              	.L39:
 321 0006 00BF     		.align	2
 322              	.L38:
 323 0008 00000000 		.word	.LANCHOR1
 324              		.cfi_endproc
 325              	.LFE4:
 327              		.section	.bss.xFlashQueue,"aw",%nobits
 328              		.align	2
 329              		.set	.LANCHOR0,. + 0
 332              	xFlashQueue:
 333 0000 00000000 		.space	4
 334              		.section	.data.xCoRoutineFlashStatus,"aw",%progbits
 335              		.align	2
 336              		.set	.LANCHOR1,. + 0
 339              	xCoRoutineFlashStatus:
 340 0000 01000000 		.word	1
 341              		.section	.rodata.xFlashRates.4367,"a",%progbits
 342              		.align	2
 343              		.set	.LANCHOR2,. + 0
 346              	xFlashRates.4367:
 347 0000 96000000 		.word	150
 348 0004 C8000000 		.word	200
 349 0008 FA000000 		.word	250
 350 000c 2C010000 		.word	300
 351 0010 5E010000 		.word	350
 352 0014 90010000 		.word	400
 353 0018 C2010000 		.word	450
 354 001c F4010000 		.word	500
 355              		.text
 356              	.Letext0:
 357              		.file 2 "/usr/local/gcc-arm-none-eabi-4_9-2015q3/arm-none-eabi/include/machine/_default_types.h"
 358              		.file 3 "/usr/local/gcc-arm-none-eabi-4_9-2015q3/arm-none-eabi/include/sys/_stdint.h"
 359              		.file 4 "/home/robb-gosset/workspace/FYP/FreeRTOS/Source/portable/GCC/ARM_CM3/portmacro.h"
 360              		.file 5 "/home/robb-gosset/workspace/FYP/FreeRTOS/Source/include/list.h"
 361              		.file 6 "/home/robb-gosset/workspace/FYP/FreeRTOS/Source/include/croutine.h"
 362              		.file 7 "/home/robb-gosset/workspace/FYP/FreeRTOS/Source/include/queue.h"
 363              		.file 8 "/home/robb-gosset/workspace/FYP/FreeRTOS/Demo/Common/include/partest.h"
DEFINED SYMBOLS
                            *ABS*:00000000 crflash.c
     /tmp/ccodCR4G.s:19     .text.prvFlashCoRoutine:00000000 $t
     /tmp/ccodCR4G.s:23     .text.prvFlashCoRoutine:00000000 prvFlashCoRoutine
     /tmp/ccodCR4G.s:111    .text.prvFlashCoRoutine:00000068 $d
     /tmp/ccodCR4G.s:117    .text.prvFixedDelayCoRoutine:00000000 $t
     /tmp/ccodCR4G.s:121    .text.prvFixedDelayCoRoutine:00000000 prvFixedDelayCoRoutine
     /tmp/ccodCR4G.s:222    .text.prvFixedDelayCoRoutine:00000080 $d
     /tmp/ccodCR4G.s:229    .text.vStartFlashCoRoutines:00000000 $t
     /tmp/ccodCR4G.s:234    .text.vStartFlashCoRoutines:00000000 vStartFlashCoRoutines
     /tmp/ccodCR4G.s:297    .text.vStartFlashCoRoutines:0000003c $d
     /tmp/ccodCR4G.s:304    .text.xAreFlashCoRoutinesStillRunning:00000000 $t
     /tmp/ccodCR4G.s:309    .text.xAreFlashCoRoutinesStillRunning:00000000 xAreFlashCoRoutinesStillRunning
     /tmp/ccodCR4G.s:323    .text.xAreFlashCoRoutinesStillRunning:00000008 $d
     /tmp/ccodCR4G.s:328    .bss.xFlashQueue:00000000 $d
     /tmp/ccodCR4G.s:332    .bss.xFlashQueue:00000000 xFlashQueue
     /tmp/ccodCR4G.s:335    .data.xCoRoutineFlashStatus:00000000 $d
     /tmp/ccodCR4G.s:339    .data.xCoRoutineFlashStatus:00000000 xCoRoutineFlashStatus
     /tmp/ccodCR4G.s:342    .rodata.xFlashRates.4367:00000000 $d
     /tmp/ccodCR4G.s:346    .rodata.xFlashRates.4367:00000000 xFlashRates.4367
                     .debug_frame:00000010 $d
                           .group:00000000 wm4.0.15bbada38f0fbd9e33c92bb3b56cb535
                           .group:00000000 wm4.stddef.h.39.c744ceb84abf2f8351653f0e2622da1c
                           .group:00000000 wm4.features.h.22.2e382148a0560adabf236cddd4e880f4
                           .group:00000000 wm4._default_types.h.15.933e8edd27a65e0b69af4a865eb623d2
                           .group:00000000 wm4._intsup.h.10.35a45952db64d30146faa63a55c20c1c
                           .group:00000000 wm4._stdint.h.10.f76354baea1c7088202064e6f3d4f5e3
                           .group:00000000 wm4.stdint.h.23.373a9d32a9e4c2e88fd347156532d281
                           .group:00000000 wm4.FreeRTOSConfig.h.71.cd6da78ae7d8769d658c28aafe88cca9
                           .group:00000000 wm4.projdefs.h.71.b3c50e668908413922aad758934ec914
                           .group:00000000 wm4.portmacro.h.72.e06018902f9ae50358ce9a175ecd983b
                           .group:00000000 wm4.portable.h.106.61ffdda1afafb5a5e1f7197ade95b43a
                           .group:00000000 wm4.mpu_wrappers.h.71.0cead7785e4b5fa8c4e0eba0dc579f11
                           .group:00000000 wm4.FreeRTOS.h.175.ac7a4fe760c4456f63e9dc2e5bf14760
                           .group:00000000 wm4.list.h.103.6a12b7b9a7a136c3cca0ee53675c5498
                           .group:00000000 wm4.croutine.h.246.9d5543f1c91c5e9bede3e818a7019f48
                           .group:00000000 wm4.queue.h.72.b79111e1f2901fd0fc4ec217c5b93342
                           .group:00000000 wm4.partest.h.71.08b625e05f7d6d6246be567dd0d4c869

UNDEFINED SYMBOLS
xQueueCRReceive
vParTestToggleLED
xQueueCRSend
vCoRoutineAddToDelayedList
xQueueGenericCreate
xCoRoutineCreate
