   1              		.syntax unified
   2              		.cpu cortex-m3
   3              		.fpu softvfp
   4              		.eabi_attribute 20, 1
   5              		.eabi_attribute 21, 1
   6              		.eabi_attribute 23, 3
   7              		.eabi_attribute 24, 1
   8              		.eabi_attribute 25, 1
   9              		.eabi_attribute 26, 1
  10              		.eabi_attribute 30, 1
  11              		.eabi_attribute 34, 1
  12              		.eabi_attribute 18, 4
  13              		.thumb
  14              		.file	"dynamic.c"
  15              		.text
  16              	.Ltext0:
  17              		.cfi_sections	.debug_frame
  18              		.section	.text.vQueueReceiveWhenSuspendedTask,"ax",%progbits
  19              		.align	2
  20              		.thumb
  21              		.thumb_func
  23              	vQueueReceiveWhenSuspendedTask:
  24              	.LFB6:
  25              		.file 1 "../Demo/Common/Minimal/dynamic.c"
   1:../Demo/Common/Minimal/dynamic.c **** /*
   2:../Demo/Common/Minimal/dynamic.c ****     FreeRTOS V8.2.3 - Copyright (C) 2015 Real Time Engineers Ltd.
   3:../Demo/Common/Minimal/dynamic.c ****     All rights reserved
   4:../Demo/Common/Minimal/dynamic.c **** 
   5:../Demo/Common/Minimal/dynamic.c ****     VISIT http://www.FreeRTOS.org TO ENSURE YOU ARE USING THE LATEST VERSION.
   6:../Demo/Common/Minimal/dynamic.c **** 
   7:../Demo/Common/Minimal/dynamic.c ****     This file is part of the FreeRTOS distribution.
   8:../Demo/Common/Minimal/dynamic.c **** 
   9:../Demo/Common/Minimal/dynamic.c ****     FreeRTOS is free software; you can redistribute it and/or modify it under
  10:../Demo/Common/Minimal/dynamic.c ****     the terms of the GNU General Public License (version 2) as published by the
  11:../Demo/Common/Minimal/dynamic.c ****     Free Software Foundation >>>> AND MODIFIED BY <<<< the FreeRTOS exception.
  12:../Demo/Common/Minimal/dynamic.c **** 
  13:../Demo/Common/Minimal/dynamic.c ****     ***************************************************************************
  14:../Demo/Common/Minimal/dynamic.c ****     >>!   NOTE: The modification to the GPL is included to allow you to     !<<
  15:../Demo/Common/Minimal/dynamic.c ****     >>!   distribute a combined work that includes FreeRTOS without being   !<<
  16:../Demo/Common/Minimal/dynamic.c ****     >>!   obliged to provide the source code for proprietary components     !<<
  17:../Demo/Common/Minimal/dynamic.c ****     >>!   outside of the FreeRTOS kernel.                                   !<<
  18:../Demo/Common/Minimal/dynamic.c ****     ***************************************************************************
  19:../Demo/Common/Minimal/dynamic.c **** 
  20:../Demo/Common/Minimal/dynamic.c ****     FreeRTOS is distributed in the hope that it will be useful, but WITHOUT ANY
  21:../Demo/Common/Minimal/dynamic.c ****     WARRANTY; without even the implied warranty of MERCHANTABILITY or FITNESS
  22:../Demo/Common/Minimal/dynamic.c ****     FOR A PARTICULAR PURPOSE.  Full license text is available on the following
  23:../Demo/Common/Minimal/dynamic.c ****     link: http://www.freertos.org/a00114.html
  24:../Demo/Common/Minimal/dynamic.c **** 
  25:../Demo/Common/Minimal/dynamic.c ****     ***************************************************************************
  26:../Demo/Common/Minimal/dynamic.c ****      *                                                                       *
  27:../Demo/Common/Minimal/dynamic.c ****      *    FreeRTOS provides completely free yet professionally developed,    *
  28:../Demo/Common/Minimal/dynamic.c ****      *    robust, strictly quality controlled, supported, and cross          *
  29:../Demo/Common/Minimal/dynamic.c ****      *    platform software that is more than just the market leader, it     *
  30:../Demo/Common/Minimal/dynamic.c ****      *    is the industry's de facto standard.                               *
  31:../Demo/Common/Minimal/dynamic.c ****      *                                                                       *
  32:../Demo/Common/Minimal/dynamic.c ****      *    Help yourself get started quickly while simultaneously helping     *
  33:../Demo/Common/Minimal/dynamic.c ****      *    to support the FreeRTOS project by purchasing a FreeRTOS           *
  34:../Demo/Common/Minimal/dynamic.c ****      *    tutorial book, reference manual, or both:                          *
  35:../Demo/Common/Minimal/dynamic.c ****      *    http://www.FreeRTOS.org/Documentation                              *
  36:../Demo/Common/Minimal/dynamic.c ****      *                                                                       *
  37:../Demo/Common/Minimal/dynamic.c ****     ***************************************************************************
  38:../Demo/Common/Minimal/dynamic.c **** 
  39:../Demo/Common/Minimal/dynamic.c ****     http://www.FreeRTOS.org/FAQHelp.html - Having a problem?  Start by reading
  40:../Demo/Common/Minimal/dynamic.c ****     the FAQ page "My application does not run, what could be wrong?".  Have you
  41:../Demo/Common/Minimal/dynamic.c ****     defined configASSERT()?
  42:../Demo/Common/Minimal/dynamic.c **** 
  43:../Demo/Common/Minimal/dynamic.c ****     http://www.FreeRTOS.org/support - In return for receiving this top quality
  44:../Demo/Common/Minimal/dynamic.c ****     embedded software for free we request you assist our global community by
  45:../Demo/Common/Minimal/dynamic.c ****     participating in the support forum.
  46:../Demo/Common/Minimal/dynamic.c **** 
  47:../Demo/Common/Minimal/dynamic.c ****     http://www.FreeRTOS.org/training - Investing in training allows your team to
  48:../Demo/Common/Minimal/dynamic.c ****     be as productive as possible as early as possible.  Now you can receive
  49:../Demo/Common/Minimal/dynamic.c ****     FreeRTOS training directly from Richard Barry, CEO of Real Time Engineers
  50:../Demo/Common/Minimal/dynamic.c ****     Ltd, and the world's leading authority on the world's leading RTOS.
  51:../Demo/Common/Minimal/dynamic.c **** 
  52:../Demo/Common/Minimal/dynamic.c ****     http://www.FreeRTOS.org/plus - A selection of FreeRTOS ecosystem products,
  53:../Demo/Common/Minimal/dynamic.c ****     including FreeRTOS+Trace - an indispensable productivity tool, a DOS
  54:../Demo/Common/Minimal/dynamic.c ****     compatible FAT file system, and our tiny thread aware UDP/IP stack.
  55:../Demo/Common/Minimal/dynamic.c **** 
  56:../Demo/Common/Minimal/dynamic.c ****     http://www.FreeRTOS.org/labs - Where new FreeRTOS products go to incubate.
  57:../Demo/Common/Minimal/dynamic.c ****     Come and try FreeRTOS+TCP, our new open source TCP/IP stack for FreeRTOS.
  58:../Demo/Common/Minimal/dynamic.c **** 
  59:../Demo/Common/Minimal/dynamic.c ****     http://www.OpenRTOS.com - Real Time Engineers ltd. license FreeRTOS to High
  60:../Demo/Common/Minimal/dynamic.c ****     Integrity Systems ltd. to sell under the OpenRTOS brand.  Low cost OpenRTOS
  61:../Demo/Common/Minimal/dynamic.c ****     licenses offer ticketed support, indemnification and commercial middleware.
  62:../Demo/Common/Minimal/dynamic.c **** 
  63:../Demo/Common/Minimal/dynamic.c ****     http://www.SafeRTOS.com - High Integrity Systems also provide a safety
  64:../Demo/Common/Minimal/dynamic.c ****     engineered and independently SIL3 certified version for use in safety and
  65:../Demo/Common/Minimal/dynamic.c ****     mission critical applications that require provable dependability.
  66:../Demo/Common/Minimal/dynamic.c **** 
  67:../Demo/Common/Minimal/dynamic.c ****     1 tab == 4 spaces!
  68:../Demo/Common/Minimal/dynamic.c **** */
  69:../Demo/Common/Minimal/dynamic.c **** 
  70:../Demo/Common/Minimal/dynamic.c **** /*
  71:../Demo/Common/Minimal/dynamic.c ****  * The first test creates three tasks - two counter tasks (one continuous count
  72:../Demo/Common/Minimal/dynamic.c ****  * and one limited count) and one controller.  A "count" variable is shared
  73:../Demo/Common/Minimal/dynamic.c ****  * between all three tasks.  The two counter tasks should never be in a "ready"
  74:../Demo/Common/Minimal/dynamic.c ****  * state at the same time.  The controller task runs at the same priority as
  75:../Demo/Common/Minimal/dynamic.c ****  * the continuous count task, and at a lower priority than the limited count
  76:../Demo/Common/Minimal/dynamic.c ****  * task.
  77:../Demo/Common/Minimal/dynamic.c ****  *
  78:../Demo/Common/Minimal/dynamic.c ****  * One counter task loops indefinitely, incrementing the shared count variable
  79:../Demo/Common/Minimal/dynamic.c ****  * on each iteration.  To ensure it has exclusive access to the variable it
  80:../Demo/Common/Minimal/dynamic.c ****  * raises its priority above that of the controller task before each
  81:../Demo/Common/Minimal/dynamic.c ****  * increment, lowering it again to its original priority before starting the
  82:../Demo/Common/Minimal/dynamic.c ****  * next iteration.
  83:../Demo/Common/Minimal/dynamic.c ****  *
  84:../Demo/Common/Minimal/dynamic.c ****  * The other counter task increments the shared count variable on each
  85:../Demo/Common/Minimal/dynamic.c ****  * iteration of its loop until the count has reached a limit of 0xff - at
  86:../Demo/Common/Minimal/dynamic.c ****  * which point it suspends itself.  It will not start a new loop until the
  87:../Demo/Common/Minimal/dynamic.c ****  * controller task has made it "ready" again by calling vTaskResume().
  88:../Demo/Common/Minimal/dynamic.c ****  * This second counter task operates at a higher priority than controller
  89:../Demo/Common/Minimal/dynamic.c ****  * task so does not need to worry about mutual exclusion of the counter
  90:../Demo/Common/Minimal/dynamic.c ****  * variable.
  91:../Demo/Common/Minimal/dynamic.c ****  *
  92:../Demo/Common/Minimal/dynamic.c ****  * The controller task is in two sections.  The first section controls and
  93:../Demo/Common/Minimal/dynamic.c ****  * monitors the continuous count task.  When this section is operational the
  94:../Demo/Common/Minimal/dynamic.c ****  * limited count task is suspended.  Likewise, the second section controls
  95:../Demo/Common/Minimal/dynamic.c ****  * and monitors the limited count task.  When this section is operational the
  96:../Demo/Common/Minimal/dynamic.c ****  * continuous count task is suspended.
  97:../Demo/Common/Minimal/dynamic.c ****  *
  98:../Demo/Common/Minimal/dynamic.c ****  * In the first section the controller task first takes a copy of the shared
  99:../Demo/Common/Minimal/dynamic.c ****  * count variable.  To ensure mutual exclusion on the count variable it
 100:../Demo/Common/Minimal/dynamic.c ****  * suspends the continuous count task, resuming it again when the copy has been
 101:../Demo/Common/Minimal/dynamic.c ****  * taken.  The controller task then sleeps for a fixed period - during which
 102:../Demo/Common/Minimal/dynamic.c ****  * the continuous count task will execute and increment the shared variable.
 103:../Demo/Common/Minimal/dynamic.c ****  * When the controller task wakes it checks that the continuous count task
 104:../Demo/Common/Minimal/dynamic.c ****  * has executed by comparing the copy of the shared variable with its current
 105:../Demo/Common/Minimal/dynamic.c ****  * value.  This time, to ensure mutual exclusion, the scheduler itself is
 106:../Demo/Common/Minimal/dynamic.c ****  * suspended with a call to vTaskSuspendAll ().  This is for demonstration
 107:../Demo/Common/Minimal/dynamic.c ****  * purposes only and is not a recommended technique due to its inefficiency.
 108:../Demo/Common/Minimal/dynamic.c ****  *
 109:../Demo/Common/Minimal/dynamic.c ****  * After a fixed number of iterations the controller task suspends the
 110:../Demo/Common/Minimal/dynamic.c ****  * continuous count task, and moves on to its second section.
 111:../Demo/Common/Minimal/dynamic.c ****  *
 112:../Demo/Common/Minimal/dynamic.c ****  * At the start of the second section the shared variable is cleared to zero.
 113:../Demo/Common/Minimal/dynamic.c ****  * The limited count task is then woken from its suspension by a call to
 114:../Demo/Common/Minimal/dynamic.c ****  * vTaskResume ().  As this counter task operates at a higher priority than
 115:../Demo/Common/Minimal/dynamic.c ****  * the controller task the controller task should not run again until the
 116:../Demo/Common/Minimal/dynamic.c ****  * shared variable has been counted up to the limited value causing the counter
 117:../Demo/Common/Minimal/dynamic.c ****  * task to suspend itself.  The next line after vTaskResume () is therefore
 118:../Demo/Common/Minimal/dynamic.c ****  * a check on the shared variable to ensure everything is as expected.
 119:../Demo/Common/Minimal/dynamic.c ****  *
 120:../Demo/Common/Minimal/dynamic.c ****  *
 121:../Demo/Common/Minimal/dynamic.c ****  * The second test consists of a couple of very simple tasks that post onto a
 122:../Demo/Common/Minimal/dynamic.c ****  * queue while the scheduler is suspended.  This test was added to test parts
 123:../Demo/Common/Minimal/dynamic.c ****  * of the scheduler not exercised by the first test.
 124:../Demo/Common/Minimal/dynamic.c ****  *
 125:../Demo/Common/Minimal/dynamic.c ****  */
 126:../Demo/Common/Minimal/dynamic.c **** 
 127:../Demo/Common/Minimal/dynamic.c **** #include <stdlib.h>
 128:../Demo/Common/Minimal/dynamic.c **** 
 129:../Demo/Common/Minimal/dynamic.c **** /* Scheduler include files. */
 130:../Demo/Common/Minimal/dynamic.c **** #include "FreeRTOS.h"
 131:../Demo/Common/Minimal/dynamic.c **** #include "task.h"
 132:../Demo/Common/Minimal/dynamic.c **** #include "semphr.h"
 133:../Demo/Common/Minimal/dynamic.c **** 
 134:../Demo/Common/Minimal/dynamic.c **** /* Demo app include files. */
 135:../Demo/Common/Minimal/dynamic.c **** #include "dynamic.h"
 136:../Demo/Common/Minimal/dynamic.c **** 
 137:../Demo/Common/Minimal/dynamic.c **** /* Function that implements the "limited count" task as described above. */
 138:../Demo/Common/Minimal/dynamic.c **** static portTASK_FUNCTION_PROTO( vLimitedIncrementTask, pvParameters );
 139:../Demo/Common/Minimal/dynamic.c **** 
 140:../Demo/Common/Minimal/dynamic.c **** /* Function that implements the "continuous count" task as described above. */
 141:../Demo/Common/Minimal/dynamic.c **** static portTASK_FUNCTION_PROTO( vContinuousIncrementTask, pvParameters );
 142:../Demo/Common/Minimal/dynamic.c **** 
 143:../Demo/Common/Minimal/dynamic.c **** /* Function that implements the controller task as described above. */
 144:../Demo/Common/Minimal/dynamic.c **** static portTASK_FUNCTION_PROTO( vCounterControlTask, pvParameters );
 145:../Demo/Common/Minimal/dynamic.c **** 
 146:../Demo/Common/Minimal/dynamic.c **** static portTASK_FUNCTION_PROTO( vQueueReceiveWhenSuspendedTask, pvParameters );
 147:../Demo/Common/Minimal/dynamic.c **** static portTASK_FUNCTION_PROTO( vQueueSendWhenSuspendedTask, pvParameters );
 148:../Demo/Common/Minimal/dynamic.c **** 
 149:../Demo/Common/Minimal/dynamic.c **** /* Demo task specific constants. */
 150:../Demo/Common/Minimal/dynamic.c **** #define priSTACK_SIZE				( configMINIMAL_STACK_SIZE )
 151:../Demo/Common/Minimal/dynamic.c **** #define priSLEEP_TIME				( ( TickType_t ) 128 / portTICK_PERIOD_MS )
 152:../Demo/Common/Minimal/dynamic.c **** #define priLOOPS					( 5 )
 153:../Demo/Common/Minimal/dynamic.c **** #define priMAX_COUNT				( ( uint32_t ) 0xff )
 154:../Demo/Common/Minimal/dynamic.c **** #define priNO_BLOCK					( ( TickType_t ) 0 )
 155:../Demo/Common/Minimal/dynamic.c **** #define priSUSPENDED_QUEUE_LENGTH	( 1 )
 156:../Demo/Common/Minimal/dynamic.c **** 
 157:../Demo/Common/Minimal/dynamic.c **** /*-----------------------------------------------------------*/
 158:../Demo/Common/Minimal/dynamic.c **** 
 159:../Demo/Common/Minimal/dynamic.c **** /* Handles to the two counter tasks.  These could be passed in as parameters
 160:../Demo/Common/Minimal/dynamic.c **** to the controller task to prevent them having to be file scope. */
 161:../Demo/Common/Minimal/dynamic.c **** static TaskHandle_t xContinuousIncrementHandle, xLimitedIncrementHandle;
 162:../Demo/Common/Minimal/dynamic.c **** 
 163:../Demo/Common/Minimal/dynamic.c **** /* The shared counter variable.  This is passed in as a parameter to the two
 164:../Demo/Common/Minimal/dynamic.c **** counter variables for demonstration purposes. */
 165:../Demo/Common/Minimal/dynamic.c **** static volatile uint32_t ulCounter;
 166:../Demo/Common/Minimal/dynamic.c **** 
 167:../Demo/Common/Minimal/dynamic.c **** /* Variables used to check that the tasks are still operating without error.
 168:../Demo/Common/Minimal/dynamic.c **** Each complete iteration of the controller task increments this variable
 169:../Demo/Common/Minimal/dynamic.c **** provided no errors have been found.  The variable maintaining the same value
 170:../Demo/Common/Minimal/dynamic.c **** is therefore indication of an error. */
 171:../Demo/Common/Minimal/dynamic.c **** static volatile uint16_t usCheckVariable = ( uint16_t ) 0;
 172:../Demo/Common/Minimal/dynamic.c **** static volatile BaseType_t xSuspendedQueueSendError = pdFALSE;
 173:../Demo/Common/Minimal/dynamic.c **** static volatile BaseType_t xSuspendedQueueReceiveError = pdFALSE;
 174:../Demo/Common/Minimal/dynamic.c **** 
 175:../Demo/Common/Minimal/dynamic.c **** /* Queue used by the second test. */
 176:../Demo/Common/Minimal/dynamic.c **** QueueHandle_t xSuspendedTestQueue;
 177:../Demo/Common/Minimal/dynamic.c **** 
 178:../Demo/Common/Minimal/dynamic.c **** /* The value the queue receive task expects to receive next.  This is file
 179:../Demo/Common/Minimal/dynamic.c **** scope so xAreDynamicPriorityTasksStillRunning() can ensure it is still
 180:../Demo/Common/Minimal/dynamic.c **** incrementing. */
 181:../Demo/Common/Minimal/dynamic.c **** static uint32_t ulExpectedValue = ( uint32_t ) 0;
 182:../Demo/Common/Minimal/dynamic.c **** 
 183:../Demo/Common/Minimal/dynamic.c **** /*-----------------------------------------------------------*/
 184:../Demo/Common/Minimal/dynamic.c **** /*
 185:../Demo/Common/Minimal/dynamic.c ****  * Start the three tasks as described at the top of the file.
 186:../Demo/Common/Minimal/dynamic.c ****  * Note that the limited count task is given a higher priority.
 187:../Demo/Common/Minimal/dynamic.c ****  */
 188:../Demo/Common/Minimal/dynamic.c **** void vStartDynamicPriorityTasks( void )
 189:../Demo/Common/Minimal/dynamic.c **** {
 190:../Demo/Common/Minimal/dynamic.c **** 	xSuspendedTestQueue = xQueueCreate( priSUSPENDED_QUEUE_LENGTH, sizeof( uint32_t ) );
 191:../Demo/Common/Minimal/dynamic.c **** 
 192:../Demo/Common/Minimal/dynamic.c **** 	/* vQueueAddToRegistry() adds the queue to the queue registry, if one is
 193:../Demo/Common/Minimal/dynamic.c **** 	in use.  The queue registry is provided as a means for kernel aware
 194:../Demo/Common/Minimal/dynamic.c **** 	debuggers to locate queues and has no purpose if a kernel aware debugger
 195:../Demo/Common/Minimal/dynamic.c **** 	is not being used.  The call to vQueueAddToRegistry() will be removed
 196:../Demo/Common/Minimal/dynamic.c **** 	by the pre-processor if configQUEUE_REGISTRY_SIZE is not defined or is
 197:../Demo/Common/Minimal/dynamic.c **** 	defined to be less than 1. */
 198:../Demo/Common/Minimal/dynamic.c **** 	vQueueAddToRegistry( xSuspendedTestQueue, "Suspended_Test_Queue" );
 199:../Demo/Common/Minimal/dynamic.c **** 
 200:../Demo/Common/Minimal/dynamic.c **** 	xTaskCreate( vContinuousIncrementTask, "CNT_INC", priSTACK_SIZE, ( void * ) &ulCounter, tskIDLE_PR
 201:../Demo/Common/Minimal/dynamic.c **** 	xTaskCreate( vLimitedIncrementTask, "LIM_INC", priSTACK_SIZE, ( void * ) &ulCounter, tskIDLE_PRIOR
 202:../Demo/Common/Minimal/dynamic.c **** 	xTaskCreate( vCounterControlTask, "C_CTRL", priSTACK_SIZE, NULL, tskIDLE_PRIORITY, NULL );
 203:../Demo/Common/Minimal/dynamic.c **** 	xTaskCreate( vQueueSendWhenSuspendedTask, "SUSP_TX", priSTACK_SIZE, NULL, tskIDLE_PRIORITY, NULL )
 204:../Demo/Common/Minimal/dynamic.c **** 	xTaskCreate( vQueueReceiveWhenSuspendedTask, "SUSP_RX", priSTACK_SIZE, NULL, tskIDLE_PRIORITY, NUL
 205:../Demo/Common/Minimal/dynamic.c **** }
 206:../Demo/Common/Minimal/dynamic.c **** /*-----------------------------------------------------------*/
 207:../Demo/Common/Minimal/dynamic.c **** 
 208:../Demo/Common/Minimal/dynamic.c **** /*
 209:../Demo/Common/Minimal/dynamic.c ****  * Just loops around incrementing the shared variable until the limit has been
 210:../Demo/Common/Minimal/dynamic.c ****  * reached.  Once the limit has been reached it suspends itself.
 211:../Demo/Common/Minimal/dynamic.c ****  */
 212:../Demo/Common/Minimal/dynamic.c **** static portTASK_FUNCTION( vLimitedIncrementTask, pvParameters )
 213:../Demo/Common/Minimal/dynamic.c **** {
 214:../Demo/Common/Minimal/dynamic.c **** uint32_t *pulCounter;
 215:../Demo/Common/Minimal/dynamic.c **** 
 216:../Demo/Common/Minimal/dynamic.c **** 	/* Take a pointer to the shared variable from the parameters passed into
 217:../Demo/Common/Minimal/dynamic.c **** 	the task. */
 218:../Demo/Common/Minimal/dynamic.c **** 	pulCounter = ( uint32_t * ) pvParameters;
 219:../Demo/Common/Minimal/dynamic.c **** 
 220:../Demo/Common/Minimal/dynamic.c **** 	/* This will run before the control task, so the first thing it does is
 221:../Demo/Common/Minimal/dynamic.c **** 	suspend - the control task will resume it when ready. */
 222:../Demo/Common/Minimal/dynamic.c **** 	vTaskSuspend( NULL );
 223:../Demo/Common/Minimal/dynamic.c **** 
 224:../Demo/Common/Minimal/dynamic.c **** 	for( ;; )
 225:../Demo/Common/Minimal/dynamic.c **** 	{
 226:../Demo/Common/Minimal/dynamic.c **** 		/* Just count up to a value then suspend. */
 227:../Demo/Common/Minimal/dynamic.c **** 		( *pulCounter )++;
 228:../Demo/Common/Minimal/dynamic.c **** 
 229:../Demo/Common/Minimal/dynamic.c **** 		if( *pulCounter >= priMAX_COUNT )
 230:../Demo/Common/Minimal/dynamic.c **** 		{
 231:../Demo/Common/Minimal/dynamic.c **** 			vTaskSuspend( NULL );
 232:../Demo/Common/Minimal/dynamic.c **** 		}
 233:../Demo/Common/Minimal/dynamic.c **** 	}
 234:../Demo/Common/Minimal/dynamic.c **** }
 235:../Demo/Common/Minimal/dynamic.c **** /*-----------------------------------------------------------*/
 236:../Demo/Common/Minimal/dynamic.c **** 
 237:../Demo/Common/Minimal/dynamic.c **** /*
 238:../Demo/Common/Minimal/dynamic.c ****  * Just keep counting the shared variable up.  The control task will suspend
 239:../Demo/Common/Minimal/dynamic.c ****  * this task when it wants.
 240:../Demo/Common/Minimal/dynamic.c ****  */
 241:../Demo/Common/Minimal/dynamic.c **** static portTASK_FUNCTION( vContinuousIncrementTask, pvParameters )
 242:../Demo/Common/Minimal/dynamic.c **** {
 243:../Demo/Common/Minimal/dynamic.c **** volatile uint32_t *pulCounter;
 244:../Demo/Common/Minimal/dynamic.c **** UBaseType_t uxOurPriority;
 245:../Demo/Common/Minimal/dynamic.c **** 
 246:../Demo/Common/Minimal/dynamic.c **** 	/* Take a pointer to the shared variable from the parameters passed into
 247:../Demo/Common/Minimal/dynamic.c **** 	the task. */
 248:../Demo/Common/Minimal/dynamic.c **** 	pulCounter = ( uint32_t * ) pvParameters;
 249:../Demo/Common/Minimal/dynamic.c **** 
 250:../Demo/Common/Minimal/dynamic.c **** 	/* Query our priority so we can raise it when exclusive access to the
 251:../Demo/Common/Minimal/dynamic.c **** 	shared variable is required. */
 252:../Demo/Common/Minimal/dynamic.c **** 	uxOurPriority = uxTaskPriorityGet( NULL );
 253:../Demo/Common/Minimal/dynamic.c **** 
 254:../Demo/Common/Minimal/dynamic.c **** 	for( ;; )
 255:../Demo/Common/Minimal/dynamic.c **** 	{
 256:../Demo/Common/Minimal/dynamic.c **** 		/* Raise the priority above the controller task to ensure a context
 257:../Demo/Common/Minimal/dynamic.c **** 		switch does not occur while the variable is being accessed. */
 258:../Demo/Common/Minimal/dynamic.c **** 		vTaskPrioritySet( NULL, uxOurPriority + 1 );
 259:../Demo/Common/Minimal/dynamic.c **** 		{
 260:../Demo/Common/Minimal/dynamic.c **** 			configASSERT( ( uxTaskPriorityGet( NULL ) == ( uxOurPriority + 1 ) ) );
 261:../Demo/Common/Minimal/dynamic.c **** 			( *pulCounter )++;
 262:../Demo/Common/Minimal/dynamic.c **** 		}
 263:../Demo/Common/Minimal/dynamic.c **** 		vTaskPrioritySet( NULL, uxOurPriority );
 264:../Demo/Common/Minimal/dynamic.c **** 
 265:../Demo/Common/Minimal/dynamic.c **** 		#if( configUSE_PREEMPTION == 0 )
 266:../Demo/Common/Minimal/dynamic.c **** 			taskYIELD();
 267:../Demo/Common/Minimal/dynamic.c **** 		#endif
 268:../Demo/Common/Minimal/dynamic.c **** 
 269:../Demo/Common/Minimal/dynamic.c **** 		configASSERT( ( uxTaskPriorityGet( NULL ) == uxOurPriority ) );
 270:../Demo/Common/Minimal/dynamic.c **** 	}
 271:../Demo/Common/Minimal/dynamic.c **** }
 272:../Demo/Common/Minimal/dynamic.c **** /*-----------------------------------------------------------*/
 273:../Demo/Common/Minimal/dynamic.c **** 
 274:../Demo/Common/Minimal/dynamic.c **** /*
 275:../Demo/Common/Minimal/dynamic.c ****  * Controller task as described above.
 276:../Demo/Common/Minimal/dynamic.c ****  */
 277:../Demo/Common/Minimal/dynamic.c **** static portTASK_FUNCTION( vCounterControlTask, pvParameters )
 278:../Demo/Common/Minimal/dynamic.c **** {
 279:../Demo/Common/Minimal/dynamic.c **** uint32_t ulLastCounter;
 280:../Demo/Common/Minimal/dynamic.c **** short sLoops;
 281:../Demo/Common/Minimal/dynamic.c **** short sError = pdFALSE;
 282:../Demo/Common/Minimal/dynamic.c **** 
 283:../Demo/Common/Minimal/dynamic.c **** 	/* Just to stop warning messages. */
 284:../Demo/Common/Minimal/dynamic.c **** 	( void ) pvParameters;
 285:../Demo/Common/Minimal/dynamic.c **** 
 286:../Demo/Common/Minimal/dynamic.c **** 	for( ;; )
 287:../Demo/Common/Minimal/dynamic.c **** 	{
 288:../Demo/Common/Minimal/dynamic.c **** 		/* Start with the counter at zero. */
 289:../Demo/Common/Minimal/dynamic.c **** 		ulCounter = ( uint32_t ) 0;
 290:../Demo/Common/Minimal/dynamic.c **** 
 291:../Demo/Common/Minimal/dynamic.c **** 		/* First section : */
 292:../Demo/Common/Minimal/dynamic.c **** 
 293:../Demo/Common/Minimal/dynamic.c **** 		/* Check the continuous count task is running. */
 294:../Demo/Common/Minimal/dynamic.c **** 		for( sLoops = 0; sLoops < priLOOPS; sLoops++ )
 295:../Demo/Common/Minimal/dynamic.c **** 		{
 296:../Demo/Common/Minimal/dynamic.c **** 			/* Suspend the continuous count task so we can take a mirror of the
 297:../Demo/Common/Minimal/dynamic.c **** 			shared variable without risk of corruption.  This is not really
 298:../Demo/Common/Minimal/dynamic.c **** 			needed as the other task raises its priority above this task's
 299:../Demo/Common/Minimal/dynamic.c **** 			priority. */
 300:../Demo/Common/Minimal/dynamic.c **** 			vTaskSuspend( xContinuousIncrementHandle );
 301:../Demo/Common/Minimal/dynamic.c **** 			{
 302:../Demo/Common/Minimal/dynamic.c **** 				#if( INCLUDE_eTaskGetState == 1 )
 303:../Demo/Common/Minimal/dynamic.c **** 				{
 304:../Demo/Common/Minimal/dynamic.c **** 					configASSERT( eTaskGetState( xContinuousIncrementHandle ) == eSuspended );
 305:../Demo/Common/Minimal/dynamic.c **** 				}
 306:../Demo/Common/Minimal/dynamic.c **** 				#endif /* INCLUDE_eTaskGetState */
 307:../Demo/Common/Minimal/dynamic.c **** 
 308:../Demo/Common/Minimal/dynamic.c **** 				ulLastCounter = ulCounter;
 309:../Demo/Common/Minimal/dynamic.c **** 			}
 310:../Demo/Common/Minimal/dynamic.c **** 			vTaskResume( xContinuousIncrementHandle );
 311:../Demo/Common/Minimal/dynamic.c **** 
 312:../Demo/Common/Minimal/dynamic.c **** 			#if( configUSE_PREEMPTION == 0 )
 313:../Demo/Common/Minimal/dynamic.c **** 				taskYIELD();
 314:../Demo/Common/Minimal/dynamic.c **** 			#endif
 315:../Demo/Common/Minimal/dynamic.c **** 
 316:../Demo/Common/Minimal/dynamic.c **** 			#if( INCLUDE_eTaskGetState == 1 )
 317:../Demo/Common/Minimal/dynamic.c **** 			{
 318:../Demo/Common/Minimal/dynamic.c **** 				configASSERT( eTaskGetState( xContinuousIncrementHandle ) == eReady );
 319:../Demo/Common/Minimal/dynamic.c **** 			}
 320:../Demo/Common/Minimal/dynamic.c **** 			#endif /* INCLUDE_eTaskGetState */
 321:../Demo/Common/Minimal/dynamic.c **** 
 322:../Demo/Common/Minimal/dynamic.c **** 			/* Now delay to ensure the other task has processor time. */
 323:../Demo/Common/Minimal/dynamic.c **** 			vTaskDelay( priSLEEP_TIME );
 324:../Demo/Common/Minimal/dynamic.c **** 
 325:../Demo/Common/Minimal/dynamic.c **** 			/* Check the shared variable again.  This time to ensure mutual
 326:../Demo/Common/Minimal/dynamic.c **** 			exclusion the whole scheduler will be locked.  This is just for
 327:../Demo/Common/Minimal/dynamic.c **** 			demo purposes! */
 328:../Demo/Common/Minimal/dynamic.c **** 			vTaskSuspendAll();
 329:../Demo/Common/Minimal/dynamic.c **** 			{
 330:../Demo/Common/Minimal/dynamic.c **** 				if( ulLastCounter == ulCounter )
 331:../Demo/Common/Minimal/dynamic.c **** 				{
 332:../Demo/Common/Minimal/dynamic.c **** 					/* The shared variable has not changed.  There is a problem
 333:../Demo/Common/Minimal/dynamic.c **** 					with the continuous count task so flag an error. */
 334:../Demo/Common/Minimal/dynamic.c **** 					sError = pdTRUE;
 335:../Demo/Common/Minimal/dynamic.c **** 				}
 336:../Demo/Common/Minimal/dynamic.c **** 			}
 337:../Demo/Common/Minimal/dynamic.c **** 			xTaskResumeAll();
 338:../Demo/Common/Minimal/dynamic.c **** 		}
 339:../Demo/Common/Minimal/dynamic.c **** 
 340:../Demo/Common/Minimal/dynamic.c **** 		/* Second section: */
 341:../Demo/Common/Minimal/dynamic.c **** 
 342:../Demo/Common/Minimal/dynamic.c **** 		/* Suspend the continuous counter task so it stops accessing the shared
 343:../Demo/Common/Minimal/dynamic.c **** 		variable. */
 344:../Demo/Common/Minimal/dynamic.c **** 		vTaskSuspend( xContinuousIncrementHandle );
 345:../Demo/Common/Minimal/dynamic.c **** 
 346:../Demo/Common/Minimal/dynamic.c **** 		/* Reset the variable. */
 347:../Demo/Common/Minimal/dynamic.c **** 		ulCounter = ( uint32_t ) 0;
 348:../Demo/Common/Minimal/dynamic.c **** 
 349:../Demo/Common/Minimal/dynamic.c **** 		#if( INCLUDE_eTaskGetState == 1 )
 350:../Demo/Common/Minimal/dynamic.c **** 		{
 351:../Demo/Common/Minimal/dynamic.c **** 			configASSERT( eTaskGetState( xLimitedIncrementHandle ) == eSuspended );
 352:../Demo/Common/Minimal/dynamic.c **** 		}
 353:../Demo/Common/Minimal/dynamic.c **** 		#endif /* INCLUDE_eTaskGetState */
 354:../Demo/Common/Minimal/dynamic.c **** 
 355:../Demo/Common/Minimal/dynamic.c **** 		/* Resume the limited count task which has a higher priority than us.
 356:../Demo/Common/Minimal/dynamic.c **** 		We should therefore not return from this call until the limited count
 357:../Demo/Common/Minimal/dynamic.c **** 		task has suspended itself with a known value in the counter variable. */
 358:../Demo/Common/Minimal/dynamic.c **** 		vTaskResume( xLimitedIncrementHandle );
 359:../Demo/Common/Minimal/dynamic.c **** 
 360:../Demo/Common/Minimal/dynamic.c **** 		#if( configUSE_PREEMPTION == 0 )
 361:../Demo/Common/Minimal/dynamic.c **** 			taskYIELD();
 362:../Demo/Common/Minimal/dynamic.c **** 		#endif
 363:../Demo/Common/Minimal/dynamic.c **** 
 364:../Demo/Common/Minimal/dynamic.c **** 		/* This task should not run again until xLimitedIncrementHandle has
 365:../Demo/Common/Minimal/dynamic.c **** 		suspended itself. */
 366:../Demo/Common/Minimal/dynamic.c **** 		#if( INCLUDE_eTaskGetState == 1 )
 367:../Demo/Common/Minimal/dynamic.c **** 		{
 368:../Demo/Common/Minimal/dynamic.c **** 			configASSERT( eTaskGetState( xLimitedIncrementHandle ) == eSuspended );
 369:../Demo/Common/Minimal/dynamic.c **** 		}
 370:../Demo/Common/Minimal/dynamic.c **** 		#endif /* INCLUDE_eTaskGetState */
 371:../Demo/Common/Minimal/dynamic.c **** 
 372:../Demo/Common/Minimal/dynamic.c **** 		/* Does the counter variable have the expected value? */
 373:../Demo/Common/Minimal/dynamic.c **** 		if( ulCounter != priMAX_COUNT )
 374:../Demo/Common/Minimal/dynamic.c **** 		{
 375:../Demo/Common/Minimal/dynamic.c **** 			sError = pdTRUE;
 376:../Demo/Common/Minimal/dynamic.c **** 		}
 377:../Demo/Common/Minimal/dynamic.c **** 
 378:../Demo/Common/Minimal/dynamic.c **** 		if( sError == pdFALSE )
 379:../Demo/Common/Minimal/dynamic.c **** 		{
 380:../Demo/Common/Minimal/dynamic.c **** 			/* If no errors have occurred then increment the check variable. */
 381:../Demo/Common/Minimal/dynamic.c **** 			portENTER_CRITICAL();
 382:../Demo/Common/Minimal/dynamic.c **** 				usCheckVariable++;
 383:../Demo/Common/Minimal/dynamic.c **** 			portEXIT_CRITICAL();
 384:../Demo/Common/Minimal/dynamic.c **** 		}
 385:../Demo/Common/Minimal/dynamic.c **** 
 386:../Demo/Common/Minimal/dynamic.c **** 		/* Resume the continuous count task and do it all again. */
 387:../Demo/Common/Minimal/dynamic.c **** 		vTaskResume( xContinuousIncrementHandle );
 388:../Demo/Common/Minimal/dynamic.c **** 
 389:../Demo/Common/Minimal/dynamic.c **** 		#if( configUSE_PREEMPTION == 0 )
 390:../Demo/Common/Minimal/dynamic.c **** 			taskYIELD();
 391:../Demo/Common/Minimal/dynamic.c **** 		#endif
 392:../Demo/Common/Minimal/dynamic.c **** 	}
 393:../Demo/Common/Minimal/dynamic.c **** }
 394:../Demo/Common/Minimal/dynamic.c **** /*-----------------------------------------------------------*/
 395:../Demo/Common/Minimal/dynamic.c **** 
 396:../Demo/Common/Minimal/dynamic.c **** static portTASK_FUNCTION( vQueueSendWhenSuspendedTask, pvParameters )
 397:../Demo/Common/Minimal/dynamic.c **** {
 398:../Demo/Common/Minimal/dynamic.c **** static uint32_t ulValueToSend = ( uint32_t ) 0;
 399:../Demo/Common/Minimal/dynamic.c **** 
 400:../Demo/Common/Minimal/dynamic.c **** 	/* Just to stop warning messages. */
 401:../Demo/Common/Minimal/dynamic.c **** 	( void ) pvParameters;
 402:../Demo/Common/Minimal/dynamic.c **** 
 403:../Demo/Common/Minimal/dynamic.c **** 	for( ;; )
 404:../Demo/Common/Minimal/dynamic.c **** 	{
 405:../Demo/Common/Minimal/dynamic.c **** 		vTaskSuspendAll();
 406:../Demo/Common/Minimal/dynamic.c **** 		{
 407:../Demo/Common/Minimal/dynamic.c **** 			/* We must not block while the scheduler is suspended! */
 408:../Demo/Common/Minimal/dynamic.c **** 			if( xQueueSend( xSuspendedTestQueue, ( void * ) &ulValueToSend, priNO_BLOCK ) != pdTRUE )
 409:../Demo/Common/Minimal/dynamic.c **** 			{
 410:../Demo/Common/Minimal/dynamic.c **** 				xSuspendedQueueSendError = pdTRUE;
 411:../Demo/Common/Minimal/dynamic.c **** 			}
 412:../Demo/Common/Minimal/dynamic.c **** 		}
 413:../Demo/Common/Minimal/dynamic.c **** 		xTaskResumeAll();
 414:../Demo/Common/Minimal/dynamic.c **** 
 415:../Demo/Common/Minimal/dynamic.c **** 		vTaskDelay( priSLEEP_TIME );
 416:../Demo/Common/Minimal/dynamic.c **** 
 417:../Demo/Common/Minimal/dynamic.c **** 		++ulValueToSend;
 418:../Demo/Common/Minimal/dynamic.c **** 	}
 419:../Demo/Common/Minimal/dynamic.c **** }
 420:../Demo/Common/Minimal/dynamic.c **** /*-----------------------------------------------------------*/
 421:../Demo/Common/Minimal/dynamic.c **** 
 422:../Demo/Common/Minimal/dynamic.c **** static portTASK_FUNCTION( vQueueReceiveWhenSuspendedTask, pvParameters )
 423:../Demo/Common/Minimal/dynamic.c **** {
  26              		.loc 1 423 0
  27              		.cfi_startproc
  28              		@ args = 0, pretend = 0, frame = 8
  29              		@ frame_needed = 0, uses_anonymous_args = 0
  30              	.LVL0:
  31 0000 10B5     		push	{r4, lr}
  32              		.cfi_def_cfa_offset 8
  33              		.cfi_offset 4, -8
  34              		.cfi_offset 14, -4
  35 0002 82B0     		sub	sp, sp, #8
  36              		.cfi_def_cfa_offset 16
  37              	.LVL1:
  38              	.L3:
 424:../Demo/Common/Minimal/dynamic.c **** uint32_t ulReceivedValue;
 425:../Demo/Common/Minimal/dynamic.c **** BaseType_t xGotValue;
 426:../Demo/Common/Minimal/dynamic.c **** 
 427:../Demo/Common/Minimal/dynamic.c **** 	/* Just to stop warning messages. */
 428:../Demo/Common/Minimal/dynamic.c **** 	( void ) pvParameters;
 429:../Demo/Common/Minimal/dynamic.c **** 
 430:../Demo/Common/Minimal/dynamic.c **** 	for( ;; )
 431:../Demo/Common/Minimal/dynamic.c **** 	{
 432:../Demo/Common/Minimal/dynamic.c **** 		do
 433:../Demo/Common/Minimal/dynamic.c **** 		{
 434:../Demo/Common/Minimal/dynamic.c **** 			/* Suspending the scheduler here is fairly pointless and
 435:../Demo/Common/Minimal/dynamic.c **** 			undesirable for a normal application.  It is done here purely
 436:../Demo/Common/Minimal/dynamic.c **** 			to test the scheduler.  The inner xTaskResumeAll() should
 437:../Demo/Common/Minimal/dynamic.c **** 			never return pdTRUE as the scheduler is still locked by the
 438:../Demo/Common/Minimal/dynamic.c **** 			outer call. */
 439:../Demo/Common/Minimal/dynamic.c **** 			vTaskSuspendAll();
  39              		.loc 1 439 0
  40 0004 FFF7FEFF 		bl	vTaskSuspendAll
  41              	.LVL2:
 440:../Demo/Common/Minimal/dynamic.c **** 			{
 441:../Demo/Common/Minimal/dynamic.c **** 				vTaskSuspendAll();
  42              		.loc 1 441 0
  43 0008 FFF7FEFF 		bl	vTaskSuspendAll
  44              	.LVL3:
 442:../Demo/Common/Minimal/dynamic.c **** 				{
 443:../Demo/Common/Minimal/dynamic.c **** 					xGotValue = xQueueReceive( xSuspendedTestQueue, ( void * ) &ulReceivedValue, priNO_BLOCK );
  45              		.loc 1 443 0
  46 000c 104B     		ldr	r3, .L8
  47 000e 1868     		ldr	r0, [r3]
  48 0010 01A9     		add	r1, sp, #4
  49 0012 0022     		movs	r2, #0
  50 0014 1346     		mov	r3, r2
  51 0016 FFF7FEFF 		bl	xQueueGenericReceive
  52              	.LVL4:
  53 001a 0446     		mov	r4, r0
  54              	.LVL5:
 444:../Demo/Common/Minimal/dynamic.c **** 				}
 445:../Demo/Common/Minimal/dynamic.c **** 				if( xTaskResumeAll() != pdFALSE )
  55              		.loc 1 445 0
  56 001c FFF7FEFF 		bl	xTaskResumeAll
  57              	.LVL6:
  58 0020 10B1     		cbz	r0, .L2
 446:../Demo/Common/Minimal/dynamic.c **** 				{
 447:../Demo/Common/Minimal/dynamic.c **** 					xSuspendedQueueReceiveError = pdTRUE;
  59              		.loc 1 447 0
  60 0022 0122     		movs	r2, #1
  61 0024 0B4B     		ldr	r3, .L8+4
  62 0026 1A60     		str	r2, [r3]
  63              	.L2:
 448:../Demo/Common/Minimal/dynamic.c **** 				}
 449:../Demo/Common/Minimal/dynamic.c **** 			}
 450:../Demo/Common/Minimal/dynamic.c **** 			xTaskResumeAll();
  64              		.loc 1 450 0
  65 0028 FFF7FEFF 		bl	xTaskResumeAll
  66              	.LVL7:
 451:../Demo/Common/Minimal/dynamic.c **** 
 452:../Demo/Common/Minimal/dynamic.c **** 			#if configUSE_PREEMPTION == 0
 453:../Demo/Common/Minimal/dynamic.c **** 			{
 454:../Demo/Common/Minimal/dynamic.c **** 				taskYIELD();
 455:../Demo/Common/Minimal/dynamic.c **** 			}
 456:../Demo/Common/Minimal/dynamic.c **** 			#endif
 457:../Demo/Common/Minimal/dynamic.c **** 
 458:../Demo/Common/Minimal/dynamic.c **** 		} while( xGotValue == pdFALSE );
  67              		.loc 1 458 0
  68 002c 002C     		cmp	r4, #0
  69 002e E9D0     		beq	.L3
 459:../Demo/Common/Minimal/dynamic.c **** 
 460:../Demo/Common/Minimal/dynamic.c **** 		if( ulReceivedValue != ulExpectedValue )
  70              		.loc 1 460 0
  71 0030 094B     		ldr	r3, .L8+8
  72 0032 1B68     		ldr	r3, [r3]
  73 0034 019A     		ldr	r2, [sp, #4]
  74 0036 9A42     		cmp	r2, r3
  75 0038 02D0     		beq	.L4
 461:../Demo/Common/Minimal/dynamic.c **** 		{
 462:../Demo/Common/Minimal/dynamic.c **** 			xSuspendedQueueReceiveError = pdTRUE;
  76              		.loc 1 462 0
  77 003a 0121     		movs	r1, #1
  78 003c 054A     		ldr	r2, .L8+4
  79 003e 1160     		str	r1, [r2]
  80              	.L4:
 463:../Demo/Common/Minimal/dynamic.c **** 		}
 464:../Demo/Common/Minimal/dynamic.c **** 
 465:../Demo/Common/Minimal/dynamic.c **** 		if( xSuspendedQueueReceiveError != pdTRUE )
  81              		.loc 1 465 0
  82 0040 044A     		ldr	r2, .L8+4
  83 0042 1268     		ldr	r2, [r2]
  84 0044 012A     		cmp	r2, #1
  85 0046 DDD0     		beq	.L3
 466:../Demo/Common/Minimal/dynamic.c **** 		{
 467:../Demo/Common/Minimal/dynamic.c **** 			/* Only increment the variable if an error has not occurred.  This
 468:../Demo/Common/Minimal/dynamic.c **** 			allows xAreDynamicPriorityTasksStillRunning() to check for stalled
 469:../Demo/Common/Minimal/dynamic.c **** 			tasks as well as explicit errors. */
 470:../Demo/Common/Minimal/dynamic.c **** 			++ulExpectedValue;
  86              		.loc 1 470 0
  87 0048 0133     		adds	r3, r3, #1
  88 004a 034A     		ldr	r2, .L8+8
  89 004c 1360     		str	r3, [r2]
  90 004e D9E7     		b	.L3
  91              	.L9:
  92              		.align	2
  93              	.L8:
  94 0050 00000000 		.word	xSuspendedTestQueue
  95 0054 00000000 		.word	.LANCHOR0
  96 0058 00000000 		.word	.LANCHOR1
  97              		.cfi_endproc
  98              	.LFE6:
 100              		.section	.text.vQueueSendWhenSuspendedTask,"ax",%progbits
 101              		.align	2
 102              		.thumb
 103              		.thumb_func
 105              	vQueueSendWhenSuspendedTask:
 106              	.LFB5:
 397:../Demo/Common/Minimal/dynamic.c **** static uint32_t ulValueToSend = ( uint32_t ) 0;
 107              		.loc 1 397 0
 108              		.cfi_startproc
 109              		@ Volatile: function does not return.
 110              		@ args = 0, pretend = 0, frame = 0
 111              		@ frame_needed = 0, uses_anonymous_args = 0
 112              	.LVL8:
 113 0000 08B5     		push	{r3, lr}
 114              		.cfi_def_cfa_offset 8
 115              		.cfi_offset 3, -8
 116              		.cfi_offset 14, -4
 117              	.LVL9:
 118              	.L12:
 405:../Demo/Common/Minimal/dynamic.c **** 		{
 119              		.loc 1 405 0
 120 0002 FFF7FEFF 		bl	vTaskSuspendAll
 121              	.LVL10:
 408:../Demo/Common/Minimal/dynamic.c **** 			{
 122              		.loc 1 408 0
 123 0006 0B4B     		ldr	r3, .L14
 124 0008 1868     		ldr	r0, [r3]
 125 000a 0B49     		ldr	r1, .L14+4
 126 000c 0022     		movs	r2, #0
 127 000e 1346     		mov	r3, r2
 128 0010 FFF7FEFF 		bl	xQueueGenericSend
 129              	.LVL11:
 130 0014 0128     		cmp	r0, #1
 131 0016 02D0     		beq	.L11
 410:../Demo/Common/Minimal/dynamic.c **** 			}
 132              		.loc 1 410 0
 133 0018 0122     		movs	r2, #1
 134 001a 084B     		ldr	r3, .L14+8
 135 001c 1A60     		str	r2, [r3]
 136              	.L11:
 413:../Demo/Common/Minimal/dynamic.c **** 
 137              		.loc 1 413 0
 138 001e FFF7FEFF 		bl	xTaskResumeAll
 139              	.LVL12:
 415:../Demo/Common/Minimal/dynamic.c **** 
 140              		.loc 1 415 0
 141 0022 8020     		movs	r0, #128
 142 0024 FFF7FEFF 		bl	vTaskDelay
 143              	.LVL13:
 417:../Demo/Common/Minimal/dynamic.c **** 	}
 144              		.loc 1 417 0
 145 0028 034A     		ldr	r2, .L14+4
 146 002a 1368     		ldr	r3, [r2]
 147 002c 0133     		adds	r3, r3, #1
 148 002e 1360     		str	r3, [r2]
 418:../Demo/Common/Minimal/dynamic.c **** }
 149              		.loc 1 418 0
 150 0030 E7E7     		b	.L12
 151              	.L15:
 152 0032 00BF     		.align	2
 153              	.L14:
 154 0034 00000000 		.word	xSuspendedTestQueue
 155 0038 00000000 		.word	.LANCHOR2
 156 003c 00000000 		.word	.LANCHOR3
 157              		.cfi_endproc
 158              	.LFE5:
 160              		.section	.text.vLimitedIncrementTask,"ax",%progbits
 161              		.align	2
 162              		.thumb
 163              		.thumb_func
 165              	vLimitedIncrementTask:
 166              	.LFB2:
 213:../Demo/Common/Minimal/dynamic.c **** uint32_t *pulCounter;
 167              		.loc 1 213 0
 168              		.cfi_startproc
 169              		@ args = 0, pretend = 0, frame = 0
 170              		@ frame_needed = 0, uses_anonymous_args = 0
 171              	.LVL14:
 172 0000 10B5     		push	{r4, lr}
 173              		.cfi_def_cfa_offset 8
 174              		.cfi_offset 4, -8
 175              		.cfi_offset 14, -4
 176 0002 0446     		mov	r4, r0
 177              	.LVL15:
 222:../Demo/Common/Minimal/dynamic.c **** 
 178              		.loc 1 222 0
 179 0004 0020     		movs	r0, #0
 180              	.LVL16:
 181 0006 FFF7FEFF 		bl	vTaskSuspend
 182              	.LVL17:
 183              	.L17:
 227:../Demo/Common/Minimal/dynamic.c **** 
 184              		.loc 1 227 0
 185 000a 2368     		ldr	r3, [r4]
 186 000c 0133     		adds	r3, r3, #1
 187 000e 2360     		str	r3, [r4]
 229:../Demo/Common/Minimal/dynamic.c **** 		{
 188              		.loc 1 229 0
 189 0010 FE2B     		cmp	r3, #254
 190 0012 FAD9     		bls	.L17
 231:../Demo/Common/Minimal/dynamic.c **** 		}
 191              		.loc 1 231 0
 192 0014 0020     		movs	r0, #0
 193 0016 FFF7FEFF 		bl	vTaskSuspend
 194              	.LVL18:
 195 001a F6E7     		b	.L17
 196              		.cfi_endproc
 197              	.LFE2:
 199              		.section	.text.vCounterControlTask,"ax",%progbits
 200              		.align	2
 201              		.thumb
 202              		.thumb_func
 204              	vCounterControlTask:
 205              	.LFB4:
 278:../Demo/Common/Minimal/dynamic.c **** uint32_t ulLastCounter;
 206              		.loc 1 278 0
 207              		.cfi_startproc
 208              		@ args = 0, pretend = 0, frame = 0
 209              		@ frame_needed = 0, uses_anonymous_args = 0
 210              	.LVL19:
 211 0000 2DE9F041 		push	{r4, r5, r6, r7, r8, lr}
 212              		.cfi_def_cfa_offset 24
 213              		.cfi_offset 4, -24
 214              		.cfi_offset 5, -20
 215              		.cfi_offset 6, -16
 216              		.cfi_offset 7, -12
 217              		.cfi_offset 8, -8
 218              		.cfi_offset 14, -4
 219              	.LVL20:
 281:../Demo/Common/Minimal/dynamic.c **** 
 220              		.loc 1 281 0
 221 0004 0027     		movs	r7, #0
 222              	.LVL21:
 223              	.L26:
 289:../Demo/Common/Minimal/dynamic.c **** 
 224              		.loc 1 289 0
 225 0006 0024     		movs	r4, #0
 226 0008 1D4B     		ldr	r3, .L30
 227 000a 1C60     		str	r4, [r3]
 228              	.LVL22:
 294:../Demo/Common/Minimal/dynamic.c **** 		{
 229              		.loc 1 294 0
 230 000c 16E0     		b	.L21
 231              	.LVL23:
 232              	.L23:
 300:../Demo/Common/Minimal/dynamic.c **** 			{
 233              		.loc 1 300 0
 234 000e 1D4E     		ldr	r6, .L30+4
 235 0010 3068     		ldr	r0, [r6]
 236 0012 FFF7FEFF 		bl	vTaskSuspend
 237              	.LVL24:
 308:../Demo/Common/Minimal/dynamic.c **** 			}
 238              		.loc 1 308 0
 239 0016 1A4D     		ldr	r5, .L30
 240 0018 D5F80080 		ldr	r8, [r5]
 241              	.LVL25:
 310:../Demo/Common/Minimal/dynamic.c **** 
 242              		.loc 1 310 0
 243 001c 3068     		ldr	r0, [r6]
 244 001e FFF7FEFF 		bl	vTaskResume
 245              	.LVL26:
 323:../Demo/Common/Minimal/dynamic.c **** 
 246              		.loc 1 323 0
 247 0022 8020     		movs	r0, #128
 248 0024 FFF7FEFF 		bl	vTaskDelay
 249              	.LVL27:
 328:../Demo/Common/Minimal/dynamic.c **** 			{
 250              		.loc 1 328 0
 251 0028 FFF7FEFF 		bl	vTaskSuspendAll
 252              	.LVL28:
 330:../Demo/Common/Minimal/dynamic.c **** 				{
 253              		.loc 1 330 0
 254 002c 2B68     		ldr	r3, [r5]
 255 002e 9845     		cmp	r8, r3
 256 0030 00D1     		bne	.L22
 334:../Demo/Common/Minimal/dynamic.c **** 				}
 257              		.loc 1 334 0
 258 0032 0127     		movs	r7, #1
 259              	.LVL29:
 260              	.L22:
 337:../Demo/Common/Minimal/dynamic.c **** 		}
 261              		.loc 1 337 0 discriminator 2
 262 0034 FFF7FEFF 		bl	xTaskResumeAll
 263              	.LVL30:
 294:../Demo/Common/Minimal/dynamic.c **** 		{
 264              		.loc 1 294 0 discriminator 2
 265 0038 0134     		adds	r4, r4, #1
 266              	.LVL31:
 267 003a A4B2     		uxth	r4, r4
 268              	.LVL32:
 269              	.L21:
 294:../Demo/Common/Minimal/dynamic.c **** 		{
 270              		.loc 1 294 0 is_stmt 0 discriminator 1
 271 003c 23B2     		sxth	r3, r4
 272 003e 042B     		cmp	r3, #4
 273 0040 E5DD     		ble	.L23
 344:../Demo/Common/Minimal/dynamic.c **** 
 274              		.loc 1 344 0 is_stmt 1
 275 0042 104B     		ldr	r3, .L30+4
 276 0044 1868     		ldr	r0, [r3]
 277 0046 FFF7FEFF 		bl	vTaskSuspend
 278              	.LVL33:
 347:../Demo/Common/Minimal/dynamic.c **** 
 279              		.loc 1 347 0
 280 004a 0D4C     		ldr	r4, .L30
 281              	.LVL34:
 282 004c 0023     		movs	r3, #0
 283 004e 2360     		str	r3, [r4]
 358:../Demo/Common/Minimal/dynamic.c **** 
 284              		.loc 1 358 0
 285 0050 0D4B     		ldr	r3, .L30+8
 286 0052 1868     		ldr	r0, [r3]
 287 0054 FFF7FEFF 		bl	vTaskResume
 288              	.LVL35:
 373:../Demo/Common/Minimal/dynamic.c **** 		{
 289              		.loc 1 373 0
 290 0058 2368     		ldr	r3, [r4]
 291 005a FF2B     		cmp	r3, #255
 292 005c 00D0     		beq	.L24
 375:../Demo/Common/Minimal/dynamic.c **** 		}
 293              		.loc 1 375 0
 294 005e 0127     		movs	r7, #1
 295              	.LVL36:
 296              	.L24:
 378:../Demo/Common/Minimal/dynamic.c **** 		{
 297              		.loc 1 378 0
 298 0060 47B9     		cbnz	r7, .L25
 381:../Demo/Common/Minimal/dynamic.c **** 				usCheckVariable++;
 299              		.loc 1 381 0
 300 0062 FFF7FEFF 		bl	vPortEnterCritical
 301              	.LVL37:
 382:../Demo/Common/Minimal/dynamic.c **** 			portEXIT_CRITICAL();
 302              		.loc 1 382 0
 303 0066 094A     		ldr	r2, .L30+12
 304 0068 1388     		ldrh	r3, [r2]
 305 006a 0133     		adds	r3, r3, #1
 306 006c 9BB2     		uxth	r3, r3
 307 006e 1380     		strh	r3, [r2]	@ movhi
 383:../Demo/Common/Minimal/dynamic.c **** 		}
 308              		.loc 1 383 0
 309 0070 FFF7FEFF 		bl	vPortExitCritical
 310              	.LVL38:
 311              	.L25:
 387:../Demo/Common/Minimal/dynamic.c **** 
 312              		.loc 1 387 0
 313 0074 034B     		ldr	r3, .L30+4
 314 0076 1868     		ldr	r0, [r3]
 315 0078 FFF7FEFF 		bl	vTaskResume
 316              	.LVL39:
 392:../Demo/Common/Minimal/dynamic.c **** }
 317              		.loc 1 392 0
 318 007c C3E7     		b	.L26
 319              	.L31:
 320 007e 00BF     		.align	2
 321              	.L30:
 322 0080 00000000 		.word	.LANCHOR4
 323 0084 00000000 		.word	.LANCHOR5
 324 0088 00000000 		.word	.LANCHOR6
 325 008c 00000000 		.word	.LANCHOR7
 326              		.cfi_endproc
 327              	.LFE4:
 329              		.section	.text.vContinuousIncrementTask,"ax",%progbits
 330              		.align	2
 331              		.thumb
 332              		.thumb_func
 334              	vContinuousIncrementTask:
 335              	.LFB3:
 242:../Demo/Common/Minimal/dynamic.c **** volatile uint32_t *pulCounter;
 336              		.loc 1 242 0
 337              		.cfi_startproc
 338              		@ args = 0, pretend = 0, frame = 0
 339              		@ frame_needed = 0, uses_anonymous_args = 0
 340              	.LVL40:
 341 0000 38B5     		push	{r3, r4, r5, lr}
 342              		.cfi_def_cfa_offset 16
 343              		.cfi_offset 3, -16
 344              		.cfi_offset 4, -12
 345              		.cfi_offset 5, -8
 346              		.cfi_offset 14, -4
 347 0002 0546     		mov	r5, r0
 348              	.LVL41:
 252:../Demo/Common/Minimal/dynamic.c **** 
 349              		.loc 1 252 0
 350 0004 0020     		movs	r0, #0
 351              	.LVL42:
 352 0006 FFF7FEFF 		bl	uxTaskPriorityGet
 353              	.LVL43:
 354 000a 0446     		mov	r4, r0
 355              	.LVL44:
 356              	.L33:
 258:../Demo/Common/Minimal/dynamic.c **** 		{
 357              		.loc 1 258 0 discriminator 1
 358 000c 0020     		movs	r0, #0
 359 000e 611C     		adds	r1, r4, #1
 360 0010 FFF7FEFF 		bl	vTaskPrioritySet
 361              	.LVL45:
 261:../Demo/Common/Minimal/dynamic.c **** 		}
 362              		.loc 1 261 0 discriminator 1
 363 0014 2B68     		ldr	r3, [r5]
 364 0016 0133     		adds	r3, r3, #1
 365 0018 2B60     		str	r3, [r5]
 263:../Demo/Common/Minimal/dynamic.c **** 
 366              		.loc 1 263 0 discriminator 1
 367 001a 0020     		movs	r0, #0
 368 001c 2146     		mov	r1, r4
 369 001e FFF7FEFF 		bl	vTaskPrioritySet
 370              	.LVL46:
 270:../Demo/Common/Minimal/dynamic.c **** }
 371              		.loc 1 270 0 discriminator 1
 372 0022 F3E7     		b	.L33
 373              		.cfi_endproc
 374              	.LFE3:
 376              		.section	.text.vStartDynamicPriorityTasks,"ax",%progbits
 377              		.align	2
 378              		.global	vStartDynamicPriorityTasks
 379              		.thumb
 380              		.thumb_func
 382              	vStartDynamicPriorityTasks:
 383              	.LFB1:
 189:../Demo/Common/Minimal/dynamic.c **** 	xSuspendedTestQueue = xQueueCreate( priSUSPENDED_QUEUE_LENGTH, sizeof( uint32_t ) );
 384              		.loc 1 189 0
 385              		.cfi_startproc
 386              		@ args = 0, pretend = 0, frame = 0
 387              		@ frame_needed = 0, uses_anonymous_args = 0
 388 0000 30B5     		push	{r4, r5, lr}
 389              		.cfi_def_cfa_offset 12
 390              		.cfi_offset 4, -12
 391              		.cfi_offset 5, -8
 392              		.cfi_offset 14, -4
 393 0002 85B0     		sub	sp, sp, #20
 394              		.cfi_def_cfa_offset 32
 190:../Demo/Common/Minimal/dynamic.c **** 
 395              		.loc 1 190 0
 396 0004 0120     		movs	r0, #1
 397 0006 0421     		movs	r1, #4
 398 0008 0022     		movs	r2, #0
 399 000a FFF7FEFF 		bl	xQueueGenericCreate
 400              	.LVL47:
 401 000e 1D4B     		ldr	r3, .L37
 402 0010 1860     		str	r0, [r3]
 200:../Demo/Common/Minimal/dynamic.c **** 	xTaskCreate( vLimitedIncrementTask, "LIM_INC", priSTACK_SIZE, ( void * ) &ulCounter, tskIDLE_PRIOR
 403              		.loc 1 200 0
 404 0012 1D4D     		ldr	r5, .L37+4
 405 0014 0024     		movs	r4, #0
 406 0016 0094     		str	r4, [sp]
 407 0018 1C4B     		ldr	r3, .L37+8
 408 001a 0193     		str	r3, [sp, #4]
 409 001c 0294     		str	r4, [sp, #8]
 410 001e 0394     		str	r4, [sp, #12]
 411 0020 1B48     		ldr	r0, .L37+12
 412 0022 1C49     		ldr	r1, .L37+16
 413 0024 8022     		movs	r2, #128
 414 0026 2B46     		mov	r3, r5
 415 0028 FFF7FEFF 		bl	xTaskGenericCreate
 416              	.LVL48:
 201:../Demo/Common/Minimal/dynamic.c **** 	xTaskCreate( vCounterControlTask, "C_CTRL", priSTACK_SIZE, NULL, tskIDLE_PRIORITY, NULL );
 417              		.loc 1 201 0
 418 002c 0123     		movs	r3, #1
 419 002e 0093     		str	r3, [sp]
 420 0030 194B     		ldr	r3, .L37+20
 421 0032 0193     		str	r3, [sp, #4]
 422 0034 0294     		str	r4, [sp, #8]
 423 0036 0394     		str	r4, [sp, #12]
 424 0038 1848     		ldr	r0, .L37+24
 425 003a 1949     		ldr	r1, .L37+28
 426 003c 8022     		movs	r2, #128
 427 003e 2B46     		mov	r3, r5
 428 0040 FFF7FEFF 		bl	xTaskGenericCreate
 429              	.LVL49:
 202:../Demo/Common/Minimal/dynamic.c **** 	xTaskCreate( vQueueSendWhenSuspendedTask, "SUSP_TX", priSTACK_SIZE, NULL, tskIDLE_PRIORITY, NULL )
 430              		.loc 1 202 0
 431 0044 0094     		str	r4, [sp]
 432 0046 0194     		str	r4, [sp, #4]
 433 0048 0294     		str	r4, [sp, #8]
 434 004a 0394     		str	r4, [sp, #12]
 435 004c 1548     		ldr	r0, .L37+32
 436 004e 1649     		ldr	r1, .L37+36
 437 0050 8022     		movs	r2, #128
 438 0052 2346     		mov	r3, r4
 439 0054 FFF7FEFF 		bl	xTaskGenericCreate
 440              	.LVL50:
 203:../Demo/Common/Minimal/dynamic.c **** 	xTaskCreate( vQueueReceiveWhenSuspendedTask, "SUSP_RX", priSTACK_SIZE, NULL, tskIDLE_PRIORITY, NUL
 441              		.loc 1 203 0
 442 0058 0094     		str	r4, [sp]
 443 005a 0194     		str	r4, [sp, #4]
 444 005c 0294     		str	r4, [sp, #8]
 445 005e 0394     		str	r4, [sp, #12]
 446 0060 1248     		ldr	r0, .L37+40
 447 0062 1349     		ldr	r1, .L37+44
 448 0064 8022     		movs	r2, #128
 449 0066 2346     		mov	r3, r4
 450 0068 FFF7FEFF 		bl	xTaskGenericCreate
 451              	.LVL51:
 204:../Demo/Common/Minimal/dynamic.c **** }
 452              		.loc 1 204 0
 453 006c 0094     		str	r4, [sp]
 454 006e 0194     		str	r4, [sp, #4]
 455 0070 0294     		str	r4, [sp, #8]
 456 0072 0394     		str	r4, [sp, #12]
 457 0074 0F48     		ldr	r0, .L37+48
 458 0076 1049     		ldr	r1, .L37+52
 459 0078 8022     		movs	r2, #128
 460 007a 2346     		mov	r3, r4
 461 007c FFF7FEFF 		bl	xTaskGenericCreate
 462              	.LVL52:
 205:../Demo/Common/Minimal/dynamic.c **** /*-----------------------------------------------------------*/
 463              		.loc 1 205 0
 464 0080 05B0     		add	sp, sp, #20
 465              		.cfi_def_cfa_offset 12
 466              		@ sp needed
 467 0082 30BD     		pop	{r4, r5, pc}
 468              	.L38:
 469              		.align	2
 470              	.L37:
 471 0084 00000000 		.word	xSuspendedTestQueue
 472 0088 00000000 		.word	.LANCHOR4
 473 008c 00000000 		.word	.LANCHOR5
 474 0090 00000000 		.word	vContinuousIncrementTask
 475 0094 00000000 		.word	.LC0
 476 0098 00000000 		.word	.LANCHOR6
 477 009c 00000000 		.word	vLimitedIncrementTask
 478 00a0 08000000 		.word	.LC1
 479 00a4 00000000 		.word	vCounterControlTask
 480 00a8 10000000 		.word	.LC2
 481 00ac 00000000 		.word	vQueueSendWhenSuspendedTask
 482 00b0 18000000 		.word	.LC3
 483 00b4 00000000 		.word	vQueueReceiveWhenSuspendedTask
 484 00b8 20000000 		.word	.LC4
 485              		.cfi_endproc
 486              	.LFE1:
 488              		.section	.text.xAreDynamicPriorityTasksStillRunning,"ax",%progbits
 489              		.align	2
 490              		.global	xAreDynamicPriorityTasksStillRunning
 491              		.thumb
 492              		.thumb_func
 494              	xAreDynamicPriorityTasksStillRunning:
 495              	.LFB7:
 471:../Demo/Common/Minimal/dynamic.c **** 		}
 472:../Demo/Common/Minimal/dynamic.c **** 	}
 473:../Demo/Common/Minimal/dynamic.c **** }
 474:../Demo/Common/Minimal/dynamic.c **** /*-----------------------------------------------------------*/
 475:../Demo/Common/Minimal/dynamic.c **** 
 476:../Demo/Common/Minimal/dynamic.c **** /* Called to check that all the created tasks are still running without error. */
 477:../Demo/Common/Minimal/dynamic.c **** BaseType_t xAreDynamicPriorityTasksStillRunning( void )
 478:../Demo/Common/Minimal/dynamic.c **** {
 496              		.loc 1 478 0
 497              		.cfi_startproc
 498              		@ args = 0, pretend = 0, frame = 0
 499              		@ frame_needed = 0, uses_anonymous_args = 0
 500              		@ link register save eliminated.
 501              	.LVL53:
 479:../Demo/Common/Minimal/dynamic.c **** /* Keep a history of the check variables so we know if it has been incremented
 480:../Demo/Common/Minimal/dynamic.c **** since the last call. */
 481:../Demo/Common/Minimal/dynamic.c **** static uint16_t usLastTaskCheck = ( uint16_t ) 0;
 482:../Demo/Common/Minimal/dynamic.c **** static uint32_t ulLastExpectedValue = ( uint32_t ) 0U;
 483:../Demo/Common/Minimal/dynamic.c **** BaseType_t xReturn = pdTRUE;
 484:../Demo/Common/Minimal/dynamic.c **** 
 485:../Demo/Common/Minimal/dynamic.c **** 	/* Check the tasks are still running by ensuring the check variable
 486:../Demo/Common/Minimal/dynamic.c **** 	is still incrementing. */
 487:../Demo/Common/Minimal/dynamic.c **** 
 488:../Demo/Common/Minimal/dynamic.c **** 	if( usCheckVariable == usLastTaskCheck )
 502              		.loc 1 488 0
 503 0000 104B     		ldr	r3, .L48
 504 0002 1B88     		ldrh	r3, [r3]
 505 0004 9BB2     		uxth	r3, r3
 506 0006 104A     		ldr	r2, .L48+4
 507 0008 1288     		ldrh	r2, [r2]
 508 000a 9342     		cmp	r3, r2
 509 000c 01D0     		beq	.L44
 483:../Demo/Common/Minimal/dynamic.c **** 
 510              		.loc 1 483 0
 511 000e 0120     		movs	r0, #1
 512 0010 00E0     		b	.L40
 513              	.L44:
 489:../Demo/Common/Minimal/dynamic.c **** 	{
 490:../Demo/Common/Minimal/dynamic.c **** 		/* The check has not incremented so an error exists. */
 491:../Demo/Common/Minimal/dynamic.c **** 		xReturn = pdFALSE;
 514              		.loc 1 491 0
 515 0012 0020     		movs	r0, #0
 516              	.L40:
 517              	.LVL54:
 492:../Demo/Common/Minimal/dynamic.c **** 	}
 493:../Demo/Common/Minimal/dynamic.c **** 
 494:../Demo/Common/Minimal/dynamic.c **** 	if( ulExpectedValue == ulLastExpectedValue )
 518              		.loc 1 494 0
 519 0014 0D4B     		ldr	r3, .L48+8
 520 0016 1B68     		ldr	r3, [r3]
 521 0018 0D4A     		ldr	r2, .L48+12
 522 001a 1268     		ldr	r2, [r2]
 523 001c 9342     		cmp	r3, r2
 524 001e 00D1     		bne	.L41
 495:../Demo/Common/Minimal/dynamic.c **** 	{
 496:../Demo/Common/Minimal/dynamic.c **** 		/* The value being received by the queue receive task has not
 497:../Demo/Common/Minimal/dynamic.c **** 		incremented so an error exists. */
 498:../Demo/Common/Minimal/dynamic.c **** 		xReturn = pdFALSE;
 525              		.loc 1 498 0
 526 0020 0020     		movs	r0, #0
 527              	.LVL55:
 528              	.L41:
 499:../Demo/Common/Minimal/dynamic.c **** 	}
 500:../Demo/Common/Minimal/dynamic.c **** 
 501:../Demo/Common/Minimal/dynamic.c **** 	if( xSuspendedQueueSendError == pdTRUE )
 529              		.loc 1 501 0
 530 0022 0C4A     		ldr	r2, .L48+16
 531 0024 1268     		ldr	r2, [r2]
 532 0026 012A     		cmp	r2, #1
 533 0028 00D1     		bne	.L42
 502:../Demo/Common/Minimal/dynamic.c **** 	{
 503:../Demo/Common/Minimal/dynamic.c **** 		xReturn = pdFALSE;
 534              		.loc 1 503 0
 535 002a 0020     		movs	r0, #0
 536              	.LVL56:
 537              	.L42:
 504:../Demo/Common/Minimal/dynamic.c **** 	}
 505:../Demo/Common/Minimal/dynamic.c **** 
 506:../Demo/Common/Minimal/dynamic.c **** 	if( xSuspendedQueueReceiveError == pdTRUE )
 538              		.loc 1 506 0
 539 002c 0A4A     		ldr	r2, .L48+20
 540 002e 1268     		ldr	r2, [r2]
 541 0030 012A     		cmp	r2, #1
 542 0032 00D1     		bne	.L43
 507:../Demo/Common/Minimal/dynamic.c **** 	{
 508:../Demo/Common/Minimal/dynamic.c **** 		xReturn = pdFALSE;
 543              		.loc 1 508 0
 544 0034 0020     		movs	r0, #0
 545              	.LVL57:
 546              	.L43:
 509:../Demo/Common/Minimal/dynamic.c **** 	}
 510:../Demo/Common/Minimal/dynamic.c **** 
 511:../Demo/Common/Minimal/dynamic.c **** 	usLastTaskCheck = usCheckVariable;
 547              		.loc 1 511 0
 548 0036 034A     		ldr	r2, .L48
 549 0038 1188     		ldrh	r1, [r2]
 550 003a 034A     		ldr	r2, .L48+4
 551 003c 1180     		strh	r1, [r2]	@ movhi
 512:../Demo/Common/Minimal/dynamic.c **** 	ulLastExpectedValue = ulExpectedValue;
 552              		.loc 1 512 0
 553 003e 044A     		ldr	r2, .L48+12
 554 0040 1360     		str	r3, [r2]
 513:../Demo/Common/Minimal/dynamic.c **** 
 514:../Demo/Common/Minimal/dynamic.c **** 	return xReturn;
 515:../Demo/Common/Minimal/dynamic.c **** }
 555              		.loc 1 515 0
 556 0042 7047     		bx	lr
 557              	.L49:
 558              		.align	2
 559              	.L48:
 560 0044 00000000 		.word	.LANCHOR7
 561 0048 00000000 		.word	.LANCHOR8
 562 004c 00000000 		.word	.LANCHOR1
 563 0050 00000000 		.word	.LANCHOR9
 564 0054 00000000 		.word	.LANCHOR3
 565 0058 00000000 		.word	.LANCHOR0
 566              		.cfi_endproc
 567              	.LFE7:
 569              		.comm	xSuspendedTestQueue,4,4
 570              		.section	.bss.usCheckVariable,"aw",%nobits
 571              		.align	1
 572              		.set	.LANCHOR7,. + 0
 575              	usCheckVariable:
 576 0000 0000     		.space	2
 577              		.section	.bss.xLimitedIncrementHandle,"aw",%nobits
 578              		.align	2
 579              		.set	.LANCHOR6,. + 0
 582              	xLimitedIncrementHandle:
 583 0000 00000000 		.space	4
 584              		.section	.bss.usLastTaskCheck.5137,"aw",%nobits
 585              		.align	1
 586              		.set	.LANCHOR8,. + 0
 589              	usLastTaskCheck.5137:
 590 0000 0000     		.space	2
 591              		.section	.bss.ulLastExpectedValue.5138,"aw",%nobits
 592              		.align	2
 593              		.set	.LANCHOR9,. + 0
 596              	ulLastExpectedValue.5138:
 597 0000 00000000 		.space	4
 598              		.section	.bss.xSuspendedQueueSendError,"aw",%nobits
 599              		.align	2
 600              		.set	.LANCHOR3,. + 0
 603              	xSuspendedQueueSendError:
 604 0000 00000000 		.space	4
 605              		.section	.bss.ulCounter,"aw",%nobits
 606              		.align	2
 607              		.set	.LANCHOR4,. + 0
 610              	ulCounter:
 611 0000 00000000 		.space	4
 612              		.section	.rodata.str1.4,"aMS",%progbits,1
 613              		.align	2
 614              	.LC0:
 615 0000 434E545F 		.ascii	"CNT_INC\000"
 615      494E4300 
 616              	.LC1:
 617 0008 4C494D5F 		.ascii	"LIM_INC\000"
 617      494E4300 
 618              	.LC2:
 619 0010 435F4354 		.ascii	"C_CTRL\000"
 619      524C00
 620 0017 00       		.space	1
 621              	.LC3:
 622 0018 53555350 		.ascii	"SUSP_TX\000"
 622      5F545800 
 623              	.LC4:
 624 0020 53555350 		.ascii	"SUSP_RX\000"
 624      5F525800 
 625              		.section	.bss.ulExpectedValue,"aw",%nobits
 626              		.align	2
 627              		.set	.LANCHOR1,. + 0
 630              	ulExpectedValue:
 631 0000 00000000 		.space	4
 632              		.section	.bss.xSuspendedQueueReceiveError,"aw",%nobits
 633              		.align	2
 634              		.set	.LANCHOR0,. + 0
 637              	xSuspendedQueueReceiveError:
 638 0000 00000000 		.space	4
 639              		.section	.bss.xContinuousIncrementHandle,"aw",%nobits
 640              		.align	2
 641              		.set	.LANCHOR5,. + 0
 644              	xContinuousIncrementHandle:
 645 0000 00000000 		.space	4
 646              		.section	.bss.ulValueToSend.5124,"aw",%nobits
 647              		.align	2
 648              		.set	.LANCHOR2,. + 0
 651              	ulValueToSend.5124:
 652 0000 00000000 		.space	4
 653              		.text
 654              	.Letext0:
 655              		.file 2 "/usr/local/gcc-arm-none-eabi-4_9-2015q3/arm-none-eabi/include/machine/_default_types.h"
 656              		.file 3 "/usr/local/gcc-arm-none-eabi-4_9-2015q3/arm-none-eabi/include/sys/_stdint.h"
 657              		.file 4 "/home/robb-gosset/workspace/FYP/FreeRTOS/Source/include/projdefs.h"
 658              		.file 5 "/home/robb-gosset/workspace/FYP/FreeRTOS/Source/portable/GCC/ARM_CM3/portmacro.h"
 659              		.file 6 "/home/robb-gosset/workspace/FYP/FreeRTOS/Source/include/task.h"
 660              		.file 7 "/home/robb-gosset/workspace/FYP/FreeRTOS/Source/include/queue.h"
DEFINED SYMBOLS
                            *ABS*:00000000 dynamic.c
     /tmp/ccOLYxrd.s:19     .text.vQueueReceiveWhenSuspendedTask:00000000 $t
     /tmp/ccOLYxrd.s:23     .text.vQueueReceiveWhenSuspendedTask:00000000 vQueueReceiveWhenSuspendedTask
     /tmp/ccOLYxrd.s:94     .text.vQueueReceiveWhenSuspendedTask:00000050 $d
                            *COM*:00000004 xSuspendedTestQueue
     /tmp/ccOLYxrd.s:101    .text.vQueueSendWhenSuspendedTask:00000000 $t
     /tmp/ccOLYxrd.s:105    .text.vQueueSendWhenSuspendedTask:00000000 vQueueSendWhenSuspendedTask
     /tmp/ccOLYxrd.s:154    .text.vQueueSendWhenSuspendedTask:00000034 $d
     /tmp/ccOLYxrd.s:161    .text.vLimitedIncrementTask:00000000 $t
     /tmp/ccOLYxrd.s:165    .text.vLimitedIncrementTask:00000000 vLimitedIncrementTask
     /tmp/ccOLYxrd.s:200    .text.vCounterControlTask:00000000 $t
     /tmp/ccOLYxrd.s:204    .text.vCounterControlTask:00000000 vCounterControlTask
     /tmp/ccOLYxrd.s:322    .text.vCounterControlTask:00000080 $d
     /tmp/ccOLYxrd.s:330    .text.vContinuousIncrementTask:00000000 $t
     /tmp/ccOLYxrd.s:334    .text.vContinuousIncrementTask:00000000 vContinuousIncrementTask
     /tmp/ccOLYxrd.s:377    .text.vStartDynamicPriorityTasks:00000000 $t
     /tmp/ccOLYxrd.s:382    .text.vStartDynamicPriorityTasks:00000000 vStartDynamicPriorityTasks
     /tmp/ccOLYxrd.s:471    .text.vStartDynamicPriorityTasks:00000084 $d
     /tmp/ccOLYxrd.s:489    .text.xAreDynamicPriorityTasksStillRunning:00000000 $t
     /tmp/ccOLYxrd.s:494    .text.xAreDynamicPriorityTasksStillRunning:00000000 xAreDynamicPriorityTasksStillRunning
     /tmp/ccOLYxrd.s:560    .text.xAreDynamicPriorityTasksStillRunning:00000044 $d
     /tmp/ccOLYxrd.s:571    .bss.usCheckVariable:00000000 $d
     /tmp/ccOLYxrd.s:575    .bss.usCheckVariable:00000000 usCheckVariable
     /tmp/ccOLYxrd.s:578    .bss.xLimitedIncrementHandle:00000000 $d
     /tmp/ccOLYxrd.s:582    .bss.xLimitedIncrementHandle:00000000 xLimitedIncrementHandle
     /tmp/ccOLYxrd.s:585    .bss.usLastTaskCheck.5137:00000000 $d
     /tmp/ccOLYxrd.s:589    .bss.usLastTaskCheck.5137:00000000 usLastTaskCheck.5137
     /tmp/ccOLYxrd.s:592    .bss.ulLastExpectedValue.5138:00000000 $d
     /tmp/ccOLYxrd.s:596    .bss.ulLastExpectedValue.5138:00000000 ulLastExpectedValue.5138
     /tmp/ccOLYxrd.s:599    .bss.xSuspendedQueueSendError:00000000 $d
     /tmp/ccOLYxrd.s:603    .bss.xSuspendedQueueSendError:00000000 xSuspendedQueueSendError
     /tmp/ccOLYxrd.s:606    .bss.ulCounter:00000000 $d
     /tmp/ccOLYxrd.s:610    .bss.ulCounter:00000000 ulCounter
     /tmp/ccOLYxrd.s:613    .rodata.str1.4:00000000 $d
     /tmp/ccOLYxrd.s:626    .bss.ulExpectedValue:00000000 $d
     /tmp/ccOLYxrd.s:630    .bss.ulExpectedValue:00000000 ulExpectedValue
     /tmp/ccOLYxrd.s:633    .bss.xSuspendedQueueReceiveError:00000000 $d
     /tmp/ccOLYxrd.s:637    .bss.xSuspendedQueueReceiveError:00000000 xSuspendedQueueReceiveError
     /tmp/ccOLYxrd.s:640    .bss.xContinuousIncrementHandle:00000000 $d
     /tmp/ccOLYxrd.s:644    .bss.xContinuousIncrementHandle:00000000 xContinuousIncrementHandle
     /tmp/ccOLYxrd.s:647    .bss.ulValueToSend.5124:00000000 $d
     /tmp/ccOLYxrd.s:651    .bss.ulValueToSend.5124:00000000 ulValueToSend.5124
                     .debug_frame:00000010 $d
                           .group:00000000 wm4.0.15bbada38f0fbd9e33c92bb3b56cb535
                           .group:00000000 wm4.newlib.h.8.2702bca278809460f0af6fba1d84eb68
                           .group:00000000 wm4.features.h.22.2e382148a0560adabf236cddd4e880f4
                           .group:00000000 wm4.config.h.220.a09b0b0de3c25be3f39d71990e617bff
                           .group:00000000 wm4._ansi.h.23.9f8fcfa20193763fcf364fb91705c94b
                           .group:00000000 wm4.stdlib.h.13.4ed386f5c1a80d71e72172885d946ef2
                           .group:00000000 wm4.stddef.h.184.aa65fb7281d578229bbad41b91862635
                           .group:00000000 wm4.stddef.h.39.dc09cac7e3f758f23d559f6b28ebbb0d
                           .group:00000000 wm4._default_types.h.6.35ee9e747940367bf2a634907d1c2382
                           .group:00000000 wm4.lock.h.2.9bc98482741e5e2a9450b12934a684ea
                           .group:00000000 wm4._types.h.54.d3d34a3b7f3cc230cd159baf022b4b08
                           .group:00000000 wm4.stddef.h.158.61317cdbfb4026324507d123a50b0fd6
                           .group:00000000 wm4.reent.h.17.8bd9e4098e0428508c282cad794fae43
                           .group:00000000 wm4.cdefs.h.47.a14b68a47d722a767cc4688ffe478d81
                           .group:00000000 wm4.alloca.h.8.dfc0c703c47ec3e69746825b17d9e66d
                           .group:00000000 wm4.stdlib.h.54.cd3744e0b066087ec8fbb1bdc22d1043
                           .group:00000000 wm4._intsup.h.10.35a45952db64d30146faa63a55c20c1c
                           .group:00000000 wm4._stdint.h.10.f76354baea1c7088202064e6f3d4f5e3
                           .group:00000000 wm4.stdint.h.23.373a9d32a9e4c2e88fd347156532d281
                           .group:00000000 wm4.FreeRTOSConfig.h.71.cd6da78ae7d8769d658c28aafe88cca9
                           .group:00000000 wm4.projdefs.h.71.b3c50e668908413922aad758934ec914
                           .group:00000000 wm4.portmacro.h.72.e06018902f9ae50358ce9a175ecd983b
                           .group:00000000 wm4.portable.h.106.61ffdda1afafb5a5e1f7197ade95b43a
                           .group:00000000 wm4.mpu_wrappers.h.71.0cead7785e4b5fa8c4e0eba0dc579f11
                           .group:00000000 wm4.FreeRTOS.h.175.ac7a4fe760c4456f63e9dc2e5bf14760
                           .group:00000000 wm4.list.h.103.6a12b7b9a7a136c3cca0ee53675c5498
                           .group:00000000 wm4.task.h.88.87a3ea4713e30599c4c24f39fba43c3a
                           .group:00000000 wm4.queue.h.72.b79111e1f2901fd0fc4ec217c5b93342
                           .group:00000000 wm4.semphr.h.81.476996112f7cf2dd045dbdd37a9136bc

UNDEFINED SYMBOLS
vTaskSuspendAll
xQueueGenericReceive
xTaskResumeAll
xQueueGenericSend
vTaskDelay
vTaskSuspend
vTaskResume
vPortEnterCritical
vPortExitCritical
uxTaskPriorityGet
vTaskPrioritySet
xQueueGenericCreate
xTaskGenericCreate
